# 3ds Max Wavefront OBJ Exporter v0.97b - (c)2007 guruware
# File Created: 04.03.2020 14:55:35

mtllib Tree2_low.mtl

#
# object Tree_02
#

v  -0.5255 0.0000 -0.0000
v  -0.3716 0.0000 0.3716
v  -0.2079 0.3393 0.2729
v  -0.3302 0.3484 0.0174
v  -0.0000 0.0000 0.5255
v  0.0594 0.3267 0.3691
v  0.3716 0.0000 0.3716
v  0.3188 0.3175 0.2472
v  0.5255 0.0000 0.0000
v  0.4155 0.3173 -0.0255
v  0.3716 0.0000 -0.3716
v  0.2889 0.3269 -0.2860
v  0.0000 -0.0000 -0.5255
v  0.0167 0.3402 -0.3779
v  -0.3716 -0.0000 -0.3716
v  -0.2384 0.3490 -0.2510
v  -0.1403 0.6341 0.3131
v  -0.1072 1.1503 0.3627
v  -0.1678 1.1133 0.1981
v  -0.2439 0.6432 0.1152
v  0.0724 0.6245 0.3806
v  0.0513 1.1946 0.4337
v  0.2694 0.6200 0.2784
v  0.2150 1.2197 0.3701
v  0.3353 0.6231 0.0667
v  0.2887 1.2108 0.2093
v  0.2320 0.6322 -0.1308
v  0.2291 1.1735 0.0448
v  0.0196 0.6420 -0.1987
v  0.0705 1.1298 -0.0270
v  -0.1776 0.6465 -0.0969
v  -0.0943 1.1050 0.0364
v  -0.2651 2.5525 0.0105
v  -0.2173 2.5397 0.1299
v  0.0146 3.1684 0.2946
v  -0.0274 3.2030 0.1976
v  -0.1020 2.5088 0.1794
v  0.1159 3.1555 0.3352
v  0.0133 2.4779 0.1299
v  0.2173 3.1716 0.2957
v  0.0611 2.4651 0.0105
v  0.2592 3.2075 0.1993
v  0.0133 2.4779 -0.1089
v  0.2173 3.2420 0.1023
v  -0.1020 2.5088 -0.1584
v  0.1159 3.2550 0.0617
v  -0.2173 2.5397 -0.1089
v  0.0146 3.2388 0.1012
v  0.0043 1.7659 0.3333
v  -0.0413 1.7325 0.1970
v  0.1324 1.8032 0.3914
v  0.2675 1.8224 0.3378
v  0.3311 1.8129 0.2044
v  0.2864 1.7804 0.0689
v  0.1590 1.7432 0.0100
v  0.0230 1.7231 0.0629
v  0.0011 3.6831 0.2571
v  -0.0259 3.6929 0.1878
v  0.0663 3.6594 0.2859
v  0.1315 3.6356 0.2571
v  0.1585 3.6258 0.1878
v  0.1315 3.6356 0.1184
v  0.0663 3.6594 0.0897
v  0.0011 3.6831 0.1184
v  0.2272 4.1428 0.2277
v  0.2109 4.1400 0.1878
v  0.2665 4.1498 0.2442
v  0.3058 4.1567 0.2277
v  0.3221 4.1596 0.1878
v  0.3058 4.1567 0.1478
v  0.2665 4.1498 0.1313
v  0.2272 4.1428 0.1478
v  0.2523 4.3579 0.1878
v  -0.0414 2.4207 0.0964
v  -0.0361 2.3911 -0.0054
v  0.3119 2.5062 -0.0022
v  0.2977 2.5274 0.0770
v  -0.0442 2.4366 -0.1001
v  0.3200 2.5444 -0.0754
v  -0.0608 2.5308 -0.1322
v  0.3172 2.6196 -0.0997
v  -0.0762 2.6184 -0.0829
v  0.3052 2.6879 -0.0609
v  -0.0814 2.6481 0.0189
v  0.2909 2.7091 0.0183
v  -0.0734 2.6025 0.1136
v  0.2828 2.6708 0.0916
v  -0.0568 2.5083 0.1457
v  0.2856 2.5956 0.1158
v  0.5874 2.5569 0.0248
v  0.5856 2.5781 0.0911
v  0.5682 2.5822 -0.0376
v  0.5391 2.6393 -0.0595
v  0.5173 2.6947 -0.0282
v  0.5155 2.7159 0.0381
v  0.5347 2.6905 0.1005
v  0.5637 2.6334 0.1224
v  0.8356 2.8195 0.0440
v  0.8212 2.8098 0.0829
v  0.8199 2.8317 0.0075
v  0.7833 2.8393 -0.0053
v  0.7473 2.8379 0.0132
v  0.7329 2.8282 0.0522
v  0.7485 2.8160 0.0887
v  0.7851 2.8084 0.1014
v  0.8746 3.0716 0.0249
v  0.8714 3.0875 0.0480
v  0.8596 3.0607 0.0040
v  0.8352 3.0610 -0.0025
v  0.8157 3.0724 0.0092
v  0.8126 3.0883 0.0324
v  0.8276 3.0992 0.0533
v  0.8520 3.0989 0.0598
v  0.9580 3.2271 0.0182
v  0.9568 3.2321 0.0261
v  0.9534 3.2248 0.0106
v  0.9456 3.2264 0.0078
v  0.9391 3.2312 0.0115
v  0.9378 3.2361 0.0195
v  0.9425 3.2385 0.0271
v  0.9503 3.2368 0.0298
v  0.9576 3.3319 0.0077
v  -0.0135 3.1809 0.1853
v  0.0281 3.1416 0.2502
v  0.0230 3.3107 0.4148
v  -0.0116 3.3418 0.3588
v  0.1105 3.1367 0.2761
v  0.0922 3.3075 0.4371
v  0.1856 3.1692 0.2478
v  0.1555 3.3340 0.4127
v  0.2093 3.2200 0.1818
v  0.1757 3.3748 0.3559
v  0.1677 3.2594 0.1169
v  0.1411 3.4059 0.2999
v  0.0853 3.2642 0.0910
v  0.0719 3.4091 0.2776
v  0.0102 3.2317 0.1193
v  0.0087 3.3826 0.3019
v  0.0148 3.5762 0.5482
v  -0.0071 3.6051 0.5170
v  0.0635 3.5656 0.5581
v  0.1056 3.5880 0.5474
v  0.1186 3.6267 0.5196
v  0.0947 3.6592 0.4911
v  0.0480 3.6662 0.4785
v  0.0058 3.6438 0.4892
v  -0.0291 3.9134 0.7179
v  -0.0378 3.9303 0.7034
v  -0.0073 3.9044 0.7225
v  0.0146 3.9084 0.7145
v  0.0240 3.9232 0.6987
v  0.0153 3.9401 0.6842
v  -0.0065 3.9492 0.6796
v  -0.0284 3.9451 0.6876
v  -0.0505 4.1365 0.9027
v  -0.0558 4.1416 0.8861
v  -0.0350 4.1369 0.9119
v  -0.0184 4.1427 0.9085
v  -0.0104 4.1504 0.8943
v  -0.0156 4.1555 0.8777
v  -0.0311 4.1550 0.8684
v  -0.0478 4.1493 0.8719
v  -0.0456 4.2703 0.9909
# 163 vertices

vn -0.8721 0.4892 -0.0079
vn -0.6347 0.4819 0.6042
vn -0.6409 0.2866 0.7122
vn -0.9178 0.3951 0.0382
vn -0.0309 0.4360 0.8994
vn 0.0749 0.2054 0.9758
vn 0.6355 0.3709 0.6772
vn 0.7542 0.2186 0.6192
vn 0.9444 0.3285 0.0156
vn 0.9490 0.3027 -0.0876
vn 0.6636 0.3420 -0.6653
vn 0.6062 0.3918 -0.6921
vn -0.0088 0.3982 -0.9172
vn -0.0400 0.4502 -0.8920
vn -0.6318 0.4573 -0.6258
vn -0.6530 0.4561 -0.6046
vn -0.6286 -0.0009 0.7778
vn -0.7349 0.0690 0.6747
vn -0.9838 0.1763 -0.0324
vn -0.9751 0.1888 0.1166
vn 0.0940 -0.0655 0.9934
vn -0.0467 -0.0000 0.9989
vn 0.7650 0.0152 0.6438
vn 0.6638 -0.0336 0.7471
vn 0.9792 0.1895 -0.0724
vn 0.9974 -0.0142 0.0709
vn 0.6150 0.3578 -0.7027
vn 0.7306 0.0854 -0.6774
vn -0.0729 0.4345 -0.8977
vn -0.0138 0.2126 -0.9770
vn -0.7242 0.3748 -0.5789
vn -0.6859 0.2503 -0.6833
vn -0.9967 0.0607 -0.0533
vn -0.7765 0.0166 0.6299
vn -0.6409 0.0392 0.7666
vn -0.9805 0.1708 0.0974
vn -0.0789 0.0278 0.9965
vn 0.0491 -0.0933 0.9944
vn 0.7199 0.0789 0.6896
vn 0.7151 -0.1006 0.6917
vn 0.9937 0.0901 -0.0662
vn 0.9995 0.0024 0.0327
vn 0.6461 0.0244 -0.7628
vn 0.7469 0.1021 -0.6570
vn -0.0692 -0.0045 -0.9976
vn 0.0510 0.1645 -0.9851
vn -0.7136 0.0471 -0.6990
vn -0.7053 0.2099 -0.6771
vn -0.7132 0.0704 0.6974
vn -0.9990 -0.0228 -0.0382
vn 0.0003 0.1685 0.9857
vn 0.6743 0.2190 0.7052
vn 0.9836 0.1670 0.0677
vn 0.7816 0.0366 -0.6228
vn 0.1041 -0.0677 -0.9923
vn -0.6582 -0.0805 -0.7485
vn -0.7090 0.1945 0.6779
vn -0.9688 0.2480 -0.0021
vn -0.0348 0.0831 0.9959
vn 0.6980 0.0110 0.7160
vn 1.0000 -0.0085 -0.0038
vn 0.6917 0.0062 -0.7221
vn -0.0432 0.0666 -0.9968
vn -0.7106 0.1830 -0.6794
vn -0.6728 0.2877 0.6816
vn -0.9373 0.3486 0.0000
vn 0.0377 0.1406 0.9893
vn 0.7291 0.0503 0.6825
vn 0.9995 0.0311 0.0000
vn 0.7291 0.0503 -0.6825
vn 0.0377 0.1406 -0.9893
vn -0.6728 0.2877 -0.6816
vn -0.0747 0.9972 -0.0000
vn 0.2688 -0.7428 0.6132
vn 0.3136 -0.9460 -0.0817
vn 0.2529 -0.9638 -0.0847
vn 0.1912 -0.7558 0.6263
vn 0.2364 -0.6302 -0.7396
vn 0.2193 -0.6188 -0.7543
vn 0.0647 0.0876 -0.9941
vn 0.1104 0.1270 -0.9857
vn -0.1029 0.7661 -0.6344
vn -0.0186 0.7903 -0.6125
vn -0.1609 0.9834 0.0834
vn -0.1013 0.9912 0.0848
vn -0.0769 0.6460 0.7595
vn -0.0818 0.6593 0.7474
vn 0.1091 -0.0894 0.9900
vn 0.0484 -0.0791 0.9957
vn 0.4738 -0.8771 -0.0783
vn 0.3677 -0.7064 0.6049
vn 0.3840 -0.5858 -0.7137
vn 0.1615 0.0752 -0.9840
vn -0.0990 0.7410 -0.6642
vn -0.2472 0.9661 0.0740
vn -0.1879 0.5991 0.7783
vn 0.0791 -0.1188 0.9898
vn 0.9072 -0.4084 -0.1009
vn 0.7366 -0.3719 0.5649
vn 0.6369 -0.2771 -0.7194
vn 0.0038 0.0731 -0.9973
vn -0.6395 0.5757 -0.5095
vn -0.7128 0.6609 0.2349
vn -0.4324 0.4646 0.7728
vn 0.1743 -0.0652 0.9825
vn 0.9439 -0.3224 -0.0718
vn 0.7196 -0.1925 0.6672
vn 0.5675 -0.1738 -0.8048
vn -0.1235 0.0857 -0.9886
vn -0.6891 0.3162 -0.6520
vn -0.8835 0.4681 -0.0191
vn -0.6029 0.4512 0.6580
vn 0.0891 0.1485 0.9849
vn 0.9625 -0.2624 -0.0687
vn 0.8041 -0.1005 0.5859
vn 0.6646 -0.2229 -0.7132
vn 0.0142 0.0274 -0.9995
vn -0.6328 0.2922 -0.7171
vn -0.8971 0.4418 0.0020
vn -0.5500 0.3831 0.7421
vn 0.2017 0.1567 0.9668
vn 0.0977 0.9886 -0.1143
vn -0.9981 -0.0393 0.0471
vn -0.6454 -0.5425 0.5377
vn -0.6070 -0.4769 0.6357
vn -0.9898 -0.0852 0.1144
vn 0.1197 -0.6743 0.7287
vn 0.1078 -0.5504 0.8279
vn 0.8043 -0.3406 0.4870
vn 0.7602 -0.2879 0.5825
vn 0.9696 0.2431 -0.0292
vn 0.9822 0.1848 0.0323
vn 0.5429 0.6924 -0.4753
vn 0.6136 0.6061 -0.5062
vn -0.1538 0.7750 -0.6130
vn -0.1346 0.7002 -0.7011
vn -0.7659 0.4924 -0.4135
vn -0.7995 0.4075 -0.4412
vn -0.6242 -0.3879 0.6781
vn -0.9951 -0.0734 0.0666
vn 0.0768 -0.4186 0.9049
vn 0.7114 -0.1900 0.6766
vn 0.9731 0.2153 0.0825
vn 0.6402 0.5443 -0.5421
vn -0.0758 0.5875 -0.8057
vn -0.7603 0.3327 -0.5579
vn -0.7325 -0.4344 0.5242
vn -0.9958 -0.0345 -0.0844
vn -0.0142 -0.5358 0.8442
vn 0.6849 -0.2841 0.6710
vn 0.9808 0.1420 0.1340
vn 0.7066 0.5210 -0.4788
vn 0.0072 0.6291 -0.7773
vn -0.6862 0.4026 -0.6058
vn -0.7441 -0.4107 0.5270
vn -0.9977 0.0381 -0.0564
vn -0.0440 -0.5707 0.8200
vn 0.6646 -0.3578 0.6560
vn 0.9851 0.1083 0.1333
vn 0.6995 0.5572 -0.4475
vn 0.0013 0.7002 -0.7140
vn -0.6744 0.4885 -0.5537
vn -0.0810 0.7779 0.6231
# 163 vertex normals

vt 0.5211 0.0734 -1.4307
vt 0.5722 0.1262 1.4307
vt 0.5182 0.1740 -1.4307
vt 0.4759 0.1372 -1.4307
vt 0.0200 0.1262 1.4307
vt 0.0894 0.0815 -1.4307
vt 0.1343 0.1467 -1.4307
vt 0.0810 0.1778 -1.4307
vt 0.1626 0.0547 -1.4307
vt 0.1945 0.1201 -1.4307
vt 0.2346 0.0351 -1.4307
vt 0.2551 0.0992 -1.4307
vt 0.3070 0.0216 -1.4307
vt 0.3139 0.0883 -1.4307
vt 0.3819 0.0200 -1.4307
vt 0.3713 0.0909 -1.4307
vt 0.4552 0.0367 -1.4307
vt 0.4259 0.1082 -1.4307
vt 0.4937 0.2262 -1.4307
vt 0.4559 0.3227 -1.4307
vt 0.4251 0.3019 -1.4307
vt 0.4549 0.2019 -1.4307
vt 0.1620 0.2084 -1.4307
vt 0.1853 0.3283 -1.4307
vt 0.1490 0.3255 -1.4307
vt 0.1179 0.2249 -1.4307
vt 0.2092 0.1903 -1.4307
vt 0.2230 0.3272 -1.4307
vt 0.2590 0.1742 -1.4307
vt 0.2627 0.3189 -1.4307
vt 0.3110 0.1651 -1.4307
vt 0.3032 0.3043 -1.4307
vt 0.3627 0.1672 -1.4307
vt 0.3451 0.2913 -1.4307
vt 0.4118 0.1800 -1.4307
vt 0.3869 0.2895 -1.4307
vt 0.3744 0.6186 -1.4307
vt 0.3975 0.6189 -1.4307
vt 0.3897 0.7540 -1.4307
vt 0.3672 0.7545 -1.4307
vt 0.1953 0.6239 -1.4307
vt 0.2204 0.6133 -1.4307
vt 0.2451 0.7525 -1.4307
vt 0.2252 0.7553 -1.4307
vt 0.2495 0.6031 -1.4307
vt 0.2634 0.7537 -1.4307
vt 0.2805 0.5980 -1.4307
vt 0.2813 0.7567 -1.4307
vt 0.3080 0.6009 -1.4307
vt 0.2997 0.7599 -1.4307
vt 0.3310 0.6086 -1.4307
vt 0.3202 0.7608 -1.4307
vt 0.3524 0.6148 -1.4307
vt 0.3430 0.7582 -1.4307
vt 0.4252 0.4508 -1.4307
vt 0.3941 0.4421 -1.4307
vt 0.2150 0.4450 -1.4307
vt 0.1868 0.4457 -1.4307
vt 0.2415 0.4442 -1.4307
vt 0.2678 0.4431 -1.4307
vt 0.2951 0.4405 -1.4307
vt 0.3251 0.4374 -1.4307
vt 0.3595 0.4370 -1.4307
vt 0.3628 0.8550 -1.4307
vt 0.3489 0.8527 -1.4307
vt 0.2575 0.8508 -1.4307
vt 0.2441 0.8569 -1.4307
vt 0.2724 0.8453 -1.4307
vt 0.2890 0.8421 -1.4307
vt 0.3061 0.8424 -1.4307
vt 0.3215 0.8458 -1.4307
vt 0.3354 0.8497 -1.4307
vt 0.3344 0.9485 -1.4307
vt 0.3275 0.9440 -1.4307
vt 0.2860 0.9468 -1.4307
vt 0.2781 0.9478 -1.4307
vt 0.2930 0.9466 -1.4307
vt 0.2995 0.9461 -1.4307
vt 0.3058 0.9449 -1.4307
vt 0.3123 0.9433 -1.4307
vt 0.3196 0.9423 -1.4307
vt 0.3056 0.9800 -1.4307
vt 0.7234 0.0220 -0.4019
vt 0.7430 0.0253 0.4019
vt 0.7282 0.0936 -0.4019
vt 0.7121 0.0900 -0.4019
vt 0.5879 0.0253 0.4019
vt 0.6075 0.0218 -0.4019
vt 0.6200 0.0929 -0.4019
vt 0.6038 0.0928 -0.4019
vt 0.6265 0.0203 -0.4019
vt 0.6350 0.0933 -0.4019
vt 0.6458 0.0200 -0.4019
vt 0.6496 0.0930 -0.4019
vt 0.6659 0.0201 -0.4019
vt 0.6651 0.0918 -0.4019
vt 0.6857 0.0202 -0.4019
vt 0.6807 0.0900 -0.4019
vt 0.7045 0.0205 -0.4019
vt 0.6962 0.0890 -0.4019
vt 0.7219 0.1479 -0.4019
vt 0.7077 0.1471 -0.4019
vt 0.6215 0.1421 -0.4019
vt 0.6079 0.1473 -0.4019
vt 0.6349 0.1390 -0.4019
vt 0.6495 0.1389 -0.4019
vt 0.6653 0.1409 -0.4019
vt 0.6807 0.1439 -0.4019
vt 0.6944 0.1461 -0.4019
vt 0.6989 0.2199 -0.4019
vt 0.6921 0.2150 -0.4019
vt 0.6419 0.2206 -0.4019
vt 0.6337 0.2223 -0.4019
vt 0.6493 0.2159 -0.4019
vt 0.6572 0.2095 -0.4019
vt 0.6675 0.2049 -0.4019
vt 0.6780 0.2047 -0.4019
vt 0.6859 0.2092 -0.4019
vt 0.6853 0.2670 -0.4019
vt 0.6798 0.2680 -0.4019
vt 0.6540 0.2637 -0.4019
vt 0.6504 0.2678 -0.4019
vt 0.6579 0.2610 -0.4019
vt 0.6624 0.2608 -0.4019
vt 0.6668 0.2625 -0.4019
vt 0.6708 0.2651 -0.4019
vt 0.6749 0.2674 -0.4019
vt 0.6750 0.3024 -0.4019
vt 0.6731 0.3026 -0.4019
vt 0.6622 0.3013 -0.4019
vt 0.6607 0.3024 -0.4019
vt 0.6639 0.3008 -0.4019
vt 0.6657 0.3010 -0.4019
vt 0.6677 0.3016 -0.4019
vt 0.6696 0.3023 -0.4019
vt 0.6713 0.3026 -0.4019
vt 0.6683 0.3224 -0.4019
vt 0.1407 0.4757 -0.3555
vt 0.1572 0.4818 0.3555
vt 0.1494 0.5292 -0.3555
vt 0.1352 0.5242 -0.3555
vt 0.0200 0.4818 0.3555
vt 0.0378 0.4806 -0.3555
vt 0.0450 0.5271 -0.3555
vt 0.0305 0.5293 -0.3555
vt 0.0557 0.4778 -0.3555
vt 0.0590 0.5247 -0.3555
vt 0.0730 0.4738 -0.3555
vt 0.0735 0.5221 -0.3555
vt 0.0900 0.4702 -0.3555
vt 0.0888 0.5197 -0.3555
vt 0.1071 0.4688 -0.3555
vt 0.1045 0.5190 -0.3555
vt 0.1241 0.4708 -0.3555
vt 0.1202 0.5205 -0.3555
vt 0.1289 0.5867 -0.3555
vt 0.1189 0.5865 -0.3555
vt 0.0588 0.5823 -0.3555
vt 0.0496 0.5868 -0.3555
vt 0.0688 0.5820 -0.3555
vt 0.0786 0.5843 -0.3555
vt 0.0882 0.5873 -0.3555
vt 0.0983 0.5888 -0.3555
vt 0.1087 0.5882 -0.3555
vt 0.1080 0.6634 -0.3555
vt 0.1031 0.6641 -0.3555
vt 0.0741 0.6618 -0.3555
vt 0.0697 0.6641 -0.3555
vt 0.0789 0.6602 -0.3555
vt 0.0839 0.6601 -0.3555
vt 0.0888 0.6612 -0.3555
vt 0.0935 0.6628 -0.3555
vt 0.0983 0.6639 -0.3555
vt 0.1032 0.7213 -0.3555
vt 0.1001 0.7194 -0.3555
vt 0.0799 0.7221 -0.3555
vt 0.0763 0.7220 -0.3555
vt 0.0834 0.7215 -0.3555
vt 0.0867 0.7204 -0.3555
vt 0.0899 0.7190 -0.3555
vt 0.0933 0.7181 -0.3555
vt 0.0968 0.7182 -0.3555
vt 0.0904 0.7514 -0.3555
# 183 texture coords

o Tree_02
g Tree_02
usemtl wire_225088199
s 2
f 1/1/1 2/2/2 3/3/3 4/4/4 
s 4
f 2/5/2 5/6/5 6/7/6 3/8/3 
s 2
f 5/6/5 7/9/7 8/10/8 6/7/6 
s 4
f 7/9/7 9/11/9 10/12/10 8/10/8 
s 2
f 9/11/9 11/13/11 12/14/12 10/12/10 
s 8
f 11/13/11 13/15/13 14/16/14 12/14/12 
s 2
f 13/15/13 15/17/15 16/18/16 14/16/14 
s 4
f 15/17/15 1/1/1 4/4/4 16/18/16 
s 2
f 17/19/17 18/20/18 19/21/19 20/22/20 
s 4
f 21/23/21 22/24/22 18/25/18 17/26/17 
s 2
f 23/27/23 24/28/24 22/24/22 21/23/21 
s 4
f 25/29/25 26/30/26 24/28/24 23/27/23 
s 2
f 27/31/27 28/32/28 26/30/26 25/29/25 
s 8
f 29/33/29 30/34/30 28/32/28 27/31/27 
s 2
f 31/35/31 32/36/32 30/34/30 29/33/29 
s 4
f 20/22/20 19/21/19 32/36/32 31/35/31 
s 2
f 33/37/33 34/38/34 35/39/35 36/40/36 
s 4
f 34/41/34 37/42/37 38/43/38 35/44/35 
s 1
f 37/42/37 39/45/39 40/46/40 38/43/38 
s 8
f 39/45/39 41/47/41 42/48/42 40/46/40 
s 2
f 41/47/41 43/49/43 44/50/44 42/48/42 
s 8
f 43/49/43 45/51/45 46/52/46 44/50/44 
s 16
f 45/51/45 47/53/47 48/54/48 46/52/46 
s 32
f 47/53/47 33/37/33 36/40/36 48/54/48 
s 2
f 49/55/49 34/38/34 33/37/33 50/56/50 
s 4
f 51/57/51 37/42/37 34/41/34 49/58/49 
s 2
f 52/59/52 39/45/39 37/42/37 51/57/51 
s 4
f 53/60/53 41/47/41 39/45/39 52/59/52 
s 2
f 54/61/54 43/49/43 41/47/41 53/60/53 
s 8
f 55/62/55 45/51/45 43/49/43 54/61/54 
s 2
f 56/63/56 47/53/47 45/51/45 55/62/55 
s 4
f 50/56/50 33/37/33 47/53/47 56/63/56 
s 2
f 35/39/35 57/64/57 58/65/58 36/40/36 
s 4
f 38/43/38 59/66/59 57/67/57 35/44/35 
s 1
f 40/46/40 60/68/60 59/66/59 38/43/38 
s 4
f 42/48/42 61/69/61 60/68/60 40/46/40 
s 2
f 44/50/44 62/70/62 61/69/61 42/48/42 
s 8
f 46/52/46 63/71/63 62/70/62 44/50/44 
s 16
f 48/54/48 64/72/64 63/71/63 46/52/46 
s 32
f 36/40/36 58/65/58 64/72/64 48/54/48 
s 2
f 58/65/58 57/64/57 65/73/65 66/74/66 
s 4
f 57/67/57 59/66/59 67/75/67 65/76/65 
s 1
f 59/66/59 60/68/60 68/77/68 67/75/67 
s 4
f 60/68/60 61/69/61 69/78/69 68/77/68 
s 2
f 61/69/61 62/70/62 70/79/70 69/78/69 
s 8
f 62/70/62 63/71/63 71/80/71 70/79/70 
s 16
f 63/71/63 64/72/64 72/81/72 71/80/71 
s 32
f 64/72/64 58/65/58 66/74/66 72/81/72 
s 2
f 65/73/65 73/82/73 66/74/66 
s 4
f 67/75/67 73/82/73 65/76/65 
s 1
f 68/77/68 73/82/73 67/75/67 
s 64
f 69/78/69 73/82/73 68/77/68 
s 128
f 70/79/70 73/82/73 69/78/69 
s 8
f 71/80/71 73/82/73 70/79/70 
s 16
f 72/81/72 73/82/73 71/80/71 
s 32
f 66/74/66 73/82/73 72/81/72 
s 2
f 3/3/3 17/19/17 20/22/20 4/4/4 
s 4
f 6/7/6 21/23/21 17/26/17 3/8/3 
s 2
f 8/10/8 23/27/23 21/23/21 6/7/6 
s 4
f 10/12/10 25/29/25 23/27/23 8/10/8 
s 2
f 12/14/12 27/31/27 25/29/25 10/12/10 
s 8
f 14/16/14 29/33/29 27/31/27 12/14/12 
s 2
f 16/18/16 31/35/31 29/33/29 14/16/14 
s 4
f 4/4/4 20/22/20 31/35/31 16/18/16 
s 2
f 18/20/18 49/55/49 50/56/50 19/21/19 
s 4
f 22/24/22 51/57/51 49/58/49 18/25/18 
s 2
f 24/28/24 52/59/52 51/57/51 22/24/22 
s 4
f 26/30/26 53/60/53 52/59/52 24/28/24 
s 2
f 28/32/28 54/61/54 53/60/53 26/30/26 
s 8
f 30/34/30 55/62/55 54/61/54 28/32/28 
s 2
f 32/36/32 56/63/56 55/62/55 30/34/30 
s 4
f 19/21/19 50/56/50 56/63/56 32/36/32 
s 8
f 74/83/74 75/84/75 76/85/76 77/86/77 
f 75/87/75 78/88/78 79/89/79 76/90/76 
f 78/88/78 80/91/80 81/92/81 79/89/79 
f 80/91/80 82/93/82 83/94/83 81/92/81 
f 82/93/82 84/95/84 85/96/85 83/94/83 
f 84/95/84 86/97/86 87/98/87 85/96/85 
f 86/97/86 88/99/88 89/100/89 87/98/87 
f 88/99/88 74/83/74 77/86/77 89/100/89 
f 76/85/76 90/101/90 91/102/91 77/86/77 
f 79/89/79 92/103/92 90/104/90 76/90/76 
f 81/92/81 93/105/93 92/103/92 79/89/79 
f 83/94/83 94/106/94 93/105/93 81/92/81 
f 85/96/85 95/107/95 94/106/94 83/94/83 
f 87/98/87 96/108/96 95/107/95 85/96/85 
f 89/100/89 97/109/97 96/108/96 87/98/87 
f 77/86/77 91/102/91 97/109/97 89/100/89 
s off
f 91/102/91 90/101/90 98/110/98 99/111/99 
f 90/104/90 92/103/92 100/112/100 98/113/98 
f 92/103/92 93/105/93 101/114/101 100/112/100 
f 93/105/93 94/106/94 102/115/102 101/114/101 
f 94/106/94 95/107/95 103/116/103 102/115/102 
f 95/107/95 96/108/96 104/117/104 103/116/103 
f 96/108/96 97/109/97 105/118/105 104/117/104 
f 97/109/97 91/102/91 99/111/99 105/118/105 
f 99/111/99 98/110/98 106/119/106 107/120/107 
f 98/113/98 100/112/100 108/121/108 106/122/106 
f 100/112/100 101/114/101 109/123/109 108/121/108 
f 101/114/101 102/115/102 110/124/110 109/123/109 
f 102/115/102 103/116/103 111/125/111 110/124/110 
f 103/116/103 104/117/104 112/126/112 111/125/111 
f 104/117/104 105/118/105 113/127/113 112/126/112 
f 105/118/105 99/111/99 107/120/107 113/127/113 
f 107/120/107 106/119/106 114/128/114 115/129/115 
f 106/122/106 108/121/108 116/130/116 114/131/114 
f 108/121/108 109/123/109 117/132/117 116/130/116 
f 109/123/109 110/124/110 118/133/118 117/132/117 
f 110/124/110 111/125/111 119/134/119 118/133/118 
f 111/125/111 112/126/112 120/135/120 119/134/119 
f 112/126/112 113/127/113 121/136/121 120/135/120 
f 113/127/113 107/120/107 115/129/115 121/136/121 
f 114/128/114 122/137/122 115/129/115 
f 116/130/116 122/137/122 114/131/114 
f 117/132/117 122/137/122 116/130/116 
f 118/133/118 122/137/122 117/132/117 
f 119/134/119 122/137/122 118/133/118 
f 120/135/120 122/137/122 119/134/119 
f 121/136/121 122/137/122 120/135/120 
f 115/129/115 122/137/122 121/136/121 
s 8
f 123/138/123 124/139/124 125/140/125 126/141/126 
f 124/142/124 127/143/127 128/144/128 125/145/125 
f 127/143/127 129/146/129 130/147/130 128/144/128 
f 129/146/129 131/148/131 132/149/132 130/147/130 
f 131/148/131 133/150/133 134/151/134 132/149/132 
f 133/150/133 135/152/135 136/153/136 134/151/134 
f 135/152/135 137/154/137 138/155/138 136/153/136 
f 137/154/137 123/138/123 126/141/126 138/155/138 
f 125/140/125 139/156/139 140/157/140 126/141/126 
f 128/144/128 141/158/141 139/159/139 125/145/125 
f 130/147/130 142/160/142 141/158/141 128/144/128 
f 132/149/132 143/161/143 142/160/142 130/147/130 
f 134/151/134 144/162/144 143/161/143 132/149/132 
f 136/153/136 145/163/145 144/162/144 134/151/134 
f 138/155/138 146/164/146 145/163/145 136/153/136 
f 126/141/126 140/157/140 146/164/146 138/155/138 
s off
f 140/157/140 139/156/139 147/165/147 148/166/148 
f 139/159/139 141/158/141 149/167/149 147/168/147 
f 141/158/141 142/160/142 150/169/150 149/167/149 
f 142/160/142 143/161/143 151/170/151 150/169/150 
f 143/161/143 144/162/144 152/171/152 151/170/151 
f 144/162/144 145/163/145 153/172/153 152/171/152 
f 145/163/145 146/164/146 154/173/154 153/172/153 
f 146/164/146 140/157/140 148/166/148 154/173/154 
f 148/166/148 147/165/147 155/174/155 156/175/156 
f 147/168/147 149/167/149 157/176/157 155/177/155 
f 149/167/149 150/169/150 158/178/158 157/176/157 
f 150/169/150 151/170/151 159/179/159 158/178/158 
f 151/170/151 152/171/152 160/180/160 159/179/159 
f 152/171/152 153/172/153 161/181/161 160/180/160 
f 153/172/153 154/173/154 162/182/162 161/181/161 
f 154/173/154 148/166/148 156/175/156 162/182/162 
f 156/175/156 155/174/155 163/183/163 
f 155/177/155 157/176/157 163/183/163 
f 157/176/157 158/178/158 163/183/163 
f 158/178/158 159/179/159 163/183/163 
f 159/179/159 160/180/160 163/183/163 
f 160/180/160 161/181/161 163/183/163 
f 161/181/161 162/182/162 163/183/163 
f 162/182/162 156/175/156 163/183/163 
# 136 polygons - 24 triangles

