%YAML 1.1
%TAG !u! tag:unity3d.com,2011:
--- !u!21 &2100000
Material:
  serializedVersion: 6
  m_ObjectHideFlags: 0
  m_CorrespondingSourceObject: {fileID: 0}
  m_PrefabInstance: {fileID: 0}
  m_PrefabAsset: {fileID: 0}
  m_Name: Body
  m_Shader: {fileID: 4800000, guid: e17fabb992d8ef84e9d472c3e82a7bca, type: 3}
  m_ShaderKeywords: 
  m_LightmapFlags: 4
  m_EnableInstancingVariants: 0
  m_DoubleSidedGI: 0
  m_CustomRenderQueue: -1
  stringTagMap: {}
  disabledShaderPasses: []
  m_SavedProperties:
    serializedVersion: 3
    m_TexEnvs:
    - Texture2D_1F94298A:
        m_Texture: {fileID: 2800000, guid: 548637300a4d74a53bfe4acf5fb076a8, type: 3}
        m_Scale: {x: 1, y: 1}
        m_Offset: {x: 0, y: 0}
    - Texture2D_44758B8B:
        m_Texture: {fileID: 0}
        m_Scale: {x: 1, y: 1}
        m_Offset: {x: 0, y: 0}
    - Texture2D_A1AC5E08:
        m_Texture: {fileID: 0}
        m_Scale: {x: 1, y: 1}
        m_Offset: {x: 0, y: 0}
    m_Floats:
    - Boolean_5F3F3066: 1
    - Boolean_7D16A5C7: 0
    - Boolean_ED1F7A45: 1
    - Vector1_28DB988: 3
    - Vector1_30136C17: 0.04
    - Vector1_3A15C4B4: 0.67
    - Vector1_43110730: 1
    - Vector1_462FB5AE: 45
    - Vector1_6C2FFD40: 0.165
    - Vector1_B3B28F64: 2.5
    - Vector1_C91F4DC7: 1
    - Vector1_D0D0CB2A: 1
    m_Colors:
    - Color_11680D00: {r: 0.91372555, g: 0.24705884, b: 0, a: 0}
    - Color_8BC11E58: {r: 1, g: 1, b: 1, a: 0}
    - Color_AFF33C77: {r: 0.91372555, g: 0.24705884, b: 0, a: 0}
