%YAML 1.1
%TAG !u! tag:unity3d.com,2011:
--- !u!114 &11400000
MonoBehaviour:
  m_ObjectHideFlags: 0
  m_CorrespondingSourceObject: {fileID: 0}
  m_PrefabInstance: {fileID: 0}
  m_PrefabAsset: {fileID: 0}
  m_GameObject: {fileID: 0}
  m_Enabled: 1
  m_EditorHideFlags: 0
  m_Script: {fileID: 42938266, guid: e743331561ef77147ae48cda9bcb8209, type: 3}
  m_Name: PlayMakerGlobals
  m_EditorClassIdentifier: 
  variables:
    floatVariables:
    - useVariable: 1
      name: DistanceOfHeadlessTarget
      tooltip: 
      showInInspector: 0
      networkSync: 0
      value: 0
    - useVariable: 1
      name: GravityFloat
      tooltip: 
      showInInspector: 0
      networkSync: 0
      value: 0
    - useVariable: 1
      name: HeadLocation
      tooltip: 
      showInInspector: 0
      networkSync: 0
      value: 0
    - useVariable: 1
      name: HeadLocationY
      tooltip: 
      showInInspector: 0
      networkSync: 0
      value: 0
    - useVariable: 1
      name: HeadLocationZ
      tooltip: 
      showInInspector: 0
      networkSync: 0
      value: 0
    - useVariable: 1
      name: InputMagnitude
      tooltip: 
      showInInspector: 0
      networkSync: 0
      value: 0
    - useVariable: 1
      name: InputX
      tooltip: 
      showInInspector: 0
      networkSync: 0
      value: 0
    - useVariable: 1
      name: InputZ
      tooltip: 
      showInInspector: 0
      networkSync: 0
      value: 0
    - useVariable: 1
      name: SpeedMultiplier
      tooltip: 
      showInInspector: 0
      networkSync: 0
      value: 3
    - useVariable: 1
      name: SpeedMultiplierFast
      tooltip: 
      showInInspector: 0
      networkSync: 0
      value: 10
    - useVariable: 1
      name: StopDistance
      tooltip: 
      showInInspector: 0
      networkSync: 0
      value: 2
    intVariables: []
    boolVariables:
    - useVariable: 1
      name: ATTACHED
      tooltip: 
      showInInspector: 0
      networkSync: 0
      value: 0
    - useVariable: 1
      name: HeadlessBodyOn
      tooltip: 
      showInInspector: 0
      networkSync: 0
      value: 0
    - useVariable: 1
      name: RayCastHitHeadless
      tooltip: 
      showInInspector: 0
      networkSync: 0
      value: 0
    - useVariable: 1
      name: isPaused
      tooltip: 
      showInInspector: 0
      networkSync: 0
      value: 0
    - useVariable: 1
      name: pauseBool
      tooltip: 
      showInInspector: 0
      networkSync: 0
      value: 0
    stringVariables: []
    vector2Variables: []
    vector3Variables:
    - useVariable: 1
      name: Gravity
      tooltip: 
      showInInspector: 0
      networkSync: 0
      value: {x: 0, y: 0, z: 0}
    - useVariable: 1
      name: HeadLocationForEnemyFollow
      tooltip: 
      showInInspector: 0
      networkSync: 0
      value: {x: 0, y: 0, z: 0}
    - useVariable: 1
      name: HeadLocationVector
      tooltip: 
      showInInspector: 0
      networkSync: 0
      value: {x: 0, y: 0, z: 0}
    - useVariable: 1
      name: InputVector
      tooltip: 
      showInInspector: 0
      networkSync: 0
      value: {x: 0, y: 0, z: 0}
    - useVariable: 1
      name: LastCheckpoint
      tooltip: 
      showInInspector: 0
      networkSync: 0
      value: {x: 0, y: 0, z: 0}
    - useVariable: 1
      name: LocationOfHead
      tooltip: 
      showInInspector: 0
      networkSync: 0
      value: {x: 0, y: 0, z: 0}
    colorVariables: []
    rectVariables: []
    quaternionVariables: []
    gameObjectVariables:
    - useVariable: 1
      name: ActivateLockOnCircle
      tooltip: 
      showInInspector: 0
      networkSync: 0
      value: {fileID: 0}
    - useVariable: 1
      name: BodyManager
      tooltip: 
      showInInspector: 0
      networkSync: 0
      value: {fileID: 0}
    - useVariable: 1
      name: CameraBase
      tooltip: 
      showInInspector: 0
      networkSync: 0
      value: {fileID: 0}
    - useVariable: 1
      name: EnemyCharacterActive
      tooltip: 
      showInInspector: 0
      networkSync: 0
      value: {fileID: 0}
    - useVariable: 1
      name: FindCharacterData
      tooltip: 
      showInInspector: 0
      networkSync: 0
      value: {fileID: 8452451546459582713, guid: b1953a5cfc27a0f45a8267b7247ff67d,
        type: 3}
    - useVariable: 1
      name: FindClosestHead
      tooltip: 
      showInInspector: 0
      networkSync: 0
      value: {fileID: 0}
    - useVariable: 1
      name: HasHeadOrNoHead
      tooltip: 
      showInInspector: 0
      networkSync: 0
      value: {fileID: 0}
    - useVariable: 1
      name: MainSkeletonHeadHolder
      tooltip: 
      showInInspector: 0
      networkSync: 0
      value: {fileID: 0}
    - useVariable: 1
      name: NewParentBody
      tooltip: 
      showInInspector: 0
      networkSync: 0
      value: {fileID: 0}
    - useVariable: 1
      name: PlayerMainStartingSkeleton
      tooltip: 
      showInInspector: 0
      networkSync: 0
      value: {fileID: 0}
    - useVariable: 1
      name: PreviousBody
      tooltip: 
      showInInspector: 0
      networkSync: 0
      value: {fileID: 0}
    - useVariable: 1
      name: PreviousBodyNeck
      tooltip: 
      showInInspector: 0
      networkSync: 0
      value: {fileID: 0}
    - useVariable: 1
      name: SkeletonHeadLocation
      tooltip: 
      showInInspector: 0
      networkSync: 0
      value: {fileID: 0}
    - useVariable: 1
      name: StoreMainCamData
      tooltip: 
      showInInspector: 0
      networkSync: 0
      value: {fileID: 0}
    - useVariable: 1
      name: StoredBody
      tooltip: 
      showInInspector: 0
      networkSync: 0
      value: {fileID: 0}
    - useVariable: 1
      name: StoredHandPos
      tooltip: 
      showInInspector: 0
      networkSync: 0
      value: {fileID: 0}
    - useVariable: 1
      name: Target
      tooltip: 
      showInInspector: 0
      networkSync: 0
      value: {fileID: 0}
    - useVariable: 1
      name: TargetForLockOn
      tooltip: 
      showInInspector: 0
      networkSync: 0
      value: {fileID: 0}
    objectVariables: []
    materialVariables: []
    textureVariables: []
    arrayVariables: []
    enumVariables: []
    categories:
    - 
    variableCategoryIDs: 00000000000000000000000000000000000000000000000000000000000000000000000000000000000000000000000000000000000000000000000000000000000000000000000000000000000000000000000000000000000000000000000000000000000000000000000000000000000000000000000000000000000000000000000000000000000000000000000000000000000000000000000000000000
  events:
  - RespawnWhenDead
  - ArcherControlShootArrow
  - PlayAnimation
  - Clicked
  - LevelSelect
  - MainMenu
  - LoadLv1
  - LoadLv2
  - LoadLv3
  - LoadLv4
  - LoadLv5
  - HeadToss
  - TargetHeadIsThrowingAt
  - ResetCamera
  - FireDownGlobal
  - SendAnimationFromEnemy
  - ChangeTexture
  - DeathPause
