%YAML 1.1
%TAG !u! tag:unity3d.com,2011:
--- !u!1001 &2653921689377187393
PrefabInstance:
  m_ObjectHideFlags: 0
  serializedVersion: 2
  m_Modification:
    m_TransformParent: {fileID: 0}
    m_Modifications:
    - target: {fileID: 8507055519008463964, guid: 98095ef0f3a9c4e4fbca2624394ca8e3,
        type: 3}
      propertyPath: m_Name
      value: Brokenbridge_LP
      objectReference: {fileID: 0}
    - target: {fileID: 4635462085374930511, guid: 98095ef0f3a9c4e4fbca2624394ca8e3,
        type: 3}
      propertyPath: m_LocalPosition.x
      value: 23.6
      objectReference: {fileID: 0}
    - target: {fileID: 4635462085374930511, guid: 98095ef0f3a9c4e4fbca2624394ca8e3,
        type: 3}
      propertyPath: m_LocalPosition.y
      value: -5.88
      objectReference: {fileID: 0}
    - target: {fileID: 4635462085374930511, guid: 98095ef0f3a9c4e4fbca2624394ca8e3,
        type: 3}
      propertyPath: m_LocalPosition.z
      value: 22.4
      objectReference: {fileID: 0}
    - target: {fileID: 4635462085374930511, guid: 98095ef0f3a9c4e4fbca2624394ca8e3,
        type: 3}
      propertyPath: m_LocalRotation.x
      value: -0
      objectReference: {fileID: 0}
    - target: {fileID: 4635462085374930511, guid: 98095ef0f3a9c4e4fbca2624394ca8e3,
        type: 3}
      propertyPath: m_LocalRotation.y
      value: 0.70543164
      objectReference: {fileID: 0}
    - target: {fileID: 4635462085374930511, guid: 98095ef0f3a9c4e4fbca2624394ca8e3,
        type: 3}
      propertyPath: m_LocalRotation.z
      value: -0
      objectReference: {fileID: 0}
    - target: {fileID: 4635462085374930511, guid: 98095ef0f3a9c4e4fbca2624394ca8e3,
        type: 3}
      propertyPath: m_LocalRotation.w
      value: 0.7087781
      objectReference: {fileID: 0}
    - target: {fileID: 4635462085374930511, guid: 98095ef0f3a9c4e4fbca2624394ca8e3,
        type: 3}
      propertyPath: m_RootOrder
      value: 0
      objectReference: {fileID: 0}
    - target: {fileID: 4635462085374930511, guid: 98095ef0f3a9c4e4fbca2624394ca8e3,
        type: 3}
      propertyPath: m_LocalEulerAnglesHint.x
      value: 0
      objectReference: {fileID: 0}
    - target: {fileID: 4635462085374930511, guid: 98095ef0f3a9c4e4fbca2624394ca8e3,
        type: 3}
      propertyPath: m_LocalEulerAnglesHint.y
      value: 89.729004
      objectReference: {fileID: 0}
    - target: {fileID: 4635462085374930511, guid: 98095ef0f3a9c4e4fbca2624394ca8e3,
        type: 3}
      propertyPath: m_LocalEulerAnglesHint.z
      value: 0
      objectReference: {fileID: 0}
    - target: {fileID: 6829560792351501139, guid: 98095ef0f3a9c4e4fbca2624394ca8e3,
        type: 3}
      propertyPath: m_Materials.Array.data[0]
      value: 
      objectReference: {fileID: 2100000, guid: b39211fcbc1051744a310f55a755d0d5, type: 2}
    - target: {fileID: 4419823520993309078, guid: 98095ef0f3a9c4e4fbca2624394ca8e3,
        type: 3}
      propertyPath: m_Materials.Array.data[0]
      value: 
      objectReference: {fileID: 2100000, guid: b39211fcbc1051744a310f55a755d0d5, type: 2}
    - target: {fileID: 1420379174948966824, guid: 98095ef0f3a9c4e4fbca2624394ca8e3,
        type: 3}
      propertyPath: m_Materials.Array.data[0]
      value: 
      objectReference: {fileID: 2100000, guid: b39211fcbc1051744a310f55a755d0d5, type: 2}
    - target: {fileID: 5671143511178291277, guid: 98095ef0f3a9c4e4fbca2624394ca8e3,
        type: 3}
      propertyPath: m_Materials.Array.data[0]
      value: 
      objectReference: {fileID: 2100000, guid: b39211fcbc1051744a310f55a755d0d5, type: 2}
    - target: {fileID: 3834386282397619046, guid: 98095ef0f3a9c4e4fbca2624394ca8e3,
        type: 3}
      propertyPath: m_Materials.Array.data[0]
      value: 
      objectReference: {fileID: 2100000, guid: b39211fcbc1051744a310f55a755d0d5, type: 2}
    - target: {fileID: 6144253188825670888, guid: 98095ef0f3a9c4e4fbca2624394ca8e3,
        type: 3}
      propertyPath: m_Materials.Array.data[0]
      value: 
      objectReference: {fileID: 2100000, guid: b39211fcbc1051744a310f55a755d0d5, type: 2}
    - target: {fileID: 3957011298121736939, guid: 98095ef0f3a9c4e4fbca2624394ca8e3,
        type: 3}
      propertyPath: m_Materials.Array.data[0]
      value: 
      objectReference: {fileID: 2100000, guid: b39211fcbc1051744a310f55a755d0d5, type: 2}
    - target: {fileID: 5314245741171525060, guid: 98095ef0f3a9c4e4fbca2624394ca8e3,
        type: 3}
      propertyPath: m_Materials.Array.data[0]
      value: 
      objectReference: {fileID: 2100000, guid: b39211fcbc1051744a310f55a755d0d5, type: 2}
    - target: {fileID: 3947125318398778219, guid: 98095ef0f3a9c4e4fbca2624394ca8e3,
        type: 3}
      propertyPath: m_Materials.Array.data[0]
      value: 
      objectReference: {fileID: 2100000, guid: b39211fcbc1051744a310f55a755d0d5, type: 2}
    - target: {fileID: 5892242956255215556, guid: 98095ef0f3a9c4e4fbca2624394ca8e3,
        type: 3}
      propertyPath: m_Materials.Array.data[0]
      value: 
      objectReference: {fileID: 2100000, guid: b39211fcbc1051744a310f55a755d0d5, type: 2}
    - target: {fileID: 428717253844342041, guid: 98095ef0f3a9c4e4fbca2624394ca8e3,
        type: 3}
      propertyPath: m_Materials.Array.data[0]
      value: 
      objectReference: {fileID: 2100000, guid: b39211fcbc1051744a310f55a755d0d5, type: 2}
    - target: {fileID: 677609445373467947, guid: 98095ef0f3a9c4e4fbca2624394ca8e3,
        type: 3}
      propertyPath: m_Materials.Array.data[0]
      value: 
      objectReference: {fileID: 2100000, guid: b39211fcbc1051744a310f55a755d0d5, type: 2}
    - target: {fileID: 7573557566126922117, guid: 98095ef0f3a9c4e4fbca2624394ca8e3,
        type: 3}
      propertyPath: m_Materials.Array.data[0]
      value: 
      objectReference: {fileID: 2100000, guid: b39211fcbc1051744a310f55a755d0d5, type: 2}
    - target: {fileID: 8829371390179087635, guid: 98095ef0f3a9c4e4fbca2624394ca8e3,
        type: 3}
      propertyPath: m_Materials.Array.data[0]
      value: 
      objectReference: {fileID: 2100000, guid: b39211fcbc1051744a310f55a755d0d5, type: 2}
    - target: {fileID: 3470977694298712588, guid: 98095ef0f3a9c4e4fbca2624394ca8e3,
        type: 3}
      propertyPath: m_Materials.Array.data[0]
      value: 
      objectReference: {fileID: 2100000, guid: b39211fcbc1051744a310f55a755d0d5, type: 2}
    - target: {fileID: 1504557816565163165, guid: 98095ef0f3a9c4e4fbca2624394ca8e3,
        type: 3}
      propertyPath: m_Materials.Array.data[0]
      value: 
      objectReference: {fileID: 2100000, guid: b39211fcbc1051744a310f55a755d0d5, type: 2}
    - target: {fileID: 7982210213925370603, guid: 98095ef0f3a9c4e4fbca2624394ca8e3,
        type: 3}
      propertyPath: m_Materials.Array.data[0]
      value: 
      objectReference: {fileID: 2100000, guid: b39211fcbc1051744a310f55a755d0d5, type: 2}
    - target: {fileID: 7034547201083480203, guid: 98095ef0f3a9c4e4fbca2624394ca8e3,
        type: 3}
      propertyPath: m_Materials.Array.data[0]
      value: 
      objectReference: {fileID: 2100000, guid: b39211fcbc1051744a310f55a755d0d5, type: 2}
    - target: {fileID: 7780863748881489748, guid: 98095ef0f3a9c4e4fbca2624394ca8e3,
        type: 3}
      propertyPath: m_Materials.Array.data[0]
      value: 
      objectReference: {fileID: 2100000, guid: b39211fcbc1051744a310f55a755d0d5, type: 2}
    - target: {fileID: 5013584357663606237, guid: 98095ef0f3a9c4e4fbca2624394ca8e3,
        type: 3}
      propertyPath: m_Materials.Array.data[0]
      value: 
      objectReference: {fileID: 2100000, guid: b39211fcbc1051744a310f55a755d0d5, type: 2}
    - target: {fileID: 5366963556310295610, guid: 98095ef0f3a9c4e4fbca2624394ca8e3,
        type: 3}
      propertyPath: m_Materials.Array.data[0]
      value: 
      objectReference: {fileID: 2100000, guid: b39211fcbc1051744a310f55a755d0d5, type: 2}
    - target: {fileID: 5469237674561566617, guid: 98095ef0f3a9c4e4fbca2624394ca8e3,
        type: 3}
      propertyPath: m_Materials.Array.data[0]
      value: 
      objectReference: {fileID: 2100000, guid: b39211fcbc1051744a310f55a755d0d5, type: 2}
    - target: {fileID: 7359030236167617621, guid: 98095ef0f3a9c4e4fbca2624394ca8e3,
        type: 3}
      propertyPath: m_Materials.Array.data[0]
      value: 
      objectReference: {fileID: 2100000, guid: b39211fcbc1051744a310f55a755d0d5, type: 2}
    - target: {fileID: 8997675861820583164, guid: 98095ef0f3a9c4e4fbca2624394ca8e3,
        type: 3}
      propertyPath: m_Materials.Array.data[0]
      value: 
      objectReference: {fileID: 2100000, guid: b39211fcbc1051744a310f55a755d0d5, type: 2}
    - target: {fileID: 6828160704888016732, guid: 98095ef0f3a9c4e4fbca2624394ca8e3,
        type: 3}
      propertyPath: m_Materials.Array.data[0]
      value: 
      objectReference: {fileID: 2100000, guid: b39211fcbc1051744a310f55a755d0d5, type: 2}
    - target: {fileID: 6574002284657071211, guid: 98095ef0f3a9c4e4fbca2624394ca8e3,
        type: 3}
      propertyPath: m_Materials.Array.data[0]
      value: 
      objectReference: {fileID: 2100000, guid: b39211fcbc1051744a310f55a755d0d5, type: 2}
    m_RemovedComponents: []
  m_SourcePrefab: {fileID: 100100000, guid: 98095ef0f3a9c4e4fbca2624394ca8e3, type: 3}
