%YAML 1.1
%TAG !u! tag:unity3d.com,2011:
--- !u!1 &5094191934000890812
GameObject:
  m_ObjectHideFlags: 0
  m_CorrespondingSourceObject: {fileID: 0}
  m_PrefabInstance: {fileID: 0}
  m_PrefabAsset: {fileID: 0}
  serializedVersion: 6
  m_Component:
  - component: {fileID: 8335346109935817724}
  m_Layer: 0
  m_Name: Well
  m_TagString: Untagged
  m_Icon: {fileID: 0}
  m_NavMeshLayer: 0
  m_StaticEditorFlags: 0
  m_IsActive: 1
--- !u!4 &8335346109935817724
Transform:
  m_ObjectHideFlags: 0
  m_CorrespondingSourceObject: {fileID: 0}
  m_PrefabInstance: {fileID: 0}
  m_PrefabAsset: {fileID: 0}
  m_GameObject: {fileID: 5094191934000890812}
  m_LocalRotation: {x: 0, y: 0, z: 0, w: 1}
  m_LocalPosition: {x: 12.909496, y: 5.362354, z: 2.081368}
  m_LocalScale: {x: 1, y: 1, z: 1}
  m_Children:
  - {fileID: 2119913697296138506}
  m_Father: {fileID: 0}
  m_RootOrder: 0
  m_LocalEulerAnglesHint: {x: 0, y: 0, z: 0}
--- !u!1001 &6346071637901437456
PrefabInstance:
  m_ObjectHideFlags: 0
  serializedVersion: 2
  m_Modification:
    m_TransformParent: {fileID: 8335346109935817724}
    m_Modifications:
    - target: {fileID: -927199367670048503, guid: 77f8d569fbefd8e4e9e67f14a0ebb33f,
        type: 3}
      propertyPath: m_Name
      value: Well_LP
      objectReference: {fileID: 0}
    - target: {fileID: -8431970314971948058, guid: 77f8d569fbefd8e4e9e67f14a0ebb33f,
        type: 3}
      propertyPath: m_Materials.Array.data[0]
      value: 
      objectReference: {fileID: 2100000, guid: fa1825166bf8ff747a56cf2424f9792d, type: 2}
    - target: {fileID: -8107622151430133453, guid: 77f8d569fbefd8e4e9e67f14a0ebb33f,
        type: 3}
      propertyPath: m_Materials.Array.data[0]
      value: 
      objectReference: {fileID: 2100000, guid: fa1825166bf8ff747a56cf2424f9792d, type: 2}
    - target: {fileID: -7875552797545342741, guid: 77f8d569fbefd8e4e9e67f14a0ebb33f,
        type: 3}
      propertyPath: m_Materials.Array.data[0]
      value: 
      objectReference: {fileID: 2100000, guid: fa1825166bf8ff747a56cf2424f9792d, type: 2}
    - target: {fileID: -7695565116671085186, guid: 77f8d569fbefd8e4e9e67f14a0ebb33f,
        type: 3}
      propertyPath: m_Materials.Array.data[0]
      value: 
      objectReference: {fileID: 2100000, guid: fa1825166bf8ff747a56cf2424f9792d, type: 2}
    - target: {fileID: -6794881626805198805, guid: 77f8d569fbefd8e4e9e67f14a0ebb33f,
        type: 3}
      propertyPath: m_Materials.Array.data[0]
      value: 
      objectReference: {fileID: 2100000, guid: fa1825166bf8ff747a56cf2424f9792d, type: 2}
    - target: {fileID: -6405799999628900269, guid: 77f8d569fbefd8e4e9e67f14a0ebb33f,
        type: 3}
      propertyPath: m_Materials.Array.data[0]
      value: 
      objectReference: {fileID: 2100000, guid: fa1825166bf8ff747a56cf2424f9792d, type: 2}
    - target: {fileID: -6171131061343210581, guid: 77f8d569fbefd8e4e9e67f14a0ebb33f,
        type: 3}
      propertyPath: m_Materials.Array.data[0]
      value: 
      objectReference: {fileID: 2100000, guid: fa1825166bf8ff747a56cf2424f9792d, type: 2}
    - target: {fileID: -6135617902251614294, guid: 77f8d569fbefd8e4e9e67f14a0ebb33f,
        type: 3}
      propertyPath: m_Materials.Array.data[0]
      value: 
      objectReference: {fileID: 2100000, guid: fa1825166bf8ff747a56cf2424f9792d, type: 2}
    - target: {fileID: -5924511686948577801, guid: 77f8d569fbefd8e4e9e67f14a0ebb33f,
        type: 3}
      propertyPath: m_Materials.Array.data[0]
      value: 
      objectReference: {fileID: 2100000, guid: fa1825166bf8ff747a56cf2424f9792d, type: 2}
    - target: {fileID: -5896727723803365854, guid: 77f8d569fbefd8e4e9e67f14a0ebb33f,
        type: 3}
      propertyPath: m_Materials.Array.data[0]
      value: 
      objectReference: {fileID: 2100000, guid: fa1825166bf8ff747a56cf2424f9792d, type: 2}
    - target: {fileID: -5398906947126659863, guid: 77f8d569fbefd8e4e9e67f14a0ebb33f,
        type: 3}
      propertyPath: m_Materials.Array.data[0]
      value: 
      objectReference: {fileID: 2100000, guid: fa1825166bf8ff747a56cf2424f9792d, type: 2}
    - target: {fileID: -5071639694396837109, guid: 77f8d569fbefd8e4e9e67f14a0ebb33f,
        type: 3}
      propertyPath: m_Materials.Array.data[0]
      value: 
      objectReference: {fileID: 2100000, guid: fa1825166bf8ff747a56cf2424f9792d, type: 2}
    - target: {fileID: -4821152764664820208, guid: 77f8d569fbefd8e4e9e67f14a0ebb33f,
        type: 3}
      propertyPath: m_Materials.Array.data[0]
      value: 
      objectReference: {fileID: 2100000, guid: fa1825166bf8ff747a56cf2424f9792d, type: 2}
    - target: {fileID: -4255308162286778115, guid: 77f8d569fbefd8e4e9e67f14a0ebb33f,
        type: 3}
      propertyPath: m_Materials.Array.data[0]
      value: 
      objectReference: {fileID: 2100000, guid: fa1825166bf8ff747a56cf2424f9792d, type: 2}
    - target: {fileID: -4216859302048453862, guid: 77f8d569fbefd8e4e9e67f14a0ebb33f,
        type: 3}
      propertyPath: m_LocalPosition.x
      value: -3.6222038
      objectReference: {fileID: 0}
    - target: {fileID: -4216859302048453862, guid: 77f8d569fbefd8e4e9e67f14a0ebb33f,
        type: 3}
      propertyPath: m_LocalPosition.y
      value: -2.9123538
      objectReference: {fileID: 0}
    - target: {fileID: -4216859302048453862, guid: 77f8d569fbefd8e4e9e67f14a0ebb33f,
        type: 3}
      propertyPath: m_LocalPosition.z
      value: -2.1125364
      objectReference: {fileID: 0}
    - target: {fileID: -4216859302048453862, guid: 77f8d569fbefd8e4e9e67f14a0ebb33f,
        type: 3}
      propertyPath: m_LocalRotation.x
      value: -0
      objectReference: {fileID: 0}
    - target: {fileID: -4216859302048453862, guid: 77f8d569fbefd8e4e9e67f14a0ebb33f,
        type: 3}
      propertyPath: m_LocalRotation.y
      value: -0.49999917
      objectReference: {fileID: 0}
    - target: {fileID: -4216859302048453862, guid: 77f8d569fbefd8e4e9e67f14a0ebb33f,
        type: 3}
      propertyPath: m_LocalRotation.z
      value: -0
      objectReference: {fileID: 0}
    - target: {fileID: -4216859302048453862, guid: 77f8d569fbefd8e4e9e67f14a0ebb33f,
        type: 3}
      propertyPath: m_LocalRotation.w
      value: 0.8660259
      objectReference: {fileID: 0}
    - target: {fileID: -4216859302048453862, guid: 77f8d569fbefd8e4e9e67f14a0ebb33f,
        type: 3}
      propertyPath: m_RootOrder
      value: 0
      objectReference: {fileID: 0}
    - target: {fileID: -4216859302048453862, guid: 77f8d569fbefd8e4e9e67f14a0ebb33f,
        type: 3}
      propertyPath: m_LocalEulerAnglesHint.x
      value: 0
      objectReference: {fileID: 0}
    - target: {fileID: -4216859302048453862, guid: 77f8d569fbefd8e4e9e67f14a0ebb33f,
        type: 3}
      propertyPath: m_LocalEulerAnglesHint.y
      value: -60.000004
      objectReference: {fileID: 0}
    - target: {fileID: -4216859302048453862, guid: 77f8d569fbefd8e4e9e67f14a0ebb33f,
        type: 3}
      propertyPath: m_LocalEulerAnglesHint.z
      value: 0
      objectReference: {fileID: 0}
    - target: {fileID: -4216859302048453862, guid: 77f8d569fbefd8e4e9e67f14a0ebb33f,
        type: 3}
      propertyPath: m_LocalScale.x
      value: 0.020885676
      objectReference: {fileID: 0}
    - target: {fileID: -4216859302048453862, guid: 77f8d569fbefd8e4e9e67f14a0ebb33f,
        type: 3}
      propertyPath: m_LocalScale.y
      value: 0.020885676
      objectReference: {fileID: 0}
    - target: {fileID: -4216859302048453862, guid: 77f8d569fbefd8e4e9e67f14a0ebb33f,
        type: 3}
      propertyPath: m_LocalScale.z
      value: 0.020885676
      objectReference: {fileID: 0}
    - target: {fileID: -3795908326225979814, guid: 77f8d569fbefd8e4e9e67f14a0ebb33f,
        type: 3}
      propertyPath: m_Materials.Array.data[0]
      value: 
      objectReference: {fileID: 2100000, guid: fa1825166bf8ff747a56cf2424f9792d, type: 2}
    - target: {fileID: -3679438565395865225, guid: 77f8d569fbefd8e4e9e67f14a0ebb33f,
        type: 3}
      propertyPath: m_Materials.Array.data[0]
      value: 
      objectReference: {fileID: 2100000, guid: fa1825166bf8ff747a56cf2424f9792d, type: 2}
    - target: {fileID: -3552563979684626555, guid: 77f8d569fbefd8e4e9e67f14a0ebb33f,
        type: 3}
      propertyPath: m_Materials.Array.data[0]
      value: 
      objectReference: {fileID: 2100000, guid: fa1825166bf8ff747a56cf2424f9792d, type: 2}
    - target: {fileID: -3538814318277937775, guid: 77f8d569fbefd8e4e9e67f14a0ebb33f,
        type: 3}
      propertyPath: m_Materials.Array.data[0]
      value: 
      objectReference: {fileID: 2100000, guid: fa1825166bf8ff747a56cf2424f9792d, type: 2}
    - target: {fileID: -3249435060847746816, guid: 77f8d569fbefd8e4e9e67f14a0ebb33f,
        type: 3}
      propertyPath: m_Materials.Array.data[0]
      value: 
      objectReference: {fileID: 2100000, guid: fa1825166bf8ff747a56cf2424f9792d, type: 2}
    - target: {fileID: -2903108480490259232, guid: 77f8d569fbefd8e4e9e67f14a0ebb33f,
        type: 3}
      propertyPath: m_Materials.Array.data[0]
      value: 
      objectReference: {fileID: 2100000, guid: fa1825166bf8ff747a56cf2424f9792d, type: 2}
    - target: {fileID: -2054720761322587094, guid: 77f8d569fbefd8e4e9e67f14a0ebb33f,
        type: 3}
      propertyPath: m_Materials.Array.data[0]
      value: 
      objectReference: {fileID: 2100000, guid: fa1825166bf8ff747a56cf2424f9792d, type: 2}
    - target: {fileID: -1659935981452232463, guid: 77f8d569fbefd8e4e9e67f14a0ebb33f,
        type: 3}
      propertyPath: m_Materials.Array.data[0]
      value: 
      objectReference: {fileID: 2100000, guid: fa1825166bf8ff747a56cf2424f9792d, type: 2}
    - target: {fileID: -1436781465194391404, guid: 77f8d569fbefd8e4e9e67f14a0ebb33f,
        type: 3}
      propertyPath: m_Materials.Array.data[0]
      value: 
      objectReference: {fileID: 2100000, guid: fa1825166bf8ff747a56cf2424f9792d, type: 2}
    - target: {fileID: -1347704967952909524, guid: 77f8d569fbefd8e4e9e67f14a0ebb33f,
        type: 3}
      propertyPath: m_Materials.Array.data[0]
      value: 
      objectReference: {fileID: 2100000, guid: fa1825166bf8ff747a56cf2424f9792d, type: 2}
    - target: {fileID: -1312530305358547192, guid: 77f8d569fbefd8e4e9e67f14a0ebb33f,
        type: 3}
      propertyPath: m_Materials.Array.data[0]
      value: 
      objectReference: {fileID: 2100000, guid: fa1825166bf8ff747a56cf2424f9792d, type: 2}
    - target: {fileID: -251005517829365893, guid: 77f8d569fbefd8e4e9e67f14a0ebb33f,
        type: 3}
      propertyPath: m_Materials.Array.data[0]
      value: 
      objectReference: {fileID: 2100000, guid: fa1825166bf8ff747a56cf2424f9792d, type: 2}
    - target: {fileID: 691729875872718313, guid: 77f8d569fbefd8e4e9e67f14a0ebb33f,
        type: 3}
      propertyPath: m_Materials.Array.data[0]
      value: 
      objectReference: {fileID: 2100000, guid: fa1825166bf8ff747a56cf2424f9792d, type: 2}
    - target: {fileID: 835750797942587863, guid: 77f8d569fbefd8e4e9e67f14a0ebb33f,
        type: 3}
      propertyPath: m_Materials.Array.data[0]
      value: 
      objectReference: {fileID: 2100000, guid: fa1825166bf8ff747a56cf2424f9792d, type: 2}
    - target: {fileID: 1267414587284691191, guid: 77f8d569fbefd8e4e9e67f14a0ebb33f,
        type: 3}
      propertyPath: m_Materials.Array.data[0]
      value: 
      objectReference: {fileID: 2100000, guid: fa1825166bf8ff747a56cf2424f9792d, type: 2}
    - target: {fileID: 1381160910361119857, guid: 77f8d569fbefd8e4e9e67f14a0ebb33f,
        type: 3}
      propertyPath: m_Materials.Array.data[0]
      value: 
      objectReference: {fileID: 2100000, guid: fa1825166bf8ff747a56cf2424f9792d, type: 2}
    - target: {fileID: 1521889971264752559, guid: 77f8d569fbefd8e4e9e67f14a0ebb33f,
        type: 3}
      propertyPath: m_Materials.Array.data[0]
      value: 
      objectReference: {fileID: 2100000, guid: fa1825166bf8ff747a56cf2424f9792d, type: 2}
    - target: {fileID: 1688313194082708146, guid: 77f8d569fbefd8e4e9e67f14a0ebb33f,
        type: 3}
      propertyPath: m_Materials.Array.data[0]
      value: 
      objectReference: {fileID: 2100000, guid: fa1825166bf8ff747a56cf2424f9792d, type: 2}
    - target: {fileID: 1712641833256792850, guid: 77f8d569fbefd8e4e9e67f14a0ebb33f,
        type: 3}
      propertyPath: m_Materials.Array.data[0]
      value: 
      objectReference: {fileID: 2100000, guid: fa1825166bf8ff747a56cf2424f9792d, type: 2}
    - target: {fileID: 1713038690745137320, guid: 77f8d569fbefd8e4e9e67f14a0ebb33f,
        type: 3}
      propertyPath: m_Materials.Array.data[0]
      value: 
      objectReference: {fileID: 2100000, guid: fa1825166bf8ff747a56cf2424f9792d, type: 2}
    - target: {fileID: 2297688406796533716, guid: 77f8d569fbefd8e4e9e67f14a0ebb33f,
        type: 3}
      propertyPath: m_Materials.Array.data[0]
      value: 
      objectReference: {fileID: 2100000, guid: fa1825166bf8ff747a56cf2424f9792d, type: 2}
    - target: {fileID: 6352310402643661794, guid: 77f8d569fbefd8e4e9e67f14a0ebb33f,
        type: 3}
      propertyPath: m_Materials.Array.data[0]
      value: 
      objectReference: {fileID: 2100000, guid: fa1825166bf8ff747a56cf2424f9792d, type: 2}
    - target: {fileID: 6431856143160023680, guid: 77f8d569fbefd8e4e9e67f14a0ebb33f,
        type: 3}
      propertyPath: m_Materials.Array.data[0]
      value: 
      objectReference: {fileID: 2100000, guid: fa1825166bf8ff747a56cf2424f9792d, type: 2}
    - target: {fileID: 6680019395464502140, guid: 77f8d569fbefd8e4e9e67f14a0ebb33f,
        type: 3}
      propertyPath: m_Materials.Array.data[0]
      value: 
      objectReference: {fileID: 2100000, guid: fa1825166bf8ff747a56cf2424f9792d, type: 2}
    - target: {fileID: 7189782998502783539, guid: 77f8d569fbefd8e4e9e67f14a0ebb33f,
        type: 3}
      propertyPath: m_Materials.Array.data[0]
      value: 
      objectReference: {fileID: 2100000, guid: fa1825166bf8ff747a56cf2424f9792d, type: 2}
    - target: {fileID: 7463545389270648012, guid: 77f8d569fbefd8e4e9e67f14a0ebb33f,
        type: 3}
      propertyPath: m_Materials.Array.data[0]
      value: 
      objectReference: {fileID: 2100000, guid: fa1825166bf8ff747a56cf2424f9792d, type: 2}
    - target: {fileID: 7528025838701361034, guid: 77f8d569fbefd8e4e9e67f14a0ebb33f,
        type: 3}
      propertyPath: m_Materials.Array.data[0]
      value: 
      objectReference: {fileID: 2100000, guid: fa1825166bf8ff747a56cf2424f9792d, type: 2}
    - target: {fileID: 7619969192126062837, guid: 77f8d569fbefd8e4e9e67f14a0ebb33f,
        type: 3}
      propertyPath: m_Materials.Array.data[0]
      value: 
      objectReference: {fileID: 2100000, guid: fa1825166bf8ff747a56cf2424f9792d, type: 2}
    - target: {fileID: 7716536508709249085, guid: 77f8d569fbefd8e4e9e67f14a0ebb33f,
        type: 3}
      propertyPath: m_Materials.Array.data[0]
      value: 
      objectReference: {fileID: 2100000, guid: fa1825166bf8ff747a56cf2424f9792d, type: 2}
    - target: {fileID: 7777265016731514457, guid: 77f8d569fbefd8e4e9e67f14a0ebb33f,
        type: 3}
      propertyPath: m_Materials.Array.data[0]
      value: 
      objectReference: {fileID: 2100000, guid: fa1825166bf8ff747a56cf2424f9792d, type: 2}
    - target: {fileID: 8248507568016470945, guid: 77f8d569fbefd8e4e9e67f14a0ebb33f,
        type: 3}
      propertyPath: m_Materials.Array.data[0]
      value: 
      objectReference: {fileID: 2100000, guid: fa1825166bf8ff747a56cf2424f9792d, type: 2}
    - target: {fileID: 8440327736927177912, guid: 77f8d569fbefd8e4e9e67f14a0ebb33f,
        type: 3}
      propertyPath: m_Materials.Array.data[0]
      value: 
      objectReference: {fileID: 2100000, guid: fa1825166bf8ff747a56cf2424f9792d, type: 2}
    - target: {fileID: 9005954879999481187, guid: 77f8d569fbefd8e4e9e67f14a0ebb33f,
        type: 3}
      propertyPath: m_Materials.Array.data[0]
      value: 
      objectReference: {fileID: 2100000, guid: fa1825166bf8ff747a56cf2424f9792d, type: 2}
    - target: {fileID: 9029329488120311223, guid: 77f8d569fbefd8e4e9e67f14a0ebb33f,
        type: 3}
      propertyPath: m_Materials.Array.data[0]
      value: 
      objectReference: {fileID: 2100000, guid: fa1825166bf8ff747a56cf2424f9792d, type: 2}
    m_RemovedComponents: []
  m_SourcePrefab: {fileID: 100100000, guid: 77f8d569fbefd8e4e9e67f14a0ebb33f, type: 3}
--- !u!4 &2119913697296138506 stripped
Transform:
  m_CorrespondingSourceObject: {fileID: -4216859302048453862, guid: 77f8d569fbefd8e4e9e67f14a0ebb33f,
    type: 3}
  m_PrefabInstance: {fileID: 6346071637901437456}
  m_PrefabAsset: {fileID: 0}
