%YAML 1.1
%TAG !u! tag:unity3d.com,2011:
--- !u!74 &7400000
AnimationClip:
  m_ObjectHideFlags: 0
  m_CorrespondingSourceObject: {fileID: 0}
  m_PrefabInstance: {fileID: 0}
  m_PrefabAsset: {fileID: 0}
  m_Name: BridgeMove
  serializedVersion: 6
  m_Legacy: 1
  m_Compressed: 0
  m_UseHighQualityCurve: 1
  m_RotationCurves:
  - curve:
      serializedVersion: 2
      m_Curve:
      - serializedVersion: 3
        time: 0
        value: {x: 0.0015795224, y: 0, z: 0, w: 0.99999875}
        inSlope: {x: -0.009641291, y: 0, z: 0, w: 0.000014305114}
        outSlope: {x: -0.009641291, y: 0, z: 0, w: 0.000014305114}
        tangentMode: 0
        weightedMode: 0
        inWeight: {x: 0.33333334, y: 0.33333334, z: 0.33333334, w: 0.33333334}
        outWeight: {x: 0.33333334, y: 0.33333334, z: 0.33333334, w: 0.33333334}
      - serializedVersion: 3
        time: 0.016666668
        value: {x: 0.0014188342, y: 0, z: 0, w: 0.999999}
        inSlope: {x: -0.019450743, y: 0, z: 0, w: 0.000025033949}
        outSlope: {x: -0.019450743, y: 0, z: 0, w: 0.000025033949}
        tangentMode: 0
        weightedMode: 0
        inWeight: {x: 0.33333334, y: 0.33333334, z: 0.33333334, w: 0.33333334}
        outWeight: {x: 0.33333334, y: 0.33333334, z: 0.33333334, w: 0.33333334}
      - serializedVersion: 3
        time: 0.033333335
        value: {x: 0.00093116425, y: 0, z: 0, w: 0.9999996}
        inSlope: {x: -0.03932191, y: 0, z: 0, w: 0.000030398365}
        outSlope: {x: -0.03932191, y: 0, z: 0, w: 0.000030398365}
        tangentMode: 0
        weightedMode: 0
        inWeight: {x: 0.33333334, y: 0.33333334, z: 0.33333334, w: 0.33333334}
        outWeight: {x: 0.33333334, y: 0.33333334, z: 0.33333334, w: 0.33333334}
      - serializedVersion: 3
        time: 0.050000004
        value: {x: 0.00010810366, y: 0, z: 0, w: 1}
        inSlope: {x: -0.05969756, y: 0, z: 0, w: -0.0000035762823}
        outSlope: {x: -0.05969756, y: 0, z: 0, w: -0.0000035762823}
        tangentMode: 0
        weightedMode: 0
        inWeight: {x: 0.33333334, y: 0.33333334, z: 0.33333334, w: 0.33333334}
        outWeight: {x: 0.33333334, y: 0.33333334, z: 0.33333334, w: 0.33333334}
      - serializedVersion: 3
        time: 0.06666667
        value: {x: -0.0010587546, y: 0, z: 0, w: 0.99999946}
        inSlope: {x: -0.08057763, y: 0, z: 0, w: -0.00010013581}
        outSlope: {x: -0.08057763, y: 0, z: 0, w: -0.00010013581}
        tangentMode: 0
        weightedMode: 0
        inWeight: {x: 0.33333334, y: 0.33333334, z: 0.33333334, w: 0.33333334}
        outWeight: {x: 0.33333334, y: 0.33333334, z: 0.33333334, w: 0.33333334}
      - serializedVersion: 3
        time: 0.083333336
        value: {x: -0.002577817, y: 0, z: 0, w: 0.99999666}
        inSlope: {x: -0.10196188, y: 0, z: 0, w: -0.00028252605}
        outSlope: {x: -0.10196188, y: 0, z: 0, w: -0.00028252605}
        tangentMode: 0
        weightedMode: 0
        inWeight: {x: 0.33333334, y: 0.33333334, z: 0.33333334, w: 0.33333334}
        outWeight: {x: 0.33333334, y: 0.33333334, z: 0.33333334, w: 0.33333334}
      - serializedVersion: 3
        time: 0.1
        value: {x: -0.004457484, y: 0, z: 0, w: 0.99999005}
        inSlope: {x: -0.12385003, y: 0, z: 0, w: -0.0005739928}
        outSlope: {x: -0.12385003, y: 0, z: 0, w: -0.0005739928}
        tangentMode: 0
        weightedMode: 0
        inWeight: {x: 0.33333334, y: 0.33333334, z: 0.33333334, w: 0.33333334}
        outWeight: {x: 0.33333334, y: 0.33333334, z: 0.33333334, w: 0.33333334}
      - serializedVersion: 3
        time: 0.11666667
        value: {x: -0.006706151, y: 0, z: 0, w: 0.9999775}
        inSlope: {x: -0.14624147, y: 0, z: 0, w: -0.0010085104}
        outSlope: {x: -0.14624147, y: 0, z: 0, w: -0.0010085104}
        tangentMode: 0
        weightedMode: 0
        inWeight: {x: 0.33333334, y: 0.33333334, z: 0.33333334, w: 0.33333334}
        outWeight: {x: 0.33333334, y: 0.33333334, z: 0.33333334, w: 0.33333334}
      - serializedVersion: 3
        time: 0.13333334
        value: {x: -0.0093322005, y: 0, z: 0, w: 0.9999564}
        inSlope: {x: -0.16913524, y: 0, z: 0, w: -0.0016111134}
        outSlope: {x: -0.16913524, y: 0, z: 0, w: -0.0016111134}
        tangentMode: 0
        weightedMode: 0
        inWeight: {x: 0.33333334, y: 0.33333334, z: 0.33333334, w: 0.33333334}
        outWeight: {x: 0.33333334, y: 0.33333334, z: 0.33333334, w: 0.33333334}
      - serializedVersion: 3
        time: 0.15
        value: {x: -0.012343993, y: 0, z: 0, w: 0.9999238}
        inSlope: {x: -0.19253021, y: 0, z: 0, w: -0.0024139883}
        outSlope: {x: -0.19253021, y: 0, z: 0, w: -0.0024139883}
        tangentMode: 0
        weightedMode: 0
        inWeight: {x: 0.33333334, y: 0.33333334, z: 0.33333334, w: 0.33333334}
        outWeight: {x: 0.33333334, y: 0.33333334, z: 0.33333334, w: 0.33333334}
      - serializedVersion: 3
        time: 0.16666667
        value: {x: -0.015749874, y: 0, z: 0, w: 0.99987596}
        inSlope: {x: -0.21642467, y: 0, z: 0, w: -0.0034528975}
        outSlope: {x: -0.21642467, y: 0, z: 0, w: -0.0034528975}
        tangentMode: 0
        weightedMode: 0
        inWeight: {x: 0.33333334, y: 0.33333334, z: 0.33333334, w: 0.33333334}
        outWeight: {x: 0.33333334, y: 0.33333334, z: 0.33333334, w: 0.33333334}
      - serializedVersion: 3
        time: 0.18333334
        value: {x: -0.019558148, y: 0, z: 0, w: 0.9998087}
        inSlope: {x: -0.24081668, y: 0, z: 0, w: -0.0047600274}
        outSlope: {x: -0.24081668, y: 0, z: 0, w: -0.0047600274}
        tangentMode: 0
        weightedMode: 0
        inWeight: {x: 0.33333334, y: 0.33333334, z: 0.33333334, w: 0.33333334}
        outWeight: {x: 0.33333334, y: 0.33333334, z: 0.33333334, w: 0.33333334}
      - serializedVersion: 3
        time: 0.2
        value: {x: -0.023777096, y: 0, z: 0, w: 0.9997173}
        inSlope: {x: -0.26570305, y: 0, z: 0, w: -0.006374717}
        outSlope: {x: -0.26570305, y: 0, z: 0, w: -0.006374717}
        tangentMode: 0
        weightedMode: 0
        inWeight: {x: 0.33333334, y: 0.33333334, z: 0.33333334, w: 0.33333334}
        outWeight: {x: 0.33333334, y: 0.33333334, z: 0.33333334, w: 0.33333334}
      - serializedVersion: 3
        time: 0.21666667
        value: {x: -0.028414916, y: 0, z: 0, w: 0.99959624}
        inSlope: {x: -0.29108024, y: 0, z: 0, w: -0.008336307}
        outSlope: {x: -0.29108024, y: 0, z: 0, w: -0.008336307}
        tangentMode: 0
        weightedMode: 0
        inWeight: {x: 0.33333334, y: 0.33333334, z: 0.33333334, w: 0.33333334}
        outWeight: {x: 0.33333334, y: 0.33333334, z: 0.33333334, w: 0.33333334}
      - serializedVersion: 3
        time: 0.23333333
        value: {x: -0.03347977, y: 0, z: 0, w: 0.9994394}
        inSlope: {x: -0.31694403, y: 0, z: 0, w: -0.01068771}
        outSlope: {x: -0.31694403, y: 0, z: 0, w: -0.01068771}
        tangentMode: 0
        weightedMode: 0
        inWeight: {x: 0.33333334, y: 0.33333334, z: 0.33333334, w: 0.33333334}
        outWeight: {x: 0.33333334, y: 0.33333334, z: 0.33333334, w: 0.33333334}
      - serializedVersion: 3
        time: 0.25
        value: {x: -0.038979717, y: 0, z: 0, w: 0.99924}
        inSlope: {x: -0.3432892, y: 0, z: 0, w: -0.01346826}
        outSlope: {x: -0.3432892, y: 0, z: 0, w: -0.01346826}
        tangentMode: 0
        weightedMode: 0
        inWeight: {x: 0.33333334, y: 0.33333334, z: 0.33333334, w: 0.33333334}
        outWeight: {x: 0.33333334, y: 0.33333334, z: 0.33333334, w: 0.33333334}
      - serializedVersion: 3
        time: 0.26666668
        value: {x: -0.044922747, y: 0, z: 0, w: 0.9989905}
        inSlope: {x: -0.37010932, y: 0, z: 0, w: -0.016726242}
        outSlope: {x: -0.37010932, y: 0, z: 0, w: -0.016726242}
        tangentMode: 0
        weightedMode: 0
        inWeight: {x: 0.33333334, y: 0.33333334, z: 0.33333334, w: 0.33333334}
        outWeight: {x: 0.33333334, y: 0.33333334, z: 0.33333334, w: 0.33333334}
      - serializedVersion: 3
        time: 0.28333336
        value: {x: -0.051316705, y: 0, z: 0, w: 0.99868244}
        inSlope: {x: -0.39739585, y: 0, z: 0, w: -0.02051173}
        outSlope: {x: -0.39739585, y: 0, z: 0, w: -0.02051173}
        tangentMode: 0
        weightedMode: 0
        inWeight: {x: 0.33333334, y: 0.33333334, z: 0.33333334, w: 0.33333334}
        outWeight: {x: 0.33333334, y: 0.33333334, z: 0.33333334, w: 0.33333334}
      - serializedVersion: 3
        time: 0.30000004
        value: {x: -0.058169287, y: 0, z: 0, w: 0.99830675}
        inSlope: {x: -0.42514014, y: 0, z: 0, w: -0.024872998}
        outSlope: {x: -0.42514014, y: 0, z: 0, w: -0.024872998}
        tangentMode: 0
        weightedMode: 0
        inWeight: {x: 0.33333334, y: 0.33333334, z: 0.33333334, w: 0.33333334}
        outWeight: {x: 0.33333334, y: 0.33333334, z: 0.33333334, w: 0.33333334}
      - serializedVersion: 3
        time: 0.31666672
        value: {x: -0.065488055, y: 0, z: 0, w: 0.99785334}
        inSlope: {x: -0.45333195, y: 0, z: 0, w: -0.029861903}
        outSlope: {x: -0.45333195, y: 0, z: 0, w: -0.029861903}
        tangentMode: 0
        weightedMode: 0
        inWeight: {x: 0.33333334, y: 0.33333334, z: 0.33333334, w: 0.33333334}
        outWeight: {x: 0.33333334, y: 0.33333334, z: 0.33333334, w: 0.33333334}
      - serializedVersion: 3
        time: 0.3333334
        value: {x: -0.073280364, y: 0, z: 0, w: 0.99731135}
        inSlope: {x: -0.48195702, y: 0, z: 0, w: -0.0355303}
        outSlope: {x: -0.48195702, y: 0, z: 0, w: -0.0355303}
        tangentMode: 0
        weightedMode: 0
        inWeight: {x: 0.33333334, y: 0.33333334, z: 0.33333334, w: 0.33333334}
        outWeight: {x: 0.33333334, y: 0.33333334, z: 0.33333334, w: 0.33333334}
      - serializedVersion: 3
        time: 0.35000008
        value: {x: -0.0815533, y: 0, z: 0, w: 0.996669}
        inSlope: {x: -0.51100194, y: 0, z: 0, w: -0.041938983}
        outSlope: {x: -0.51100194, y: 0, z: 0, w: -0.041938983}
        tangentMode: 0
        weightedMode: 0
        inWeight: {x: 0.33333334, y: 0.33333334, z: 0.33333334, w: 0.33333334}
        outWeight: {x: 0.33333334, y: 0.33333334, z: 0.33333334, w: 0.33333334}
      - serializedVersion: 3
        time: 0.36666676
        value: {x: -0.09031378, y: 0, z: 0, w: 0.9959134}
        inSlope: {x: -0.54045033, y: 0, z: 0, w: -0.049148757}
        outSlope: {x: -0.54045033, y: 0, z: 0, w: -0.049148757}
        tangentMode: 0
        weightedMode: 0
        inWeight: {x: 0.33333334, y: 0.33333334, z: 0.33333334, w: 0.33333334}
        outWeight: {x: 0.33333334, y: 0.33333334, z: 0.33333334, w: 0.33333334}
      - serializedVersion: 3
        time: 0.38333344
        value: {x: -0.09956833, y: 0, z: 0, w: 0.9950307}
        inSlope: {x: -0.5702814, y: 0, z: 0, w: -0.057213258}
        outSlope: {x: -0.5702814, y: 0, z: 0, w: -0.057213258}
        tangentMode: 0
        weightedMode: 0
        inWeight: {x: 0.33333334, y: 0.33333334, z: 0.33333334, w: 0.33333334}
        outWeight: {x: 0.33333334, y: 0.33333334, z: 0.33333334, w: 0.33333334}
      - serializedVersion: 3
        time: 0.40000013
        value: {x: -0.109323174, y: 0, z: 0, w: 0.9940063}
        inSlope: {x: -0.60047436, y: 0, z: 0, w: -0.06619865}
        outSlope: {x: -0.60047436, y: 0, z: 0, w: -0.06619865}
        tangentMode: 0
        weightedMode: 0
        inWeight: {x: 0.33333334, y: 0.33333334, z: 0.33333334, w: 0.33333334}
        outWeight: {x: 0.33333334, y: 0.33333334, z: 0.33333334, w: 0.33333334}
      - serializedVersion: 3
        time: 0.4166668
        value: {x: -0.11958416, y: 0, z: 0, w: 0.9928241}
        inSlope: {x: -0.63100433, y: 0, z: 0, w: -0.07617289}
        outSlope: {x: -0.63100433, y: 0, z: 0, w: -0.07617289}
        tangentMode: 0
        weightedMode: 0
        inWeight: {x: 0.33333334, y: 0.33333334, z: 0.33333334, w: 0.33333334}
        outWeight: {x: 0.33333334, y: 0.33333334, z: 0.33333334, w: 0.33333334}
      - serializedVersion: 3
        time: 0.4333335
        value: {x: -0.13035667, y: 0, z: 0, w: 0.9914672}
        inSlope: {x: -0.6618426, y: 0, z: 0, w: -0.08719854}
        outSlope: {x: -0.6618426, y: 0, z: 0, w: -0.08719854}
        tangentMode: 0
        weightedMode: 0
        inWeight: {x: 0.33333334, y: 0.33333334, z: 0.33333334, w: 0.33333334}
        outWeight: {x: 0.33333334, y: 0.33333334, z: 0.33333334, w: 0.33333334}
      - serializedVersion: 3
        time: 0.45000017
        value: {x: -0.1416456, y: 0, z: 0, w: 0.98991746}
        inSlope: {x: -0.6929584, y: 0, z: 0, w: -0.09934715}
        outSlope: {x: -0.6929584, y: 0, z: 0, w: -0.09934715}
        tangentMode: 0
        weightedMode: 0
        inWeight: {x: 0.33333334, y: 0.33333334, z: 0.33333334, w: 0.33333334}
        outWeight: {x: 0.33333334, y: 0.33333334, z: 0.33333334, w: 0.33333334}
      - serializedVersion: 3
        time: 0.46666685
        value: {x: -0.1534553, y: 0, z: 0, w: 0.9881556}
        inSlope: {x: -0.72431564, y: 0, z: 0, w: -0.11268845}
        outSlope: {x: -0.72431564, y: 0, z: 0, w: -0.11268845}
        tangentMode: 0
        weightedMode: 0
        inWeight: {x: 0.33333334, y: 0.33333334, z: 0.33333334, w: 0.33333334}
        outWeight: {x: 0.33333334, y: 0.33333334, z: 0.33333334, w: 0.33333334}
      - serializedVersion: 3
        time: 0.48333353
        value: {x: -0.16578947, y: 0, z: 0, w: 0.9861612}
        inSlope: {x: -0.7558752, y: 0, z: 0, w: -0.12729408}
        outSlope: {x: -0.7558752, y: 0, z: 0, w: -0.12729408}
        tangentMode: 0
        weightedMode: 0
        inWeight: {x: 0.33333334, y: 0.33333334, z: 0.33333334, w: 0.33333334}
        outWeight: {x: 0.33333334, y: 0.33333334, z: 0.33333334, w: 0.33333334}
      - serializedVersion: 3
        time: 0.5000002
        value: {x: -0.17865114, y: 0, z: 0, w: 0.98391247}
        inSlope: {x: -0.787593, y: -2.1660851e-18, z: -4.2387015e-19, w: -0.14323726}
        outSlope: {x: -0.787593, y: -2.1660851e-18, z: -4.2387015e-19, w: -0.14323726}
        tangentMode: 0
        weightedMode: 0
        inWeight: {x: 0.33333334, y: 0.33333334, z: 0.33333334, w: 0.33333334}
        outWeight: {x: 0.33333334, y: 0.33333334, z: 0.33333334, w: 0.33333334}
      - serializedVersion: 3
        time: 0.5166668
        value: {x: -0.19204254, y: -7.220277e-20, z: -1.4128991e-20, w: 0.9813866}
        inSlope: {x: -0.8783246, y: -0.000000018255893, z: -0.0000000038807393, w: -0.1730545}
        outSlope: {x: -0.8783246, y: -0.000000018255893, z: -0.0000000038807393, w: -0.1730545}
        tangentMode: 0
        weightedMode: 0
        inWeight: {x: 0.33333334, y: 0.33333334, z: 0.33333334, w: 0.33333334}
        outWeight: {x: 0.33333334, y: 0.33333334, z: 0.33333334, w: 0.33333334}
      - serializedVersion: 3
        time: 0.5333335
        value: {x: -0.2079286, y: -6.0852917e-10, z: -1.2935786e-10, w: 0.978144}
        inSlope: {x: -1.077583, y: -0.000000070697325, z: -0.000000016552114, w: -0.23149632}
        outSlope: {x: -1.077583, y: -0.000000070697325, z: -0.000000016552114, w: -0.23149632}
        tangentMode: 0
        weightedMode: 0
        inWeight: {x: 0.33333334, y: 0.33333334, z: 0.33333334, w: 0.33333334}
        outWeight: {x: 0.33333334, y: 0.33333334, z: 0.33333334, w: 0.33333334}
      - serializedVersion: 3
        time: 0.55000013
        value: {x: -0.22796194, y: -0.0000000023565752, z: -5.5173666e-10, w: 0.97367007}
        inSlope: {x: -1.3121191, y: -0.00000013540199, z: -0.000000036075733, w: -0.3098938}
        outSlope: {x: -1.3121191, y: -0.00000013540199, z: -0.000000036075733, w: -0.3098938}
        tangentMode: 0
        weightedMode: 0
        inWeight: {x: 0.33333334, y: 0.33333334, z: 0.33333334, w: 0.33333334}
        outWeight: {x: 0.33333334, y: 0.33333334, z: 0.33333334, w: 0.33333334}
      - serializedVersion: 3
        time: 0.5666668
        value: {x: -0.25166586, y: -0.000000005121924, z: -0.0000000013318812, w: 0.9678142}
        inSlope: {x: -1.5176619, y: -0.00000019252768, z: -0.00000005979091, w: -0.39745545}
        outSlope: {x: -1.5176619, y: -0.00000019252768, z: -0.00000005979091, w: -0.39745545}
        tangentMode: 0
        weightedMode: 0
        inWeight: {x: 0.33333334, y: 0.33333334, z: 0.33333334, w: 0.33333334}
        outWeight: {x: 0.33333334, y: 0.33333334, z: 0.33333334, w: 0.33333334}
      - serializedVersion: 3
        time: 0.58333343
        value: {x: -0.27855062, y: -0.000000008774158, z: -0.000000002544765, w: 0.96042156}
        inSlope: {x: -1.6934813, y: -0.00000024158425, z: -0.00000008805134, w: -0.4939543}
        outSlope: {x: -1.6934813, y: -0.00000024158425, z: -0.00000008805134, w: -0.4939543}
        tangentMode: 0
        weightedMode: 0
        inWeight: {x: 0.33333334, y: 0.33333334, z: 0.33333334, w: 0.33333334}
        outWeight: {x: 0.33333334, y: 0.33333334, z: 0.33333334, w: 0.33333334}
      - serializedVersion: 3
        time: 0.6000001
        value: {x: -0.30811518, y: -0.000000013174725, z: -0.000000004266923, w: 0.9513491}
        inSlope: {x: -1.838977, y: -0.00000028210854, z: -0.00000012071756, w: -0.5982548}
        outSlope: {x: -1.838977, y: -0.00000028210854, z: -0.00000012071756, w: -0.5982548}
        tangentMode: 0
        weightedMode: 0
        inWeight: {x: 0.33333334, y: 0.33333334, z: 0.33333334, w: 0.33333334}
        outWeight: {x: 0.33333334, y: 0.33333334, z: 0.33333334, w: 0.33333334}
      - serializedVersion: 3
        time: 0.61666673
        value: {x: -0.3398498, y: -0.000000018177767, z: -0.00000000656868, w: 0.94047976}
        inSlope: {x: -1.9537524, y: -0.00000031371377, z: -0.00000015721474, w: -0.70843107}
        outSlope: {x: -1.9537524, y: -0.00000031371377, z: -0.00000015721474, w: -0.70843107}
        tangentMode: 0
        weightedMode: 0
        inWeight: {x: 0.33333334, y: 0.33333334, z: 0.33333334, w: 0.33333334}
        outWeight: {x: 0.33333334, y: 0.33333334, z: 0.33333334, w: 0.33333334}
      - serializedVersion: 3
        time: 0.6333334
        value: {x: -0.3732402, y: -0.000000023631841, z: -0.000000009507409, w: 0.92773473}
        inSlope: {x: -2.0376976, y: -0.00000033614504, z: -0.00000019659808, w: -0.821894}
        outSlope: {x: -2.0376976, y: -0.00000033614504, z: -0.00000019659808, w: -0.821894}
        tangentMode: 0
        weightedMode: 0
        inWeight: {x: 0.33333334, y: 0.33333334, z: 0.33333334, w: 0.33333334}
        outWeight: {x: 0.33333334, y: 0.33333334, z: 0.33333334, w: 0.33333334}
      - serializedVersion: 3
        time: 0.65000004
        value: {x: -0.407773, y: -0.00000002938259, z: -0.000000013121943, w: 0.9130833}
        inSlope: {x: -2.0910494, y: -0.000000349332, z: -0.00000023762585, w: -0.93553215}
        outSlope: {x: -2.0910494, y: -0.000000349332, z: -0.00000023762585, w: -0.93553215}
        tangentMode: 0
        weightedMode: 0
        inWeight: {x: 0.33333334, y: 0.33333334, z: 0.33333334, w: 0.33333334}
        outWeight: {x: 0.33333334, y: 0.33333334, z: 0.33333334, w: 0.33333334}
      - serializedVersion: 3
        time: 0.6666667
        value: {x: -0.44294178, y: -0.00000003527623, z: -0.000000017428263, w: 0.89655036}
        inSlope: {x: -2.1144543, y: -0.00000035343248, z: -0.00000027883948, w: -1.0458658}
        outSlope: {x: -2.1144543, y: -0.00000035343248, z: -0.00000027883948, w: -1.0458658}
        tangentMode: 0
        weightedMode: 0
        inWeight: {x: 0.33333334, y: 0.33333334, z: 0.33333334, w: 0.33333334}
        outWeight: {x: 0.33333334, y: 0.33333334, z: 0.33333334, w: 0.33333334}
      - serializedVersion: 3
        time: 0.68333334
        value: {x: -0.47825474, y: -0.000000041163663, z: -0.000000022416582, w: 0.87822115}
        inSlope: {x: -2.108996, y: -0.00000034886472, z: -0.0000003186479, w: -1.1491864}
        outSlope: {x: -2.108996, y: -0.00000034886472, z: -0.0000003186479, w: -1.1491864}
        tangentMode: 0
        weightedMode: 0
        inWeight: {x: 0.33333334, y: 0.33333334, z: 0.33333334, w: 0.33333334}
        outWeight: {x: 0.33333334, y: 0.33333334, z: 0.33333334, w: 0.33333334}
      - serializedVersion: 3
        time: 0.7
        value: {x: -0.5132416, y: -0.000000046905043, z: -0.000000028049849, w: 0.8582442}
        inSlope: {x: -2.0761926, y: -0.00000033631818, z: -0.0000003554116, w: -1.2417012}
        outSlope: {x: -2.0761926, y: -0.00000033631818, z: -0.0000003554116, w: -1.2417012}
        tangentMode: 0
        weightedMode: 0
        inWeight: {x: 0.33333334, y: 0.33333334, z: 0.33333334, w: 0.33333334}
        outWeight: {x: 0.33333334, y: 0.33333334, z: 0.33333334, w: 0.33333334}
      - serializedVersion: 3
        time: 0.71666664
        value: {x: -0.5474611, y: -0.000000052374258, z: -0.000000034263625, w: 0.83683115}
        inSlope: {x: -2.0179887, y: -0.00000031674716, z: -0.00000038752626, w: -1.3196874}
        outSlope: {x: -2.0179887, y: -0.00000031674716, z: -0.00000038752626, w: -1.3196874}
        tangentMode: 0
        weightedMode: 0
        inWeight: {x: 0.33333334, y: 0.33333334, z: 0.33333334, w: 0.33333334}
        outWeight: {x: 0.33333334, y: 0.33333334, z: 0.33333334, w: 0.33333334}
      - serializedVersion: 3
        time: 0.7333333
        value: {x: -0.5805078, y: -0.00000005746327, z: -0.00000004096738, w: 0.81425464}
        inSlope: {x: -1.936682, y: -0.00000029134662, z: -0.0000004134967, w: -1.3796009}
        outSlope: {x: -1.936682, y: -0.00000029134662, z: -0.0000004134967, w: -1.3796009}
        tangentMode: 0
        weightedMode: 0
        inWeight: {x: 0.33333334, y: 0.33333334, z: 0.33333334, w: 0.33333334}
        outWeight: {x: 0.33333334, y: 0.33333334, z: 0.33333334, w: 0.33333334}
      - serializedVersion: 3
        time: 0.74999994
        value: {x: -0.6120171, y: -0.0000000620858, z: -0.000000048046836, w: 0.7908445}
        inSlope: {x: -1.834858, y: -0.00000026150275, z: -0.0000004319998, w: -1.4182086}
        outSlope: {x: -1.834858, y: -0.00000026150275, z: -0.0000004319998, w: -1.4182086}
        tangentMode: 0
        weightedMode: 0
        inWeight: {x: 0.33333334, y: 0.33333334, z: 0.33333334, w: 0.33333334}
        outWeight: {x: 0.33333334, y: 0.33333334, z: 0.33333334, w: 0.33333334}
      - serializedVersion: 3
        time: 0.7666666
        value: {x: -0.6416697, y: -0.00000006618002, z: -0.00000005536736, w: 0.76698107}
        inSlope: {x: -1.7152867, y: -0.00000022873117, z: -0.00000044193428, w: -1.4326836}
        outSlope: {x: -1.7152867, y: -0.00000022873117, z: -0.00000044193428, w: -1.4326836}
        tangentMode: 0
        weightedMode: 0
        inWeight: {x: 0.33333334, y: 0.33333334, z: 0.33333334, w: 0.33333334}
        outWeight: {x: 0.33333334, y: 0.33333334, z: 0.33333334, w: 0.33333334}
      - serializedVersion: 3
        time: 0.78333324
        value: {x: -0.66919327, y: -0.00000006971017, z: -0.000000062777964, w: 0.7430884}
        inSlope: {x: -1.5807722, y: -0.00000019460164, z: -0.00000044244885, w: -1.4206583}
        outSlope: {x: -1.5807722, y: -0.00000019460164, z: -0.00000044244885, w: -1.4206583}
        tangentMode: 0
        weightedMode: 0
        inWeight: {x: 0.33333334, y: 0.33333334, z: 0.33333334, w: 0.33333334}
        outWeight: {x: 0.33333334, y: 0.33333334, z: 0.33333334, w: 0.33333334}
      - serializedVersion: 3
        time: 0.7999999
        value: {x: -0.69436204, y: -0.00000007266674, z: -0.00000007011564, w: 0.71962583}
        inSlope: {x: -1.4340391, y: -0.00000016065181, z: -0.00000043295734, w: -1.3802911}
        outSlope: {x: -1.4340391, y: -0.00000016065181, z: -0.00000043295734, w: -1.3802911}
        tangentMode: 0
        weightedMode: 0
        inWeight: {x: 0.33333334, y: 0.33333334, z: 0.33333334, w: 0.33333334}
        outWeight: {x: 0.33333334, y: 0.33333334, z: 0.33333334, w: 0.33333334}
      - serializedVersion: 3
        time: 0.81666654
        value: {x: -0.7169945, y: -0.00000007506522, z: -0.00000007720986, w: 0.69707876}
        inSlope: {x: -1.2775714, y: -0.00000012829622, z: -0.00000041313103, w: -1.3102837}
        outSlope: {x: -1.2775714, y: -0.00000012829622, z: -0.00000041313103, w: -1.3102837}
        tangentMode: 0
        weightedMode: 0
        inWeight: {x: 0.33333334, y: 0.33333334, z: 0.33333334, w: 0.33333334}
        outWeight: {x: 0.33333334, y: 0.33333334, z: 0.33333334, w: 0.33333334}
      - serializedVersion: 3
        time: 0.8333332
        value: {x: -0.7369477, y: -0.00000007694327, z: -0.00000008388666, w: 0.67594975}
        inSlope: {x: -1.1134433, y: -0.00000009873647, z: -0.00000038287808, w: -1.2098956}
        outSlope: {x: -1.1134433, y: -0.00000009873647, z: -0.00000038287808, w: -1.2098956}
        tangentMode: 0
        weightedMode: 0
        inWeight: {x: 0.33333334, y: 0.33333334, z: 0.33333334, w: 0.33333334}
        outWeight: {x: 0.33333334, y: 0.33333334, z: 0.33333334, w: 0.33333334}
      - serializedVersion: 3
        time: 0.84999985
        value: {x: -0.75410926, y: -0.000000078356436, z: -0.00000008997245, w: 0.65674895}
        inSlope: {x: -0.9431836, y: -0.00000007287554, z: -0.00000034231488, w: -1.078934}
        outSlope: {x: -0.9431836, y: -0.00000007287554, z: -0.00000034231488, w: -1.078934}
        tangentMode: 0
        weightedMode: 0
        inWeight: {x: 0.33333334, y: 0.33333334, z: 0.33333334, w: 0.33333334}
        outWeight: {x: 0.33333334, y: 0.33333334, z: 0.33333334, w: 0.33333334}
      - serializedVersion: 3
        time: 0.8666665
        value: {x: -0.76838714, y: -0.000000079372455, z: -0.000000095297146, w: 0.6399853}
        inSlope: {x: -0.7676257, y: -0.000000051229897, z: -0.00000029172298, w: -0.91775084}
        outSlope: {x: -0.7676257, y: -0.000000051229897, z: -0.00000029172298, w: -0.91775084}
        tangentMode: 0
        weightedMode: 0
        inWeight: {x: 0.33333334, y: 0.33333334, z: 0.33333334, w: 0.33333334}
        outWeight: {x: 0.33333334, y: 0.33333334, z: 0.33333334, w: 0.33333334}
      - serializedVersion: 3
        time: 0.88333315
        value: {x: -0.77969676, y: -0.0000000800641, z: -0.00000009969654, w: 0.6261573}
        inSlope: {x: -0.58676064, y: -0.0000000338586, z: -0.00000023151424, w: -0.7272227}
        outSlope: {x: -0.58676064, y: -0.0000000338586, z: -0.00000023151424, w: -0.7272227}
        tangentMode: 0
        weightedMode: 0
        inWeight: {x: 0.33333334, y: 0.33333334, z: 0.33333334, w: 0.33333334}
        outWeight: {x: 0.33333334, y: 0.33333334, z: 0.33333334, w: 0.33333334}
      - serializedVersion: 3
        time: 0.8999998
        value: {x: -0.7879458, y: -0.000000080501074, z: -0.00000010301428, w: 0.6157446}
        inSlope: {x: -0.39963344, y: -0.000000020297596, z: -0.00000016220511, w: -0.50876725}
        outSlope: {x: -0.39963344, y: -0.000000020297596, z: -0.00000016220511, w: -0.50876725}
        tangentMode: 0
        weightedMode: 0
        inWeight: {x: 0.33333334, y: 0.33333334, z: 0.33333334, w: 0.33333334}
        outWeight: {x: 0.33333334, y: 0.33333334, z: 0.33333334, w: 0.33333334}
      - serializedVersion: 3
        time: 0.91666645
        value: {x: -0.79301786, y: -0.00000008074068, z: -0.000000105103375, w: 0.6091984}
        inSlope: {x: -0.20423715, y: -0.00000000950448, z: -0.00000008440713, w: -0.2643757}
        outSlope: {x: -0.20423715, y: -0.00000000950448, z: -0.00000008440713, w: -0.2643757}
        tangentMode: 0
        weightedMode: 0
        inWeight: {x: 0.33333334, y: 0.33333334, z: 0.33333334, w: 0.33333334}
        outWeight: {x: 0.33333334, y: 0.33333334, z: 0.33333334, w: 0.33333334}
      - serializedVersion: 3
        time: 0.93333334
        value: {x: -0.79475373, y: -0.00000008081789, z: -0.00000010582786, w: 0.60693204}
        inSlope: {x: -0.10415057, y: -0.0000000046323927, z: -0.000000043468436, w: -0.13597903}
        outSlope: {x: -0.10415057, y: -0.0000000046323927, z: -0.000000043468436,
          w: -0.13597903}
        tangentMode: 0
        weightedMode: 0
        inWeight: {x: 0.33333334, y: 0.33333334, z: 0.33333334, w: 0.33333334}
        outWeight: {x: 0.33333334, y: 0.33333334, z: 0.33333334, w: 0.33333334}
      m_PreInfinity: 2
      m_PostInfinity: 2
      m_RotationOrder: 4
    path: 
  m_CompressedRotationCurves: []
  m_EulerCurves: []
  m_PositionCurves: []
  m_ScaleCurves: []
  m_FloatCurves: []
  m_PPtrCurves: []
  m_SampleRate: 60
  m_WrapMode: 0
  m_Bounds:
    m_Center: {x: 0, y: 0, z: 0}
    m_Extent: {x: 0, y: 0, z: 0}
  m_ClipBindingConstant:
    genericBindings: []
    pptrCurveMapping: []
  m_AnimationClipSettings:
    serializedVersion: 2
    m_AdditiveReferencePoseClip: {fileID: 0}
    m_AdditiveReferencePoseTime: 0
    m_StartTime: 0
    m_StopTime: 0.93333334
    m_OrientationOffsetY: 0
    m_Level: 0
    m_CycleOffset: 0
    m_HasAdditiveReferencePose: 0
    m_LoopTime: 1
    m_LoopBlend: 0
    m_LoopBlendOrientation: 0
    m_LoopBlendPositionY: 0
    m_LoopBlendPositionXZ: 0
    m_KeepOriginalOrientation: 0
    m_KeepOriginalPositionY: 1
    m_KeepOriginalPositionXZ: 0
    m_HeightFromFeet: 0
    m_Mirror: 0
  m_EditorCurves:
  - curve:
      serializedVersion: 2
      m_Curve:
      - serializedVersion: 3
        time: 0
        value: 0.0015795224
        inSlope: -0.009641291
        outSlope: -0.009641291
        tangentMode: 0
        weightedMode: 0
        inWeight: 0.33333334
        outWeight: 0.33333334
      - serializedVersion: 3
        time: 0.016666668
        value: 0.0014188342
        inSlope: -0.019450743
        outSlope: -0.019450743
        tangentMode: 0
        weightedMode: 0
        inWeight: 0.33333334
        outWeight: 0.33333334
      - serializedVersion: 3
        time: 0.033333335
        value: 0.00093116425
        inSlope: -0.03932191
        outSlope: -0.03932191
        tangentMode: 0
        weightedMode: 0
        inWeight: 0.33333334
        outWeight: 0.33333334
      - serializedVersion: 3
        time: 0.050000004
        value: 0.00010810366
        inSlope: -0.05969756
        outSlope: -0.05969756
        tangentMode: 0
        weightedMode: 0
        inWeight: 0.33333334
        outWeight: 0.33333334
      - serializedVersion: 3
        time: 0.06666667
        value: -0.0010587546
        inSlope: -0.08057763
        outSlope: -0.08057763
        tangentMode: 0
        weightedMode: 0
        inWeight: 0.33333334
        outWeight: 0.33333334
      - serializedVersion: 3
        time: 0.083333336
        value: -0.002577817
        inSlope: -0.10196188
        outSlope: -0.10196188
        tangentMode: 0
        weightedMode: 0
        inWeight: 0.33333334
        outWeight: 0.33333334
      - serializedVersion: 3
        time: 0.1
        value: -0.004457484
        inSlope: -0.12385003
        outSlope: -0.12385003
        tangentMode: 0
        weightedMode: 0
        inWeight: 0.33333334
        outWeight: 0.33333334
      - serializedVersion: 3
        time: 0.11666667
        value: -0.006706151
        inSlope: -0.14624147
        outSlope: -0.14624147
        tangentMode: 0
        weightedMode: 0
        inWeight: 0.33333334
        outWeight: 0.33333334
      - serializedVersion: 3
        time: 0.13333334
        value: -0.0093322005
        inSlope: -0.16913524
        outSlope: -0.16913524
        tangentMode: 0
        weightedMode: 0
        inWeight: 0.33333334
        outWeight: 0.33333334
      - serializedVersion: 3
        time: 0.15
        value: -0.012343993
        inSlope: -0.19253021
        outSlope: -0.19253021
        tangentMode: 0
        weightedMode: 0
        inWeight: 0.33333334
        outWeight: 0.33333334
      - serializedVersion: 3
        time: 0.16666667
        value: -0.015749874
        inSlope: -0.21642467
        outSlope: -0.21642467
        tangentMode: 0
        weightedMode: 0
        inWeight: 0.33333334
        outWeight: 0.33333334
      - serializedVersion: 3
        time: 0.18333334
        value: -0.019558148
        inSlope: -0.24081668
        outSlope: -0.24081668
        tangentMode: 0
        weightedMode: 0
        inWeight: 0.33333334
        outWeight: 0.33333334
      - serializedVersion: 3
        time: 0.2
        value: -0.023777096
        inSlope: -0.26570305
        outSlope: -0.26570305
        tangentMode: 0
        weightedMode: 0
        inWeight: 0.33333334
        outWeight: 0.33333334
      - serializedVersion: 3
        time: 0.21666667
        value: -0.028414916
        inSlope: -0.29108024
        outSlope: -0.29108024
        tangentMode: 0
        weightedMode: 0
        inWeight: 0.33333334
        outWeight: 0.33333334
      - serializedVersion: 3
        time: 0.23333333
        value: -0.03347977
        inSlope: -0.31694403
        outSlope: -0.31694403
        tangentMode: 0
        weightedMode: 0
        inWeight: 0.33333334
        outWeight: 0.33333334
      - serializedVersion: 3
        time: 0.25
        value: -0.038979717
        inSlope: -0.3432892
        outSlope: -0.3432892
        tangentMode: 0
        weightedMode: 0
        inWeight: 0.33333334
        outWeight: 0.33333334
      - serializedVersion: 3
        time: 0.26666668
        value: -0.044922747
        inSlope: -0.37010932
        outSlope: -0.37010932
        tangentMode: 0
        weightedMode: 0
        inWeight: 0.33333334
        outWeight: 0.33333334
      - serializedVersion: 3
        time: 0.28333336
        value: -0.051316705
        inSlope: -0.39739585
        outSlope: -0.39739585
        tangentMode: 0
        weightedMode: 0
        inWeight: 0.33333334
        outWeight: 0.33333334
      - serializedVersion: 3
        time: 0.30000004
        value: -0.058169287
        inSlope: -0.42514014
        outSlope: -0.42514014
        tangentMode: 0
        weightedMode: 0
        inWeight: 0.33333334
        outWeight: 0.33333334
      - serializedVersion: 3
        time: 0.31666672
        value: -0.065488055
        inSlope: -0.45333195
        outSlope: -0.45333195
        tangentMode: 0
        weightedMode: 0
        inWeight: 0.33333334
        outWeight: 0.33333334
      - serializedVersion: 3
        time: 0.3333334
        value: -0.073280364
        inSlope: -0.48195702
        outSlope: -0.48195702
        tangentMode: 0
        weightedMode: 0
        inWeight: 0.33333334
        outWeight: 0.33333334
      - serializedVersion: 3
        time: 0.35000008
        value: -0.0815533
        inSlope: -0.51100194
        outSlope: -0.51100194
        tangentMode: 0
        weightedMode: 0
        inWeight: 0.33333334
        outWeight: 0.33333334
      - serializedVersion: 3
        time: 0.36666676
        value: -0.09031378
        inSlope: -0.54045033
        outSlope: -0.54045033
        tangentMode: 0
        weightedMode: 0
        inWeight: 0.33333334
        outWeight: 0.33333334
      - serializedVersion: 3
        time: 0.38333344
        value: -0.09956833
        inSlope: -0.5702814
        outSlope: -0.5702814
        tangentMode: 0
        weightedMode: 0
        inWeight: 0.33333334
        outWeight: 0.33333334
      - serializedVersion: 3
        time: 0.40000013
        value: -0.109323174
        inSlope: -0.60047436
        outSlope: -0.60047436
        tangentMode: 0
        weightedMode: 0
        inWeight: 0.33333334
        outWeight: 0.33333334
      - serializedVersion: 3
        time: 0.4166668
        value: -0.11958416
        inSlope: -0.63100433
        outSlope: -0.63100433
        tangentMode: 0
        weightedMode: 0
        inWeight: 0.33333334
        outWeight: 0.33333334
      - serializedVersion: 3
        time: 0.4333335
        value: -0.13035667
        inSlope: -0.6618426
        outSlope: -0.6618426
        tangentMode: 0
        weightedMode: 0
        inWeight: 0.33333334
        outWeight: 0.33333334
      - serializedVersion: 3
        time: 0.45000017
        value: -0.1416456
        inSlope: -0.6929584
        outSlope: -0.6929584
        tangentMode: 0
        weightedMode: 0
        inWeight: 0.33333334
        outWeight: 0.33333334
      - serializedVersion: 3
        time: 0.46666685
        value: -0.1534553
        inSlope: -0.72431564
        outSlope: -0.72431564
        tangentMode: 0
        weightedMode: 0
        inWeight: 0.33333334
        outWeight: 0.33333334
      - serializedVersion: 3
        time: 0.48333353
        value: -0.16578947
        inSlope: -0.7558752
        outSlope: -0.7558752
        tangentMode: 0
        weightedMode: 0
        inWeight: 0.33333334
        outWeight: 0.33333334
      - serializedVersion: 3
        time: 0.5000002
        value: -0.17865114
        inSlope: -0.787593
        outSlope: -0.787593
        tangentMode: 0
        weightedMode: 0
        inWeight: 0.33333334
        outWeight: 0.33333334
      - serializedVersion: 3
        time: 0.5166668
        value: -0.19204254
        inSlope: -0.8783246
        outSlope: -0.8783246
        tangentMode: 0
        weightedMode: 0
        inWeight: 0.33333334
        outWeight: 0.33333334
      - serializedVersion: 3
        time: 0.5333335
        value: -0.2079286
        inSlope: -1.077583
        outSlope: -1.077583
        tangentMode: 0
        weightedMode: 0
        inWeight: 0.33333334
        outWeight: 0.33333334
      - serializedVersion: 3
        time: 0.55000013
        value: -0.22796194
        inSlope: -1.3121191
        outSlope: -1.3121191
        tangentMode: 0
        weightedMode: 0
        inWeight: 0.33333334
        outWeight: 0.33333334
      - serializedVersion: 3
        time: 0.5666668
        value: -0.25166586
        inSlope: -1.5176619
        outSlope: -1.5176619
        tangentMode: 0
        weightedMode: 0
        inWeight: 0.33333334
        outWeight: 0.33333334
      - serializedVersion: 3
        time: 0.58333343
        value: -0.27855062
        inSlope: -1.6934813
        outSlope: -1.6934813
        tangentMode: 0
        weightedMode: 0
        inWeight: 0.33333334
        outWeight: 0.33333334
      - serializedVersion: 3
        time: 0.6000001
        value: -0.30811518
        inSlope: -1.838977
        outSlope: -1.838977
        tangentMode: 0
        weightedMode: 0
        inWeight: 0.33333334
        outWeight: 0.33333334
      - serializedVersion: 3
        time: 0.61666673
        value: -0.3398498
        inSlope: -1.9537524
        outSlope: -1.9537524
        tangentMode: 0
        weightedMode: 0
        inWeight: 0.33333334
        outWeight: 0.33333334
      - serializedVersion: 3
        time: 0.6333334
        value: -0.3732402
        inSlope: -2.0376976
        outSlope: -2.0376976
        tangentMode: 0
        weightedMode: 0
        inWeight: 0.33333334
        outWeight: 0.33333334
      - serializedVersion: 3
        time: 0.65000004
        value: -0.407773
        inSlope: -2.0910494
        outSlope: -2.0910494
        tangentMode: 0
        weightedMode: 0
        inWeight: 0.33333334
        outWeight: 0.33333334
      - serializedVersion: 3
        time: 0.6666667
        value: -0.44294178
        inSlope: -2.1144543
        outSlope: -2.1144543
        tangentMode: 0
        weightedMode: 0
        inWeight: 0.33333334
        outWeight: 0.33333334
      - serializedVersion: 3
        time: 0.68333334
        value: -0.47825474
        inSlope: -2.108996
        outSlope: -2.108996
        tangentMode: 0
        weightedMode: 0
        inWeight: 0.33333334
        outWeight: 0.33333334
      - serializedVersion: 3
        time: 0.7
        value: -0.5132416
        inSlope: -2.0761926
        outSlope: -2.0761926
        tangentMode: 0
        weightedMode: 0
        inWeight: 0.33333334
        outWeight: 0.33333334
      - serializedVersion: 3
        time: 0.71666664
        value: -0.5474611
        inSlope: -2.0179887
        outSlope: -2.0179887
        tangentMode: 0
        weightedMode: 0
        inWeight: 0.33333334
        outWeight: 0.33333334
      - serializedVersion: 3
        time: 0.7333333
        value: -0.5805078
        inSlope: -1.936682
        outSlope: -1.936682
        tangentMode: 0
        weightedMode: 0
        inWeight: 0.33333334
        outWeight: 0.33333334
      - serializedVersion: 3
        time: 0.74999994
        value: -0.6120171
        inSlope: -1.834858
        outSlope: -1.834858
        tangentMode: 0
        weightedMode: 0
        inWeight: 0.33333334
        outWeight: 0.33333334
      - serializedVersion: 3
        time: 0.7666666
        value: -0.6416697
        inSlope: -1.7152867
        outSlope: -1.7152867
        tangentMode: 0
        weightedMode: 0
        inWeight: 0.33333334
        outWeight: 0.33333334
      - serializedVersion: 3
        time: 0.78333324
        value: -0.66919327
        inSlope: -1.5807722
        outSlope: -1.5807722
        tangentMode: 0
        weightedMode: 0
        inWeight: 0.33333334
        outWeight: 0.33333334
      - serializedVersion: 3
        time: 0.7999999
        value: -0.69436204
        inSlope: -1.4340391
        outSlope: -1.4340391
        tangentMode: 0
        weightedMode: 0
        inWeight: 0.33333334
        outWeight: 0.33333334
      - serializedVersion: 3
        time: 0.81666654
        value: -0.7169945
        inSlope: -1.2775714
        outSlope: -1.2775714
        tangentMode: 0
        weightedMode: 0
        inWeight: 0.33333334
        outWeight: 0.33333334
      - serializedVersion: 3
        time: 0.8333332
        value: -0.7369477
        inSlope: -1.1134433
        outSlope: -1.1134433
        tangentMode: 0
        weightedMode: 0
        inWeight: 0.33333334
        outWeight: 0.33333334
      - serializedVersion: 3
        time: 0.84999985
        value: -0.75410926
        inSlope: -0.9431836
        outSlope: -0.9431836
        tangentMode: 0
        weightedMode: 0
        inWeight: 0.33333334
        outWeight: 0.33333334
      - serializedVersion: 3
        time: 0.8666665
        value: -0.76838714
        inSlope: -0.7676257
        outSlope: -0.7676257
        tangentMode: 0
        weightedMode: 0
        inWeight: 0.33333334
        outWeight: 0.33333334
      - serializedVersion: 3
        time: 0.88333315
        value: -0.77969676
        inSlope: -0.58676064
        outSlope: -0.58676064
        tangentMode: 0
        weightedMode: 0
        inWeight: 0.33333334
        outWeight: 0.33333334
      - serializedVersion: 3
        time: 0.8999998
        value: -0.7879458
        inSlope: -0.39963344
        outSlope: -0.39963344
        tangentMode: 0
        weightedMode: 0
        inWeight: 0.33333334
        outWeight: 0.33333334
      - serializedVersion: 3
        time: 0.91666645
        value: -0.79301786
        inSlope: -0.20423715
        outSlope: -0.20423715
        tangentMode: 0
        weightedMode: 0
        inWeight: 0.33333334
        outWeight: 0.33333334
      - serializedVersion: 3
        time: 0.93333334
        value: -0.79475373
        inSlope: -0.10415057
        outSlope: -0.10415057
        tangentMode: 0
        weightedMode: 0
        inWeight: 0.33333334
        outWeight: 0.33333334
      m_PreInfinity: 2
      m_PostInfinity: 2
      m_RotationOrder: 4
    attribute: m_LocalRotation.x
    path: 
    classID: 4
    script: {fileID: 0}
  - curve:
      serializedVersion: 2
      m_Curve:
      - serializedVersion: 3
        time: 0
        value: 0
        inSlope: 0
        outSlope: 0
        tangentMode: 0
        weightedMode: 0
        inWeight: 0.33333334
        outWeight: 0.33333334
      - serializedVersion: 3
        time: 0.016666668
        value: 0
        inSlope: 0
        outSlope: 0
        tangentMode: 0
        weightedMode: 0
        inWeight: 0.33333334
        outWeight: 0.33333334
      - serializedVersion: 3
        time: 0.033333335
        value: 0
        inSlope: 0
        outSlope: 0
        tangentMode: 0
        weightedMode: 0
        inWeight: 0.33333334
        outWeight: 0.33333334
      - serializedVersion: 3
        time: 0.050000004
        value: 0
        inSlope: 0
        outSlope: 0
        tangentMode: 0
        weightedMode: 0
        inWeight: 0.33333334
        outWeight: 0.33333334
      - serializedVersion: 3
        time: 0.06666667
        value: 0
        inSlope: 0
        outSlope: 0
        tangentMode: 0
        weightedMode: 0
        inWeight: 0.33333334
        outWeight: 0.33333334
      - serializedVersion: 3
        time: 0.083333336
        value: 0
        inSlope: 0
        outSlope: 0
        tangentMode: 0
        weightedMode: 0
        inWeight: 0.33333334
        outWeight: 0.33333334
      - serializedVersion: 3
        time: 0.1
        value: 0
        inSlope: 0
        outSlope: 0
        tangentMode: 0
        weightedMode: 0
        inWeight: 0.33333334
        outWeight: 0.33333334
      - serializedVersion: 3
        time: 0.11666667
        value: 0
        inSlope: 0
        outSlope: 0
        tangentMode: 0
        weightedMode: 0
        inWeight: 0.33333334
        outWeight: 0.33333334
      - serializedVersion: 3
        time: 0.13333334
        value: 0
        inSlope: 0
        outSlope: 0
        tangentMode: 0
        weightedMode: 0
        inWeight: 0.33333334
        outWeight: 0.33333334
      - serializedVersion: 3
        time: 0.15
        value: 0
        inSlope: 0
        outSlope: 0
        tangentMode: 0
        weightedMode: 0
        inWeight: 0.33333334
        outWeight: 0.33333334
      - serializedVersion: 3
        time: 0.16666667
        value: 0
        inSlope: 0
        outSlope: 0
        tangentMode: 0
        weightedMode: 0
        inWeight: 0.33333334
        outWeight: 0.33333334
      - serializedVersion: 3
        time: 0.18333334
        value: 0
        inSlope: 0
        outSlope: 0
        tangentMode: 0
        weightedMode: 0
        inWeight: 0.33333334
        outWeight: 0.33333334
      - serializedVersion: 3
        time: 0.2
        value: 0
        inSlope: 0
        outSlope: 0
        tangentMode: 0
        weightedMode: 0
        inWeight: 0.33333334
        outWeight: 0.33333334
      - serializedVersion: 3
        time: 0.21666667
        value: 0
        inSlope: 0
        outSlope: 0
        tangentMode: 0
        weightedMode: 0
        inWeight: 0.33333334
        outWeight: 0.33333334
      - serializedVersion: 3
        time: 0.23333333
        value: 0
        inSlope: 0
        outSlope: 0
        tangentMode: 0
        weightedMode: 0
        inWeight: 0.33333334
        outWeight: 0.33333334
      - serializedVersion: 3
        time: 0.25
        value: 0
        inSlope: 0
        outSlope: 0
        tangentMode: 0
        weightedMode: 0
        inWeight: 0.33333334
        outWeight: 0.33333334
      - serializedVersion: 3
        time: 0.26666668
        value: 0
        inSlope: 0
        outSlope: 0
        tangentMode: 0
        weightedMode: 0
        inWeight: 0.33333334
        outWeight: 0.33333334
      - serializedVersion: 3
        time: 0.28333336
        value: 0
        inSlope: 0
        outSlope: 0
        tangentMode: 0
        weightedMode: 0
        inWeight: 0.33333334
        outWeight: 0.33333334
      - serializedVersion: 3
        time: 0.30000004
        value: 0
        inSlope: 0
        outSlope: 0
        tangentMode: 0
        weightedMode: 0
        inWeight: 0.33333334
        outWeight: 0.33333334
      - serializedVersion: 3
        time: 0.31666672
        value: 0
        inSlope: 0
        outSlope: 0
        tangentMode: 0
        weightedMode: 0
        inWeight: 0.33333334
        outWeight: 0.33333334
      - serializedVersion: 3
        time: 0.3333334
        value: 0
        inSlope: 0
        outSlope: 0
        tangentMode: 0
        weightedMode: 0
        inWeight: 0.33333334
        outWeight: 0.33333334
      - serializedVersion: 3
        time: 0.35000008
        value: 0
        inSlope: 0
        outSlope: 0
        tangentMode: 0
        weightedMode: 0
        inWeight: 0.33333334
        outWeight: 0.33333334
      - serializedVersion: 3
        time: 0.36666676
        value: 0
        inSlope: 0
        outSlope: 0
        tangentMode: 0
        weightedMode: 0
        inWeight: 0.33333334
        outWeight: 0.33333334
      - serializedVersion: 3
        time: 0.38333344
        value: 0
        inSlope: 0
        outSlope: 0
        tangentMode: 0
        weightedMode: 0
        inWeight: 0.33333334
        outWeight: 0.33333334
      - serializedVersion: 3
        time: 0.40000013
        value: 0
        inSlope: 0
        outSlope: 0
        tangentMode: 0
        weightedMode: 0
        inWeight: 0.33333334
        outWeight: 0.33333334
      - serializedVersion: 3
        time: 0.4166668
        value: 0
        inSlope: 0
        outSlope: 0
        tangentMode: 0
        weightedMode: 0
        inWeight: 0.33333334
        outWeight: 0.33333334
      - serializedVersion: 3
        time: 0.4333335
        value: 0
        inSlope: 0
        outSlope: 0
        tangentMode: 0
        weightedMode: 0
        inWeight: 0.33333334
        outWeight: 0.33333334
      - serializedVersion: 3
        time: 0.45000017
        value: 0
        inSlope: 0
        outSlope: 0
        tangentMode: 0
        weightedMode: 0
        inWeight: 0.33333334
        outWeight: 0.33333334
      - serializedVersion: 3
        time: 0.46666685
        value: 0
        inSlope: 0
        outSlope: 0
        tangentMode: 0
        weightedMode: 0
        inWeight: 0.33333334
        outWeight: 0.33333334
      - serializedVersion: 3
        time: 0.48333353
        value: 0
        inSlope: 0
        outSlope: 0
        tangentMode: 0
        weightedMode: 0
        inWeight: 0.33333334
        outWeight: 0.33333334
      - serializedVersion: 3
        time: 0.5000002
        value: 0
        inSlope: -2.1660851e-18
        outSlope: -2.1660851e-18
        tangentMode: 0
        weightedMode: 0
        inWeight: 0.33333334
        outWeight: 0.33333334
      - serializedVersion: 3
        time: 0.5166668
        value: -7.220277e-20
        inSlope: -0.000000018255893
        outSlope: -0.000000018255893
        tangentMode: 0
        weightedMode: 0
        inWeight: 0.33333334
        outWeight: 0.33333334
      - serializedVersion: 3
        time: 0.5333335
        value: -6.0852917e-10
        inSlope: -0.000000070697325
        outSlope: -0.000000070697325
        tangentMode: 0
        weightedMode: 0
        inWeight: 0.33333334
        outWeight: 0.33333334
      - serializedVersion: 3
        time: 0.55000013
        value: -0.0000000023565752
        inSlope: -0.00000013540199
        outSlope: -0.00000013540199
        tangentMode: 0
        weightedMode: 0
        inWeight: 0.33333334
        outWeight: 0.33333334
      - serializedVersion: 3
        time: 0.5666668
        value: -0.000000005121924
        inSlope: -0.00000019252768
        outSlope: -0.00000019252768
        tangentMode: 0
        weightedMode: 0
        inWeight: 0.33333334
        outWeight: 0.33333334
      - serializedVersion: 3
        time: 0.58333343
        value: -0.000000008774158
        inSlope: -0.00000024158425
        outSlope: -0.00000024158425
        tangentMode: 0
        weightedMode: 0
        inWeight: 0.33333334
        outWeight: 0.33333334
      - serializedVersion: 3
        time: 0.6000001
        value: -0.000000013174725
        inSlope: -0.00000028210854
        outSlope: -0.00000028210854
        tangentMode: 0
        weightedMode: 0
        inWeight: 0.33333334
        outWeight: 0.33333334
      - serializedVersion: 3
        time: 0.61666673
        value: -0.000000018177767
        inSlope: -0.00000031371377
        outSlope: -0.00000031371377
        tangentMode: 0
        weightedMode: 0
        inWeight: 0.33333334
        outWeight: 0.33333334
      - serializedVersion: 3
        time: 0.6333334
        value: -0.000000023631841
        inSlope: -0.00000033614504
        outSlope: -0.00000033614504
        tangentMode: 0
        weightedMode: 0
        inWeight: 0.33333334
        outWeight: 0.33333334
      - serializedVersion: 3
        time: 0.65000004
        value: -0.00000002938259
        inSlope: -0.000000349332
        outSlope: -0.000000349332
        tangentMode: 0
        weightedMode: 0
        inWeight: 0.33333334
        outWeight: 0.33333334
      - serializedVersion: 3
        time: 0.6666667
        value: -0.00000003527623
        inSlope: -0.00000035343248
        outSlope: -0.00000035343248
        tangentMode: 0
        weightedMode: 0
        inWeight: 0.33333334
        outWeight: 0.33333334
      - serializedVersion: 3
        time: 0.68333334
        value: -0.000000041163663
        inSlope: -0.00000034886472
        outSlope: -0.00000034886472
        tangentMode: 0
        weightedMode: 0
        inWeight: 0.33333334
        outWeight: 0.33333334
      - serializedVersion: 3
        time: 0.7
        value: -0.000000046905043
        inSlope: -0.00000033631818
        outSlope: -0.00000033631818
        tangentMode: 0
        weightedMode: 0
        inWeight: 0.33333334
        outWeight: 0.33333334
      - serializedVersion: 3
        time: 0.71666664
        value: -0.000000052374258
        inSlope: -0.00000031674716
        outSlope: -0.00000031674716
        tangentMode: 0
        weightedMode: 0
        inWeight: 0.33333334
        outWeight: 0.33333334
      - serializedVersion: 3
        time: 0.7333333
        value: -0.00000005746327
        inSlope: -0.00000029134662
        outSlope: -0.00000029134662
        tangentMode: 0
        weightedMode: 0
        inWeight: 0.33333334
        outWeight: 0.33333334
      - serializedVersion: 3
        time: 0.74999994
        value: -0.0000000620858
        inSlope: -0.00000026150275
        outSlope: -0.00000026150275
        tangentMode: 0
        weightedMode: 0
        inWeight: 0.33333334
        outWeight: 0.33333334
      - serializedVersion: 3
        time: 0.7666666
        value: -0.00000006618002
        inSlope: -0.00000022873117
        outSlope: -0.00000022873117
        tangentMode: 0
        weightedMode: 0
        inWeight: 0.33333334
        outWeight: 0.33333334
      - serializedVersion: 3
        time: 0.78333324
        value: -0.00000006971017
        inSlope: -0.00000019460164
        outSlope: -0.00000019460164
        tangentMode: 0
        weightedMode: 0
        inWeight: 0.33333334
        outWeight: 0.33333334
      - serializedVersion: 3
        time: 0.7999999
        value: -0.00000007266674
        inSlope: -0.00000016065181
        outSlope: -0.00000016065181
        tangentMode: 0
        weightedMode: 0
        inWeight: 0.33333334
        outWeight: 0.33333334
      - serializedVersion: 3
        time: 0.81666654
        value: -0.00000007506522
        inSlope: -0.00000012829622
        outSlope: -0.00000012829622
        tangentMode: 0
        weightedMode: 0
        inWeight: 0.33333334
        outWeight: 0.33333334
      - serializedVersion: 3
        time: 0.8333332
        value: -0.00000007694327
        inSlope: -0.00000009873647
        outSlope: -0.00000009873647
        tangentMode: 0
        weightedMode: 0
        inWeight: 0.33333334
        outWeight: 0.33333334
      - serializedVersion: 3
        time: 0.84999985
        value: -0.000000078356436
        inSlope: -0.00000007287554
        outSlope: -0.00000007287554
        tangentMode: 0
        weightedMode: 0
        inWeight: 0.33333334
        outWeight: 0.33333334
      - serializedVersion: 3
        time: 0.8666665
        value: -0.000000079372455
        inSlope: -0.000000051229897
        outSlope: -0.000000051229897
        tangentMode: 0
        weightedMode: 0
        inWeight: 0.33333334
        outWeight: 0.33333334
      - serializedVersion: 3
        time: 0.88333315
        value: -0.0000000800641
        inSlope: -0.0000000338586
        outSlope: -0.0000000338586
        tangentMode: 0
        weightedMode: 0
        inWeight: 0.33333334
        outWeight: 0.33333334
      - serializedVersion: 3
        time: 0.8999998
        value: -0.000000080501074
        inSlope: -0.000000020297596
        outSlope: -0.000000020297596
        tangentMode: 0
        weightedMode: 0
        inWeight: 0.33333334
        outWeight: 0.33333334
      - serializedVersion: 3
        time: 0.91666645
        value: -0.00000008074068
        inSlope: -0.00000000950448
        outSlope: -0.00000000950448
        tangentMode: 0
        weightedMode: 0
        inWeight: 0.33333334
        outWeight: 0.33333334
      - serializedVersion: 3
        time: 0.93333334
        value: -0.00000008081789
        inSlope: -0.0000000046323927
        outSlope: -0.0000000046323927
        tangentMode: 0
        weightedMode: 0
        inWeight: 0.33333334
        outWeight: 0.33333334
      m_PreInfinity: 2
      m_PostInfinity: 2
      m_RotationOrder: 4
    attribute: m_LocalRotation.y
    path: 
    classID: 4
    script: {fileID: 0}
  - curve:
      serializedVersion: 2
      m_Curve:
      - serializedVersion: 3
        time: 0
        value: 0
        inSlope: 0
        outSlope: 0
        tangentMode: 0
        weightedMode: 0
        inWeight: 0.33333334
        outWeight: 0.33333334
      - serializedVersion: 3
        time: 0.016666668
        value: 0
        inSlope: 0
        outSlope: 0
        tangentMode: 0
        weightedMode: 0
        inWeight: 0.33333334
        outWeight: 0.33333334
      - serializedVersion: 3
        time: 0.033333335
        value: 0
        inSlope: 0
        outSlope: 0
        tangentMode: 0
        weightedMode: 0
        inWeight: 0.33333334
        outWeight: 0.33333334
      - serializedVersion: 3
        time: 0.050000004
        value: 0
        inSlope: 0
        outSlope: 0
        tangentMode: 0
        weightedMode: 0
        inWeight: 0.33333334
        outWeight: 0.33333334
      - serializedVersion: 3
        time: 0.06666667
        value: 0
        inSlope: 0
        outSlope: 0
        tangentMode: 0
        weightedMode: 0
        inWeight: 0.33333334
        outWeight: 0.33333334
      - serializedVersion: 3
        time: 0.083333336
        value: 0
        inSlope: 0
        outSlope: 0
        tangentMode: 0
        weightedMode: 0
        inWeight: 0.33333334
        outWeight: 0.33333334
      - serializedVersion: 3
        time: 0.1
        value: 0
        inSlope: 0
        outSlope: 0
        tangentMode: 0
        weightedMode: 0
        inWeight: 0.33333334
        outWeight: 0.33333334
      - serializedVersion: 3
        time: 0.11666667
        value: 0
        inSlope: 0
        outSlope: 0
        tangentMode: 0
        weightedMode: 0
        inWeight: 0.33333334
        outWeight: 0.33333334
      - serializedVersion: 3
        time: 0.13333334
        value: 0
        inSlope: 0
        outSlope: 0
        tangentMode: 0
        weightedMode: 0
        inWeight: 0.33333334
        outWeight: 0.33333334
      - serializedVersion: 3
        time: 0.15
        value: 0
        inSlope: 0
        outSlope: 0
        tangentMode: 0
        weightedMode: 0
        inWeight: 0.33333334
        outWeight: 0.33333334
      - serializedVersion: 3
        time: 0.16666667
        value: 0
        inSlope: 0
        outSlope: 0
        tangentMode: 0
        weightedMode: 0
        inWeight: 0.33333334
        outWeight: 0.33333334
      - serializedVersion: 3
        time: 0.18333334
        value: 0
        inSlope: 0
        outSlope: 0
        tangentMode: 0
        weightedMode: 0
        inWeight: 0.33333334
        outWeight: 0.33333334
      - serializedVersion: 3
        time: 0.2
        value: 0
        inSlope: 0
        outSlope: 0
        tangentMode: 0
        weightedMode: 0
        inWeight: 0.33333334
        outWeight: 0.33333334
      - serializedVersion: 3
        time: 0.21666667
        value: 0
        inSlope: 0
        outSlope: 0
        tangentMode: 0
        weightedMode: 0
        inWeight: 0.33333334
        outWeight: 0.33333334
      - serializedVersion: 3
        time: 0.23333333
        value: 0
        inSlope: 0
        outSlope: 0
        tangentMode: 0
        weightedMode: 0
        inWeight: 0.33333334
        outWeight: 0.33333334
      - serializedVersion: 3
        time: 0.25
        value: 0
        inSlope: 0
        outSlope: 0
        tangentMode: 0
        weightedMode: 0
        inWeight: 0.33333334
        outWeight: 0.33333334
      - serializedVersion: 3
        time: 0.26666668
        value: 0
        inSlope: 0
        outSlope: 0
        tangentMode: 0
        weightedMode: 0
        inWeight: 0.33333334
        outWeight: 0.33333334
      - serializedVersion: 3
        time: 0.28333336
        value: 0
        inSlope: 0
        outSlope: 0
        tangentMode: 0
        weightedMode: 0
        inWeight: 0.33333334
        outWeight: 0.33333334
      - serializedVersion: 3
        time: 0.30000004
        value: 0
        inSlope: 0
        outSlope: 0
        tangentMode: 0
        weightedMode: 0
        inWeight: 0.33333334
        outWeight: 0.33333334
      - serializedVersion: 3
        time: 0.31666672
        value: 0
        inSlope: 0
        outSlope: 0
        tangentMode: 0
        weightedMode: 0
        inWeight: 0.33333334
        outWeight: 0.33333334
      - serializedVersion: 3
        time: 0.3333334
        value: 0
        inSlope: 0
        outSlope: 0
        tangentMode: 0
        weightedMode: 0
        inWeight: 0.33333334
        outWeight: 0.33333334
      - serializedVersion: 3
        time: 0.35000008
        value: 0
        inSlope: 0
        outSlope: 0
        tangentMode: 0
        weightedMode: 0
        inWeight: 0.33333334
        outWeight: 0.33333334
      - serializedVersion: 3
        time: 0.36666676
        value: 0
        inSlope: 0
        outSlope: 0
        tangentMode: 0
        weightedMode: 0
        inWeight: 0.33333334
        outWeight: 0.33333334
      - serializedVersion: 3
        time: 0.38333344
        value: 0
        inSlope: 0
        outSlope: 0
        tangentMode: 0
        weightedMode: 0
        inWeight: 0.33333334
        outWeight: 0.33333334
      - serializedVersion: 3
        time: 0.40000013
        value: 0
        inSlope: 0
        outSlope: 0
        tangentMode: 0
        weightedMode: 0
        inWeight: 0.33333334
        outWeight: 0.33333334
      - serializedVersion: 3
        time: 0.4166668
        value: 0
        inSlope: 0
        outSlope: 0
        tangentMode: 0
        weightedMode: 0
        inWeight: 0.33333334
        outWeight: 0.33333334
      - serializedVersion: 3
        time: 0.4333335
        value: 0
        inSlope: 0
        outSlope: 0
        tangentMode: 0
        weightedMode: 0
        inWeight: 0.33333334
        outWeight: 0.33333334
      - serializedVersion: 3
        time: 0.45000017
        value: 0
        inSlope: 0
        outSlope: 0
        tangentMode: 0
        weightedMode: 0
        inWeight: 0.33333334
        outWeight: 0.33333334
      - serializedVersion: 3
        time: 0.46666685
        value: 0
        inSlope: 0
        outSlope: 0
        tangentMode: 0
        weightedMode: 0
        inWeight: 0.33333334
        outWeight: 0.33333334
      - serializedVersion: 3
        time: 0.48333353
        value: 0
        inSlope: 0
        outSlope: 0
        tangentMode: 0
        weightedMode: 0
        inWeight: 0.33333334
        outWeight: 0.33333334
      - serializedVersion: 3
        time: 0.5000002
        value: 0
        inSlope: -4.2387015e-19
        outSlope: -4.2387015e-19
        tangentMode: 0
        weightedMode: 0
        inWeight: 0.33333334
        outWeight: 0.33333334
      - serializedVersion: 3
        time: 0.5166668
        value: -1.4128991e-20
        inSlope: -0.0000000038807393
        outSlope: -0.0000000038807393
        tangentMode: 0
        weightedMode: 0
        inWeight: 0.33333334
        outWeight: 0.33333334
      - serializedVersion: 3
        time: 0.5333335
        value: -1.2935786e-10
        inSlope: -0.000000016552114
        outSlope: -0.000000016552114
        tangentMode: 0
        weightedMode: 0
        inWeight: 0.33333334
        outWeight: 0.33333334
      - serializedVersion: 3
        time: 0.55000013
        value: -5.5173666e-10
        inSlope: -0.000000036075733
        outSlope: -0.000000036075733
        tangentMode: 0
        weightedMode: 0
        inWeight: 0.33333334
        outWeight: 0.33333334
      - serializedVersion: 3
        time: 0.5666668
        value: -0.0000000013318812
        inSlope: -0.00000005979091
        outSlope: -0.00000005979091
        tangentMode: 0
        weightedMode: 0
        inWeight: 0.33333334
        outWeight: 0.33333334
      - serializedVersion: 3
        time: 0.58333343
        value: -0.000000002544765
        inSlope: -0.00000008805134
        outSlope: -0.00000008805134
        tangentMode: 0
        weightedMode: 0
        inWeight: 0.33333334
        outWeight: 0.33333334
      - serializedVersion: 3
        time: 0.6000001
        value: -0.000000004266923
        inSlope: -0.00000012071756
        outSlope: -0.00000012071756
        tangentMode: 0
        weightedMode: 0
        inWeight: 0.33333334
        outWeight: 0.33333334
      - serializedVersion: 3
        time: 0.61666673
        value: -0.00000000656868
        inSlope: -0.00000015721474
        outSlope: -0.00000015721474
        tangentMode: 0
        weightedMode: 0
        inWeight: 0.33333334
        outWeight: 0.33333334
      - serializedVersion: 3
        time: 0.6333334
        value: -0.000000009507409
        inSlope: -0.00000019659808
        outSlope: -0.00000019659808
        tangentMode: 0
        weightedMode: 0
        inWeight: 0.33333334
        outWeight: 0.33333334
      - serializedVersion: 3
        time: 0.65000004
        value: -0.000000013121943
        inSlope: -0.00000023762585
        outSlope: -0.00000023762585
        tangentMode: 0
        weightedMode: 0
        inWeight: 0.33333334
        outWeight: 0.33333334
      - serializedVersion: 3
        time: 0.6666667
        value: -0.000000017428263
        inSlope: -0.00000027883948
        outSlope: -0.00000027883948
        tangentMode: 0
        weightedMode: 0
        inWeight: 0.33333334
        outWeight: 0.33333334
      - serializedVersion: 3
        time: 0.68333334
        value: -0.000000022416582
        inSlope: -0.0000003186479
        outSlope: -0.0000003186479
        tangentMode: 0
        weightedMode: 0
        inWeight: 0.33333334
        outWeight: 0.33333334
      - serializedVersion: 3
        time: 0.7
        value: -0.000000028049849
        inSlope: -0.0000003554116
        outSlope: -0.0000003554116
        tangentMode: 0
        weightedMode: 0
        inWeight: 0.33333334
        outWeight: 0.33333334
      - serializedVersion: 3
        time: 0.71666664
        value: -0.000000034263625
        inSlope: -0.00000038752626
        outSlope: -0.00000038752626
        tangentMode: 0
        weightedMode: 0
        inWeight: 0.33333334
        outWeight: 0.33333334
      - serializedVersion: 3
        time: 0.7333333
        value: -0.00000004096738
        inSlope: -0.0000004134967
        outSlope: -0.0000004134967
        tangentMode: 0
        weightedMode: 0
        inWeight: 0.33333334
        outWeight: 0.33333334
      - serializedVersion: 3
        time: 0.74999994
        value: -0.000000048046836
        inSlope: -0.0000004319998
        outSlope: -0.0000004319998
        tangentMode: 0
        weightedMode: 0
        inWeight: 0.33333334
        outWeight: 0.33333334
      - serializedVersion: 3
        time: 0.7666666
        value: -0.00000005536736
        inSlope: -0.00000044193428
        outSlope: -0.00000044193428
        tangentMode: 0
        weightedMode: 0
        inWeight: 0.33333334
        outWeight: 0.33333334
      - serializedVersion: 3
        time: 0.78333324
        value: -0.000000062777964
        inSlope: -0.00000044244885
        outSlope: -0.00000044244885
        tangentMode: 0
        weightedMode: 0
        inWeight: 0.33333334
        outWeight: 0.33333334
      - serializedVersion: 3
        time: 0.7999999
        value: -0.00000007011564
        inSlope: -0.00000043295734
        outSlope: -0.00000043295734
        tangentMode: 0
        weightedMode: 0
        inWeight: 0.33333334
        outWeight: 0.33333334
      - serializedVersion: 3
        time: 0.81666654
        value: -0.00000007720986
        inSlope: -0.00000041313103
        outSlope: -0.00000041313103
        tangentMode: 0
        weightedMode: 0
        inWeight: 0.33333334
        outWeight: 0.33333334
      - serializedVersion: 3
        time: 0.8333332
        value: -0.00000008388666
        inSlope: -0.00000038287808
        outSlope: -0.00000038287808
        tangentMode: 0
        weightedMode: 0
        inWeight: 0.33333334
        outWeight: 0.33333334
      - serializedVersion: 3
        time: 0.84999985
        value: -0.00000008997245
        inSlope: -0.00000034231488
        outSlope: -0.00000034231488
        tangentMode: 0
        weightedMode: 0
        inWeight: 0.33333334
        outWeight: 0.33333334
      - serializedVersion: 3
        time: 0.8666665
        value: -0.000000095297146
        inSlope: -0.00000029172298
        outSlope: -0.00000029172298
        tangentMode: 0
        weightedMode: 0
        inWeight: 0.33333334
        outWeight: 0.33333334
      - serializedVersion: 3
        time: 0.88333315
        value: -0.00000009969654
        inSlope: -0.00000023151424
        outSlope: -0.00000023151424
        tangentMode: 0
        weightedMode: 0
        inWeight: 0.33333334
        outWeight: 0.33333334
      - serializedVersion: 3
        time: 0.8999998
        value: -0.00000010301428
        inSlope: -0.00000016220511
        outSlope: -0.00000016220511
        tangentMode: 0
        weightedMode: 0
        inWeight: 0.33333334
        outWeight: 0.33333334
      - serializedVersion: 3
        time: 0.91666645
        value: -0.000000105103375
        inSlope: -0.00000008440713
        outSlope: -0.00000008440713
        tangentMode: 0
        weightedMode: 0
        inWeight: 0.33333334
        outWeight: 0.33333334
      - serializedVersion: 3
        time: 0.93333334
        value: -0.00000010582786
        inSlope: -0.000000043468436
        outSlope: -0.000000043468436
        tangentMode: 0
        weightedMode: 0
        inWeight: 0.33333334
        outWeight: 0.33333334
      m_PreInfinity: 2
      m_PostInfinity: 2
      m_RotationOrder: 4
    attribute: m_LocalRotation.z
    path: 
    classID: 4
    script: {fileID: 0}
  - curve:
      serializedVersion: 2
      m_Curve:
      - serializedVersion: 3
        time: 0
        value: 0.99999875
        inSlope: 0.000014305114
        outSlope: 0.000014305114
        tangentMode: 0
        weightedMode: 0
        inWeight: 0.33333334
        outWeight: 0.33333334
      - serializedVersion: 3
        time: 0.016666668
        value: 0.999999
        inSlope: 0.000025033949
        outSlope: 0.000025033949
        tangentMode: 0
        weightedMode: 0
        inWeight: 0.33333334
        outWeight: 0.33333334
      - serializedVersion: 3
        time: 0.033333335
        value: 0.9999996
        inSlope: 0.000030398365
        outSlope: 0.000030398365
        tangentMode: 0
        weightedMode: 0
        inWeight: 0.33333334
        outWeight: 0.33333334
      - serializedVersion: 3
        time: 0.050000004
        value: 1
        inSlope: -0.0000035762823
        outSlope: -0.0000035762823
        tangentMode: 0
        weightedMode: 0
        inWeight: 0.33333334
        outWeight: 0.33333334
      - serializedVersion: 3
        time: 0.06666667
        value: 0.99999946
        inSlope: -0.00010013581
        outSlope: -0.00010013581
        tangentMode: 0
        weightedMode: 0
        inWeight: 0.33333334
        outWeight: 0.33333334
      - serializedVersion: 3
        time: 0.083333336
        value: 0.99999666
        inSlope: -0.00028252605
        outSlope: -0.00028252605
        tangentMode: 0
        weightedMode: 0
        inWeight: 0.33333334
        outWeight: 0.33333334
      - serializedVersion: 3
        time: 0.1
        value: 0.99999005
        inSlope: -0.0005739928
        outSlope: -0.0005739928
        tangentMode: 0
        weightedMode: 0
        inWeight: 0.33333334
        outWeight: 0.33333334
      - serializedVersion: 3
        time: 0.11666667
        value: 0.9999775
        inSlope: -0.0010085104
        outSlope: -0.0010085104
        tangentMode: 0
        weightedMode: 0
        inWeight: 0.33333334
        outWeight: 0.33333334
      - serializedVersion: 3
        time: 0.13333334
        value: 0.9999564
        inSlope: -0.0016111134
        outSlope: -0.0016111134
        tangentMode: 0
        weightedMode: 0
        inWeight: 0.33333334
        outWeight: 0.33333334
      - serializedVersion: 3
        time: 0.15
        value: 0.9999238
        inSlope: -0.0024139883
        outSlope: -0.0024139883
        tangentMode: 0
        weightedMode: 0
        inWeight: 0.33333334
        outWeight: 0.33333334
      - serializedVersion: 3
        time: 0.16666667
        value: 0.99987596
        inSlope: -0.0034528975
        outSlope: -0.0034528975
        tangentMode: 0
        weightedMode: 0
        inWeight: 0.33333334
        outWeight: 0.33333334
      - serializedVersion: 3
        time: 0.18333334
        value: 0.9998087
        inSlope: -0.0047600274
        outSlope: -0.0047600274
        tangentMode: 0
        weightedMode: 0
        inWeight: 0.33333334
        outWeight: 0.33333334
      - serializedVersion: 3
        time: 0.2
        value: 0.9997173
        inSlope: -0.006374717
        outSlope: -0.006374717
        tangentMode: 0
        weightedMode: 0
        inWeight: 0.33333334
        outWeight: 0.33333334
      - serializedVersion: 3
        time: 0.21666667
        value: 0.99959624
        inSlope: -0.008336307
        outSlope: -0.008336307
        tangentMode: 0
        weightedMode: 0
        inWeight: 0.33333334
        outWeight: 0.33333334
      - serializedVersion: 3
        time: 0.23333333
        value: 0.9994394
        inSlope: -0.01068771
        outSlope: -0.01068771
        tangentMode: 0
        weightedMode: 0
        inWeight: 0.33333334
        outWeight: 0.33333334
      - serializedVersion: 3
        time: 0.25
        value: 0.99924
        inSlope: -0.01346826
        outSlope: -0.01346826
        tangentMode: 0
        weightedMode: 0
        inWeight: 0.33333334
        outWeight: 0.33333334
      - serializedVersion: 3
        time: 0.26666668
        value: 0.9989905
        inSlope: -0.016726242
        outSlope: -0.016726242
        tangentMode: 0
        weightedMode: 0
        inWeight: 0.33333334
        outWeight: 0.33333334
      - serializedVersion: 3
        time: 0.28333336
        value: 0.99868244
        inSlope: -0.02051173
        outSlope: -0.02051173
        tangentMode: 0
        weightedMode: 0
        inWeight: 0.33333334
        outWeight: 0.33333334
      - serializedVersion: 3
        time: 0.30000004
        value: 0.99830675
        inSlope: -0.024872998
        outSlope: -0.024872998
        tangentMode: 0
        weightedMode: 0
        inWeight: 0.33333334
        outWeight: 0.33333334
      - serializedVersion: 3
        time: 0.31666672
        value: 0.99785334
        inSlope: -0.029861903
        outSlope: -0.029861903
        tangentMode: 0
        weightedMode: 0
        inWeight: 0.33333334
        outWeight: 0.33333334
      - serializedVersion: 3
        time: 0.3333334
        value: 0.99731135
        inSlope: -0.0355303
        outSlope: -0.0355303
        tangentMode: 0
        weightedMode: 0
        inWeight: 0.33333334
        outWeight: 0.33333334
      - serializedVersion: 3
        time: 0.35000008
        value: 0.996669
        inSlope: -0.041938983
        outSlope: -0.041938983
        tangentMode: 0
        weightedMode: 0
        inWeight: 0.33333334
        outWeight: 0.33333334
      - serializedVersion: 3
        time: 0.36666676
        value: 0.9959134
        inSlope: -0.049148757
        outSlope: -0.049148757
        tangentMode: 0
        weightedMode: 0
        inWeight: 0.33333334
        outWeight: 0.33333334
      - serializedVersion: 3
        time: 0.38333344
        value: 0.9950307
        inSlope: -0.057213258
        outSlope: -0.057213258
        tangentMode: 0
        weightedMode: 0
        inWeight: 0.33333334
        outWeight: 0.33333334
      - serializedVersion: 3
        time: 0.40000013
        value: 0.9940063
        inSlope: -0.06619865
        outSlope: -0.06619865
        tangentMode: 0
        weightedMode: 0
        inWeight: 0.33333334
        outWeight: 0.33333334
      - serializedVersion: 3
        time: 0.4166668
        value: 0.9928241
        inSlope: -0.07617289
        outSlope: -0.07617289
        tangentMode: 0
        weightedMode: 0
        inWeight: 0.33333334
        outWeight: 0.33333334
      - serializedVersion: 3
        time: 0.4333335
        value: 0.9914672
        inSlope: -0.08719854
        outSlope: -0.08719854
        tangentMode: 0
        weightedMode: 0
        inWeight: 0.33333334
        outWeight: 0.33333334
      - serializedVersion: 3
        time: 0.45000017
        value: 0.98991746
        inSlope: -0.09934715
        outSlope: -0.09934715
        tangentMode: 0
        weightedMode: 0
        inWeight: 0.33333334
        outWeight: 0.33333334
      - serializedVersion: 3
        time: 0.46666685
        value: 0.9881556
        inSlope: -0.11268845
        outSlope: -0.11268845
        tangentMode: 0
        weightedMode: 0
        inWeight: 0.33333334
        outWeight: 0.33333334
      - serializedVersion: 3
        time: 0.48333353
        value: 0.9861612
        inSlope: -0.12729408
        outSlope: -0.12729408
        tangentMode: 0
        weightedMode: 0
        inWeight: 0.33333334
        outWeight: 0.33333334
      - serializedVersion: 3
        time: 0.5000002
        value: 0.98391247
        inSlope: -0.14323726
        outSlope: -0.14323726
        tangentMode: 0
        weightedMode: 0
        inWeight: 0.33333334
        outWeight: 0.33333334
      - serializedVersion: 3
        time: 0.5166668
        value: 0.9813866
        inSlope: -0.1730545
        outSlope: -0.1730545
        tangentMode: 0
        weightedMode: 0
        inWeight: 0.33333334
        outWeight: 0.33333334
      - serializedVersion: 3
        time: 0.5333335
        value: 0.978144
        inSlope: -0.23149632
        outSlope: -0.23149632
        tangentMode: 0
        weightedMode: 0
        inWeight: 0.33333334
        outWeight: 0.33333334
      - serializedVersion: 3
        time: 0.55000013
        value: 0.97367007
        inSlope: -0.3098938
        outSlope: -0.3098938
        tangentMode: 0
        weightedMode: 0
        inWeight: 0.33333334
        outWeight: 0.33333334
      - serializedVersion: 3
        time: 0.5666668
        value: 0.9678142
        inSlope: -0.39745545
        outSlope: -0.39745545
        tangentMode: 0
        weightedMode: 0
        inWeight: 0.33333334
        outWeight: 0.33333334
      - serializedVersion: 3
        time: 0.58333343
        value: 0.96042156
        inSlope: -0.4939543
        outSlope: -0.4939543
        tangentMode: 0
        weightedMode: 0
        inWeight: 0.33333334
        outWeight: 0.33333334
      - serializedVersion: 3
        time: 0.6000001
        value: 0.9513491
        inSlope: -0.5982548
        outSlope: -0.5982548
        tangentMode: 0
        weightedMode: 0
        inWeight: 0.33333334
        outWeight: 0.33333334
      - serializedVersion: 3
        time: 0.61666673
        value: 0.94047976
        inSlope: -0.70843107
        outSlope: -0.70843107
        tangentMode: 0
        weightedMode: 0
        inWeight: 0.33333334
        outWeight: 0.33333334
      - serializedVersion: 3
        time: 0.6333334
        value: 0.92773473
        inSlope: -0.821894
        outSlope: -0.821894
        tangentMode: 0
        weightedMode: 0
        inWeight: 0.33333334
        outWeight: 0.33333334
      - serializedVersion: 3
        time: 0.65000004
        value: 0.9130833
        inSlope: -0.93553215
        outSlope: -0.93553215
        tangentMode: 0
        weightedMode: 0
        inWeight: 0.33333334
        outWeight: 0.33333334
      - serializedVersion: 3
        time: 0.6666667
        value: 0.89655036
        inSlope: -1.0458658
        outSlope: -1.0458658
        tangentMode: 0
        weightedMode: 0
        inWeight: 0.33333334
        outWeight: 0.33333334
      - serializedVersion: 3
        time: 0.68333334
        value: 0.87822115
        inSlope: -1.1491864
        outSlope: -1.1491864
        tangentMode: 0
        weightedMode: 0
        inWeight: 0.33333334
        outWeight: 0.33333334
      - serializedVersion: 3
        time: 0.7
        value: 0.8582442
        inSlope: -1.2417012
        outSlope: -1.2417012
        tangentMode: 0
        weightedMode: 0
        inWeight: 0.33333334
        outWeight: 0.33333334
      - serializedVersion: 3
        time: 0.71666664
        value: 0.83683115
        inSlope: -1.3196874
        outSlope: -1.3196874
        tangentMode: 0
        weightedMode: 0
        inWeight: 0.33333334
        outWeight: 0.33333334
      - serializedVersion: 3
        time: 0.7333333
        value: 0.81425464
        inSlope: -1.3796009
        outSlope: -1.3796009
        tangentMode: 0
        weightedMode: 0
        inWeight: 0.33333334
        outWeight: 0.33333334
      - serializedVersion: 3
        time: 0.74999994
        value: 0.7908445
        inSlope: -1.4182086
        outSlope: -1.4182086
        tangentMode: 0
        weightedMode: 0
        inWeight: 0.33333334
        outWeight: 0.33333334
      - serializedVersion: 3
        time: 0.7666666
        value: 0.76698107
        inSlope: -1.4326836
        outSlope: -1.4326836
        tangentMode: 0
        weightedMode: 0
        inWeight: 0.33333334
        outWeight: 0.33333334
      - serializedVersion: 3
        time: 0.78333324
        value: 0.7430884
        inSlope: -1.4206583
        outSlope: -1.4206583
        tangentMode: 0
        weightedMode: 0
        inWeight: 0.33333334
        outWeight: 0.33333334
      - serializedVersion: 3
        time: 0.7999999
        value: 0.71962583
        inSlope: -1.3802911
        outSlope: -1.3802911
        tangentMode: 0
        weightedMode: 0
        inWeight: 0.33333334
        outWeight: 0.33333334
      - serializedVersion: 3
        time: 0.81666654
        value: 0.69707876
        inSlope: -1.3102837
        outSlope: -1.3102837
        tangentMode: 0
        weightedMode: 0
        inWeight: 0.33333334
        outWeight: 0.33333334
      - serializedVersion: 3
        time: 0.8333332
        value: 0.67594975
        inSlope: -1.2098956
        outSlope: -1.2098956
        tangentMode: 0
        weightedMode: 0
        inWeight: 0.33333334
        outWeight: 0.33333334
      - serializedVersion: 3
        time: 0.84999985
        value: 0.65674895
        inSlope: -1.078934
        outSlope: -1.078934
        tangentMode: 0
        weightedMode: 0
        inWeight: 0.33333334
        outWeight: 0.33333334
      - serializedVersion: 3
        time: 0.8666665
        value: 0.6399853
        inSlope: -0.91775084
        outSlope: -0.91775084
        tangentMode: 0
        weightedMode: 0
        inWeight: 0.33333334
        outWeight: 0.33333334
      - serializedVersion: 3
        time: 0.88333315
        value: 0.6261573
        inSlope: -0.7272227
        outSlope: -0.7272227
        tangentMode: 0
        weightedMode: 0
        inWeight: 0.33333334
        outWeight: 0.33333334
      - serializedVersion: 3
        time: 0.8999998
        value: 0.6157446
        inSlope: -0.50876725
        outSlope: -0.50876725
        tangentMode: 0
        weightedMode: 0
        inWeight: 0.33333334
        outWeight: 0.33333334
      - serializedVersion: 3
        time: 0.91666645
        value: 0.6091984
        inSlope: -0.2643757
        outSlope: -0.2643757
        tangentMode: 0
        weightedMode: 0
        inWeight: 0.33333334
        outWeight: 0.33333334
      - serializedVersion: 3
        time: 0.93333334
        value: 0.60693204
        inSlope: -0.13597903
        outSlope: -0.13597903
        tangentMode: 0
        weightedMode: 0
        inWeight: 0.33333334
        outWeight: 0.33333334
      m_PreInfinity: 2
      m_PostInfinity: 2
      m_RotationOrder: 4
    attribute: m_LocalRotation.w
    path: 
    classID: 4
    script: {fileID: 0}
  m_EulerEditorCurves:
  - curve:
      serializedVersion: 2
      m_Curve:
      - serializedVersion: 3
        time: 0
        value: 0.18100001
        inSlope: 0
        outSlope: 0
        tangentMode: 136
        weightedMode: 0
        inWeight: 0.33333334
        outWeight: 0.33333334
      - serializedVersion: 3
        time: 0.51666665
        value: -22.144001
        inSlope: -95.67857
        outSlope: -95.67857
        tangentMode: 136
        weightedMode: 0
        inWeight: 0.33333334
        outWeight: 0.33333334
      - serializedVersion: 3
        time: 0.93333334
        value: -105.264
        inSlope: 0
        outSlope: 0
        tangentMode: 136
        weightedMode: 0
        inWeight: 0.33333334
        outWeight: 0.33333334
      m_PreInfinity: 2
      m_PostInfinity: 2
      m_RotationOrder: 4
    attribute: localEulerAnglesBaked.x
    path: 
    classID: 4
    script: {fileID: 0}
  - curve:
      serializedVersion: 2
      m_Curve:
      - serializedVersion: 3
        time: 0
        value: 0
        inSlope: 0
        outSlope: 0
        tangentMode: 136
        weightedMode: 0
        inWeight: 0.33333334
        outWeight: 0.33333334
      - serializedVersion: 3
        time: 0.51666665
        value: 0
        inSlope: 0
        outSlope: 0
        tangentMode: 136
        weightedMode: 0
        inWeight: 0.33333334
        outWeight: 0.33333334
      - serializedVersion: 3
        time: 0.93333334
        value: -0.000015258789
        inSlope: 0
        outSlope: 0
        tangentMode: 136
        weightedMode: 0
        inWeight: 0.33333334
        outWeight: 0.33333334
      m_PreInfinity: 2
      m_PostInfinity: 2
      m_RotationOrder: 4
    attribute: localEulerAnglesBaked.y
    path: 
    classID: 4
    script: {fileID: 0}
  - curve:
      serializedVersion: 2
      m_Curve:
      - serializedVersion: 3
        time: 0
        value: 0
        inSlope: 0
        outSlope: 0
        tangentMode: 136
        weightedMode: 0
        inWeight: 0.33333334
        outWeight: 0.33333334
      - serializedVersion: 3
        time: 0.51666665
        value: 0
        inSlope: 0
        outSlope: 0
        tangentMode: 136
        weightedMode: 0
        inWeight: 0.33333334
        outWeight: 0.33333334
      - serializedVersion: 3
        time: 0.93333334
        value: 0
        inSlope: 0
        outSlope: 0
        tangentMode: 136
        weightedMode: 0
        inWeight: 0.33333334
        outWeight: 0.33333334
      m_PreInfinity: 2
      m_PostInfinity: 2
      m_RotationOrder: 4
    attribute: localEulerAnglesBaked.z
    path: 
    classID: 4
    script: {fileID: 0}
  m_HasGenericRootTransform: 0
  m_HasMotionFloatCurves: 0
  m_Events: []
