# 3ds Max Wavefront OBJ Exporter v0.97b - (c)2007 guruware
# File Created: 02.03.2020 18:31:00

mtllib Log.mtl

#
# object Log
#

v  0.497198 0.505446 -0.102865
v  0.233007 0.866485 -0.355416
v  -0.333415 0.846052 -0.463396
v  -0.497689 0.425299 -0.132244
v  -0.402039 0.309793 0.298698
v  0.003081 0.301348 0.505598
v  0.401803 0.344913 0.305982
v  0.397340 1.053846 -0.117317
v  0.149755 1.053846 -0.350249
v  -0.193730 1.053846 -0.372766
v  -0.394853 1.053846 -0.099718
v  -0.340912 1.053846 0.267737
v  -0.025892 1.053846 0.428951
v  0.301031 1.053846 0.236359
v  0.323725 1.768782 -0.116359
v  0.105531 1.768782 -0.316227
v  -0.199631 1.768782 -0.333954
v  -0.379924 1.768782 -0.096133
v  -0.333006 1.768782 0.221860
v  -0.054716 1.768782 0.359961
v  0.236434 1.768782 0.190649
v  0.361831 2.483719 -0.113305
v  0.125941 2.483719 -0.280632
v  -0.212959 2.483719 -0.289487
v  -0.417883 2.483719 -0.083689
v  -0.361514 2.483719 0.183134
v  -0.061762 2.483719 0.296919
v  0.262092 2.483719 0.148739
v  0.422488 3.348584 -0.097454
v  0.157725 3.348584 -0.315267
v  -0.210512 3.348584 -0.333294
v  -0.424229 3.348584 -0.085501
v  -0.349623 3.348584 0.242577
v  -0.020184 3.348584 0.390788
v  0.326143 3.348584 0.222077
v  0.541391 3.978611 -0.125075
v  0.211527 4.046883 -0.382977
v  -0.261992 3.974952 -0.389706
v  -0.543806 4.083610 -0.085473
v  -0.427779 4.150729 0.296916
v  -0.027344 4.014090 0.466695
v  0.417594 4.062358 0.258710
v  0.434444 0.493777 -0.088808
v  0.203735 0.851875 -0.309353
v  -0.305135 0.835977 -0.403648
v  -0.434358 0.429658 -0.114464
v  -0.350830 0.325202 0.261863
v  0.002949 0.315963 0.442542
v  0.351140 0.346887 0.268225
v  0.434444 0.532839 -0.088808
v  0.203735 0.890937 -0.309353
v  -0.305135 0.875039 -0.403648
v  -0.434358 0.440401 -0.114464
v  -0.350830 0.364264 0.261863
v  0.002949 0.362899 0.442542
v  0.351140 0.385950 0.268225
v  -0.000370 0.398573 0.002600
v  0.201520 0.888068 -0.304788
v  0.428425 0.530782 -0.088761
v  0.346229 0.384930 0.264381
v  0.002738 0.361505 0.435526
v  -0.345612 0.363506 0.258442
v  -0.427963 0.439347 -0.113081
v  -0.302055 0.872948 -0.398609
v  0.483731 3.977910 -0.111484
v  0.188180 4.048108 -0.342558
v  -0.236082 3.975050 -0.348587
v  -0.488581 4.081014 -0.076001
v  -0.384624 4.148452 0.266611
v  -0.025843 4.018726 0.418729
v  0.372811 4.061973 0.232379
v  0.483731 3.931523 -0.111484
v  0.188180 4.001721 -0.342558
v  -0.236082 3.928664 -0.348587
v  -0.488581 4.034627 -0.076001
v  -0.384624 4.102066 0.266611
v  -0.025843 3.972339 0.418729
v  0.372811 4.015586 0.232379
v  -0.012915 4.012271 0.005584
v  -0.420836 2.886106 -0.084532
v  -0.211821 2.886106 -0.309868
v  0.140729 2.886106 -0.296746
v  0.390052 2.886106 -0.105930
v  0.291893 2.886106 0.182860
v  -0.042417 2.886106 0.340592
v  -0.355982 2.886106 0.210790
v  -0.387720 1.395427 -0.098005
v  -0.196550 1.395427 -0.354222
v  0.128626 1.395427 -0.333994
v  0.362168 1.395427 -0.116859
v  0.270168 1.395427 0.214520
v  -0.039664 1.395427 0.395989
v  -0.337134 1.395427 0.245818
v  -0.396850 2.087574 -0.090585
v  -0.205574 2.087574 -0.314126
v  0.114632 2.087574 -0.300355
v  0.340717 2.087574 -0.114997
v  0.247875 2.087574 0.171962
v  -0.057858 2.087574 0.331850
v  -0.345718 2.087574 0.204592
v  -0.474690 3.658759 -0.085489
v  -0.232236 3.612907 -0.357099
v  0.180429 3.643261 -0.343840
v  0.472665 3.614451 -0.109110
v  0.364735 3.649791 0.237536
v  -0.023205 3.629423 0.422820
v  -0.382604 3.687083 0.265507
v  -0.370318 0.695909 0.282631
v  -0.444324 0.751475 -0.115365
v  -0.260928 0.953884 -0.416365
v  0.189805 0.963713 -0.352735
v  0.445378 0.790030 -0.110365
v  0.349509 0.712803 0.269852
v  -0.011954 0.691846 0.465823
v  0.126007 0.791996 -0.237878
v  0.301370 0.509890 -0.087387
v  0.243333 0.390643 0.177135
v  -0.001141 0.376925 0.298868
v  -0.241159 0.376021 0.176749
v  -0.301094 0.438796 -0.098442
v  -0.204723 0.779229 -0.308680
v  0.068735 0.705412 -0.177266
v  0.196784 0.493219 -0.079808
v  0.158771 0.400338 0.106565
v  -0.003895 0.393754 0.187558
v  -0.156928 0.390936 0.109548
v  -0.197795 0.440474 -0.082145
v  -0.128244 0.695198 -0.228043
v  0.367018 3.937553 -0.079035
v  0.156067 4.010921 -0.246866
v  -0.188877 3.943144 -0.249448
v  -0.379408 4.033879 -0.048205
v  -0.302026 4.093446 0.196042
v  -0.033090 3.974921 0.310647
v  0.291742 4.020612 0.160247
v  0.251139 3.940235 -0.046970
v  0.122799 4.019132 -0.151000
v  -0.141326 3.959146 -0.150620
v  -0.270252 4.032944 -0.020468
v  -0.218626 4.084262 0.126177
v  -0.039868 3.978760 0.202340
v  0.209873 4.025170 0.088520
v  -0.317584 2.419506 -0.079314
v  -0.344066 2.378638 -0.060825
v  -0.367233 2.367399 -0.016187
v  -0.373515 2.392370 0.028450
v  -0.359231 2.438926 0.046939
v  -0.332749 2.479793 0.028450
v  -0.309582 2.491033 -0.016187
v  -0.303300 2.466061 -0.060825
v  -0.591798 2.527536 -0.136880
v  -0.600760 2.505100 -0.127157
v  -0.608462 2.496940 -0.102222
v  -0.615194 2.510123 -0.080441
v  -0.615024 2.535980 -0.073015
v  -0.608051 2.559364 -0.084294
v  -0.598360 2.566576 -0.107672
v  -0.591628 2.553393 -0.129454
v  -0.444636 2.447807 -0.103256
v  -0.465916 2.417294 -0.089664
v  -0.484004 2.408979 -0.055923
v  -0.488303 2.427733 -0.021798
v  -0.476296 2.462571 -0.007279
v  -0.455016 2.493084 -0.020870
v  -0.436929 2.501399 -0.054611
v  -0.432629 2.482645 -0.088736
v  -0.764929 2.628854 -0.196316
v  -0.767910 2.616812 -0.192324
v  -0.770213 2.611087 -0.180916
v  -0.770488 2.615033 -0.168774
v  -0.768575 2.626338 -0.163011
v  -0.765594 2.638381 -0.167003
v  -0.763291 2.644105 -0.178411
v  -0.763016 2.640159 -0.190553
v  -0.905845 2.677510 -0.241100
v  -0.912671 2.670450 -0.239943
v  -0.918999 2.667962 -0.232964
v  -0.921123 2.671503 -0.224253
v  -0.917798 2.679000 -0.218912
v  -0.910973 2.686060 -0.220069
v  -0.904644 2.688549 -0.227047
v  -0.902520 2.685007 -0.235759
v  -0.991370 2.708797 -0.256571
v  0.402705 3.642918 0.034147
v  0.388931 3.688708 0.016709
v  0.369662 3.731870 0.037207
v  0.356184 3.747119 0.083633
v  0.356393 3.725523 0.128791
v  0.370166 3.679733 0.146228
v  0.389436 3.636571 0.125731
v  0.402914 3.621322 0.079305
v  0.586083 3.721767 0.141597
v  0.576458 3.743364 0.130710
v  0.562867 3.765290 0.139636
v  0.558156 3.774417 0.163800
v  0.563061 3.765517 0.188776
v  0.574710 3.743803 0.199934
v  0.586278 3.721994 0.190737
v  0.590989 3.712867 0.166574
v  0.478481 3.691649 0.067940
v  0.468939 3.726620 0.055090
v  0.454674 3.759499 0.070841
v  0.444044 3.771024 0.105965
v  0.443275 3.754446 0.139888
v  0.452818 3.719475 0.152738
v  0.467082 3.686597 0.136987
v  0.477712 3.675071 0.101863
v  0.726401 3.742868 0.223134
v  0.721163 3.752717 0.216249
v  0.713739 3.763006 0.218494
v  0.708477 3.767708 0.228553
v  0.708461 3.764068 0.240534
v  0.713699 3.754219 0.247419
v  0.721123 3.743930 0.245174
v  0.726384 3.739228 0.235115
v  0.826690 3.778654 0.264278
v  0.826375 3.786814 0.260554
v  0.824222 3.795530 0.263690
v  0.821493 3.799698 0.271850
v  0.819787 3.796875 0.280253
v  0.820102 3.788714 0.283978
v  0.822255 3.779997 0.280842
v  0.824984 3.775830 0.272682
v  0.881653 3.805761 0.297247
# 224 vertices

vt 0.939688 0.360701 -108.538040
vt 0.870555 0.421063 -108.538040
vt 0.888383 0.506101 -108.538040
vt 0.965527 0.579440 -108.538040
vt 0.974473 0.646168 -36.807343
vt 0.958304 0.708419 -108.538040
vt 0.959712 0.295661 -108.538040
vt 0.823051 0.385191 -108.538040
vt 0.829070 0.436454 -108.538040
vt 0.834021 0.494136 -108.538040
vt 0.826448 0.551314 -108.538040
vt 0.816181 0.607952 -108.538040
vt 0.805312 0.657582 -108.538040
vt 0.812854 0.330713 -108.538040
vt 0.662512 0.402157 -108.538040
vt 0.664357 0.446325 -108.538040
vt 0.664661 0.492570 -108.538040
vt 0.663127 0.538517 -108.538040
vt 0.661155 0.585729 -108.538040
vt 0.658315 0.629119 -108.538040
vt 0.658964 0.353642 -108.538040
vt 0.504155 0.405299 -108.538040
vt 0.505310 0.447069 -108.538040
vt 0.506513 0.497245 -108.538040
vt 0.507421 0.540914 -108.538040
vt 0.508802 0.579718 -108.538040
vt 0.510730 0.623906 -108.538040
vt 0.504763 0.363743 -108.538040
vt 0.315897 0.398503 -108.538040
vt 0.316132 0.448049 -108.538040
vt 0.317302 0.502477 -108.538040
vt 0.320503 0.552104 -108.538040
vt 0.325854 0.600730 -108.538040
vt 0.333254 0.650901 -108.538040
vt 0.320607 0.349350 -108.538040
vt 0.793218 0.754751 0.504364
vt 0.768036 0.812577 -0.523764
vt 0.695040 0.820246 -0.523764
vt 0.629053 0.790558 0.523764
vt 0.623967 0.731066 -0.523764
vt 0.687759 0.696541 -0.523764
vt 0.762490 0.698871 -0.523764
vt 0.381411 0.845212 -0.288381
vt 0.422280 0.934796 -0.288381
vt 0.459168 0.958788 -0.288381
vt 0.527690 0.892821 -0.288381
vt 0.524917 0.810214 -0.288381
vt 0.468173 0.764299 -0.288381
vt 0.405057 0.782623 -0.288381
vt 0.388181 0.847797 -0.288381
vt 0.429152 0.933930 -0.288381
vt 0.457399 0.953757 -0.288381
vt 0.519450 0.892552 -0.288381
vt 0.515137 0.817302 -0.288381
vt 0.465357 0.775186 -0.288381
vt 0.409067 0.791366 -0.288381
vt 0.266680 0.841614 -0.298550
vt 0.435508 0.930850 -0.288381
vt 0.397406 0.850584 -0.288381
vt 0.414858 0.797655 -0.288381
vt 0.463572 0.783728 -0.288381
vt 0.507667 0.819682 -0.288381
vt 0.513873 0.890709 -0.288381
vt 0.456262 0.945993 -0.288381
vt 0.785024 0.755707 -0.523764
vt 0.763990 0.808953 -0.523764
vt 0.697135 0.814054 -0.523764
vt 0.636133 0.786737 -0.523764
vt 0.630658 0.734065 -0.523764
vt 0.690065 0.702700 -0.523764
vt 0.758157 0.703542 -0.523764
vt 0.775028 0.756512 -0.523764
vt 0.759738 0.802841 -0.523764
vt 0.699753 0.804221 -0.523764
vt 0.645019 0.783938 -0.523764
vt 0.638208 0.737264 -0.523764
vt 0.694421 0.712020 -0.523764
vt 0.754903 0.710311 -0.523764
vt 0.691680 0.906876 -0.513356
vt 0.421189 0.544761 -108.538040
vt 0.418670 0.499260 -108.538040
vt 0.417151 0.447935 -108.538040
vt 0.416723 0.403237 -108.538040
vt 0.418497 0.358943 -108.538040
vt 0.428185 0.634337 -108.538040
vt 0.423925 0.587605 -108.538040
vt 0.746756 0.543048 -108.538040
vt 0.749817 0.492477 -108.538040
vt 0.749501 0.442511 -108.538040
vt 0.746798 0.395239 -108.538040
vt 0.740140 0.343969 -108.538040
vt 0.735362 0.641168 -108.538040
vt 0.741868 0.594564 -108.538040
vt 0.592955 0.538320 -108.538040
vt 0.593766 0.494077 -108.538040
vt 0.592837 0.446694 -108.538040
vt 0.590869 0.404556 -108.538040
vt 0.590011 0.360010 -108.538040
vt 0.592542 0.624838 -108.538040
vt 0.592937 0.581317 -108.538040
vt 0.253433 0.559830 -108.538040
vt 0.260004 0.506135 -108.538040
vt 0.252114 0.447352 -108.538040
vt 0.258133 0.395115 -108.538040
vt 0.257170 0.342363 -108.538040
vt 0.276025 0.661882 -108.538040
vt 0.254193 0.611157 -108.538040
vt 0.893537 0.625362 -108.538040
vt 0.895204 0.564186 -108.538040
vt 0.860842 0.500706 -108.538040
vt 0.849236 0.428881 -108.538040
vt 0.880159 0.373596 -108.538040
vt 0.884409 0.314380 -108.538040
vt 0.879109 0.680934 -108.538040
vt 0.218518 0.921458 -0.298550
vt 0.216076 0.852155 -0.298550
vt 0.238214 0.810090 -0.298550
vt 0.277781 0.799892 -0.298550
vt 0.307624 0.824724 -0.298550
vt 0.304538 0.867737 -0.298550
vt 0.264808 0.939029 -0.298550
vt 0.233476 0.904412 -0.298550
vt 0.231693 0.853473 -0.298550
vt 0.247641 0.822875 -0.298550
vt 0.273826 0.816188 -0.298550
vt 0.292736 0.831922 -0.298550
vt 0.290420 0.862346 -0.298550
vt 0.261039 0.914935 -0.298550
vt 0.752289 0.905240 -0.513356
vt 0.727603 0.937748 -0.513356
vt 0.677679 0.954235 -0.513356
vt 0.638949 0.929176 -0.513356
vt 0.637826 0.890484 -0.513356
vt 0.676269 0.861690 -0.513356
vt 0.728845 0.872252 -0.513356
vt 0.735085 0.905059 -0.513356
vt 0.718196 0.925789 -0.513356
vt 0.679977 0.938289 -0.513356
vt 0.653087 0.921115 -0.513356
vt 0.652452 0.896832 -0.513356
vt 0.680172 0.876909 -0.513356
vt 0.719745 0.884930 -0.513356
vt 0.200202 0.939939 -0.298550
vt 0.196955 0.849903 -0.298550
vt 0.226505 0.794587 -0.298550
vt 0.282484 0.779995 0.174347
vt 0.325937 0.816247 -0.298550
vt 0.322077 0.874198 -0.298550
vt 0.270634 0.966503 0.298550
vt 0.770211 0.905474 0.494521
vt 0.736676 0.949845 -0.513356
vt 0.675466 0.970295 -0.513356
vt 0.624790 0.937192 0.513356
vt 0.623044 0.883750 -0.513356
vt 0.672576 0.846357 -0.513356
vt 0.737517 0.859444 -0.513356
vt 0.372801 0.847736 -0.288381
vt 0.418309 0.937992 -0.288381
vt 0.460480 0.964479 0.288381
vt 0.535557 0.896660 -0.288381
vt 0.536129 0.804277 -0.288381
vt 0.950033 0.232120 -108.538040
vt 0.470548 0.753755 0.159193
vt 0.398502 0.776494 -0.288381
vt 0.799956 0.277448 -108.538040
vt 0.654076 0.304146 -108.538040
vt 0.506368 0.312244 -108.538040
vt 0.328433 0.294716 -108.538040
vt 0.181728 0.389718 -108.538040
vt 0.167463 0.446192 -108.538040
vt 0.184174 0.510989 -108.538040
vt 0.164916 0.570700 -108.538040
vt 0.158856 0.626932 108.538040
vt 0.198433 0.679231 -108.538040
vt 0.194654 0.265484 -108.538040
vt 0.172117 0.331356 -108.538040
vt 0.423369 0.306329 -108.538040
vt 0.731019 0.292596 -108.538040
vt 0.588338 0.310132 -108.538040
vt 0.271776 0.283121 -108.538040
vt 0.872233 0.256373 -108.538040
vt 0.869191 0.820490 -0.733340
vt 0.874972 0.811746 -0.733340
vt 0.880805 0.802663 -0.733340
vt 0.864642 0.869984 -0.733340
vt 0.862908 0.859561 -0.244447
vt 0.861513 0.849426 -0.733340
vt 0.861758 0.839278 -0.733340
vt 0.864475 0.829507 -0.733340
vt 0.919221 0.838983 -0.733340
vt 0.920325 0.833493 -0.733340
vt 0.922277 0.827937 -0.733340
vt 0.913837 0.866849 -0.733340
vt 0.915298 0.861535 -0.733340
vt 0.917222 0.856305 -0.733340
vt 0.918648 0.850710 -0.733340
vt 0.919167 0.844848 -0.733340
vt 0.891213 0.826874 -0.733340
vt 0.895405 0.819634 -0.733340
vt 0.899906 0.812843 -0.733340
vt 0.886555 0.870405 -0.733340
vt 0.885681 0.861943 -0.733340
vt 0.885181 0.852969 -0.733340
vt 0.885825 0.843858 -0.733340
vt 0.887810 0.834987 -0.733340
vt 0.953734 0.852143 -0.733340
vt 0.953987 0.849448 -0.733340
vt 0.954293 0.846741 -0.733340
vt 0.950090 0.865144 -0.733340
vt 0.950328 0.862379 -0.733340
vt 0.951185 0.859766 -0.733340
vt 0.952263 0.857283 -0.733340
vt 0.953174 0.854766 -0.733340
vt 0.978598 0.858108 -0.733340
vt 0.979833 0.856587 -0.733340
vt 0.981157 0.855032 -0.733340
vt 0.978561 0.867464 -0.733340
vt 0.978123 0.865550 -0.733340
vt 0.977609 0.863680 -0.733340
vt 0.977375 0.861755 -0.733340
vt 0.977703 0.859834 -0.733340
vt 0.993017 0.864489 0.733340
vt 0.865726 0.880810 -0.733340
vt 0.913795 0.872482 -0.733340
vt 0.887457 0.878557 -0.733340
vt 0.950554 0.867850 -0.733340
vt 0.978697 0.869507 -0.733340
vt 0.887082 0.971448 -0.750000
vt 0.884820 0.962145 -0.750000
vt 0.882906 0.952515 -0.250000
vt 0.880926 0.942960 -0.750000
vt 0.878816 0.933685 -0.750000
vt 0.877368 0.924552 -0.750000
vt 0.877737 0.915372 -0.750000
vt 0.880580 0.906651 -0.750000
vt 0.926902 0.951591 -0.750000
vt 0.924428 0.947583 -0.750000
vt 0.922390 0.943095 -0.750000
vt 0.922238 0.938356 -0.750000
vt 0.923250 0.933780 -0.750000
vt 0.924605 0.929273 -0.750000
vt 0.925485 0.924531 -0.750000
vt 0.925556 0.919688 -0.750000
vt 0.903734 0.961086 -0.750000
vt 0.901909 0.954582 -0.750000
vt 0.900658 0.948197 -0.750000
vt 0.899490 0.941734 -0.750000
vt 0.898421 0.934839 -0.750000
vt 0.897741 0.927424 -0.750000
vt 0.898136 0.919889 -0.750000
vt 0.899854 0.912621 -0.750000
vt 0.957530 0.941129 -0.750000
vt 0.956374 0.938996 -0.750000
vt 0.955209 0.936795 -0.750000
vt 0.954408 0.934414 -0.750000
vt 0.954239 0.931906 -0.750000
vt 0.954633 0.929473 -0.750000
vt 0.955220 0.927145 -0.750000
vt 0.955655 0.924844 -0.750000
vt 0.979125 0.935602 -0.750000
vt 0.979063 0.933982 -0.750000
vt 0.979037 0.932408 -0.750000
vt 0.978809 0.930870 -0.750000
vt 0.978347 0.929373 -0.750000
vt 0.977813 0.927864 -0.750000
vt 0.977497 0.926240 -0.750000
vt 0.977659 0.924555 -0.750000
vt 0.990199 0.929252 0.750000
vt 0.890796 0.980220 -0.750000
vt 0.930174 0.955271 -0.750000
vt 0.906655 0.967503 -0.750000
vt 0.958402 0.943328 -0.750000
vt 0.979524 0.937255 -0.750000
# 273 texture coords

o Log
g Log
usemtl wire_135059008
f 1/1 2/2 111/111 112/112 
f 2/2 3/3 110/110 111/111 
f 3/3 4/4 109/109 110/110 
f 4/4 5/5 108/108 109/109 
f 5/5 6/6 114/114 108/108 
f 6/162 7/7 113/113 114/181 
f 7/7 1/1 112/112 113/113 
f 8/8 9/9 89/89 90/90 
f 9/9 10/10 88/88 89/89 
f 10/10 11/11 87/87 88/88 
f 11/11 12/12 93/93 87/87 
f 12/12 13/13 92/92 93/93 
f 13/165 14/14 91/91 92/178 
f 14/14 8/8 90/90 91/91 
f 15/15 16/16 96/96 97/97 
f 16/16 17/17 95/95 96/96 
f 17/17 18/18 94/94 95/95 
f 18/18 19/19 100/100 94/94 
f 19/19 20/20 99/99 100/100 
f 20/166 21/21 98/98 99/179 
f 21/21 15/15 97/97 98/98 
f 22/22 23/23 82/82 83/83 
f 23/23 24/24 81/81 82/82 
f 24/24 25/25 80/80 81/81 
f 25/25 26/26 86/86 80/80 
f 26/26 27/27 85/85 86/86 
f 27/167 28/28 84/84 85/177 
f 28/28 22/22 83/83 84/84 
f 29/29 30/30 103/103 104/104 
f 30/30 31/31 102/102 103/103 
f 31/31 32/32 101/101 102/102 
f 32/32 33/33 107/107 101/101 
f 33/33 34/34 106/106 107/107 
f 34/168 35/35 105/105 106/180 
f 35/35 29/29 104/104 105/105 
f 2/158 1/157 43/43 44/44 
f 3/159 2/158 44/44 45/45 
f 4/160 3/159 45/45 46/46 
f 5/161 4/160 46/46 47/47 
f 6/163 5/161 47/47 48/48 
f 7/164 6/163 48/48 49/49 
f 1/157 7/164 49/49 43/43 
f 44/44 43/43 50/50 51/51 
f 45/45 44/44 51/51 52/52 
f 46/46 45/45 52/52 53/53 
f 47/47 46/46 53/53 54/54 
f 48/48 47/47 54/54 55/55 
f 49/49 48/48 55/55 56/56 
f 43/43 49/49 56/56 50/50 
f 122/122 123/123 57/57 
f 128/128 122/122 57/57 
f 127/127 128/128 57/57 
f 126/126 127/127 57/57 
f 125/125 126/126 57/57 
f 124/124 125/125 57/57 
f 123/123 124/124 57/57 
f 51/51 50/50 59/59 58/58 
f 50/50 56/56 60/60 59/59 
f 56/56 55/55 61/61 60/60 
f 55/55 54/54 62/62 61/61 
f 54/54 53/53 63/63 62/62 
f 53/53 52/52 64/64 63/63 
f 52/52 51/51 58/58 64/64 
f 36/36 37/37 66/66 65/65 
f 37/37 38/38 67/67 66/66 
f 38/38 39/39 68/68 67/67 
f 39/39 40/40 69/69 68/68 
f 40/40 41/41 70/70 69/69 
f 41/41 42/42 71/71 70/70 
f 42/42 36/36 65/65 71/71 
f 65/65 66/66 73/73 72/72 
f 66/66 67/67 74/74 73/73 
f 67/67 68/68 75/75 74/74 
f 68/68 69/69 76/76 75/75 
f 69/69 70/70 77/77 76/76 
f 70/70 71/71 78/78 77/77 
f 71/71 65/65 72/72 78/78 
f 136/136 137/137 79/79 
f 137/137 138/138 79/79 
f 138/138 139/139 79/79 
f 139/139 140/140 79/79 
f 140/140 141/141 79/79 
f 141/141 142/142 79/79 
f 142/142 136/136 79/79 
f 82/82 30/30 29/29 83/83 
f 81/81 31/31 30/30 82/82 
f 80/80 32/32 31/31 81/81 
f 86/86 33/33 32/32 80/80 
f 85/85 34/34 33/33 86/86 
f 84/84 35/35 34/168 85/177 
f 83/83 29/29 35/35 84/84 
f 89/89 16/16 15/15 90/90 
f 88/88 17/17 16/16 89/89 
f 87/87 18/18 17/17 88/88 
f 93/93 19/19 18/18 87/87 
f 92/92 20/20 19/19 93/93 
f 91/91 21/21 20/166 92/178 
f 90/90 15/15 21/21 91/91 
f 96/96 23/23 22/22 97/97 
f 95/95 24/24 23/23 96/96 
f 94/94 25/25 24/24 95/95 
f 100/100 26/26 25/25 94/94 
f 99/99 27/27 26/26 100/100 
f 98/98 28/28 27/167 99/179 
f 97/97 22/22 28/28 98/98 
f 103/103 37/170 36/169 104/104 
f 102/102 38/171 37/170 103/103 
f 101/101 39/172 38/171 102/102 
f 107/107 40/173 39/172 101/101 
f 106/106 41/174 40/173 107/107 
f 105/105 42/176 41/175 106/180 
f 104/104 36/169 42/176 105/105 
f 111/111 9/9 8/8 112/112 
f 110/110 10/10 9/9 111/111 
f 109/109 11/11 10/10 110/110 
f 108/108 12/12 11/11 109/109 
f 114/114 13/13 12/12 108/108 
f 113/113 14/14 13/165 114/181 
f 112/112 8/8 14/14 113/113 
f 58/143 59/144 116/116 115/115 
f 59/144 60/145 117/117 116/116 
f 60/145 61/146 118/118 117/117 
f 61/146 62/147 119/119 118/118 
f 62/147 63/148 120/120 119/119 
f 63/148 64/149 121/121 120/120 
f 64/149 58/143 115/115 121/121 
f 115/115 116/116 123/123 122/122 
f 116/116 117/117 124/124 123/123 
f 117/117 118/118 125/125 124/124 
f 118/118 119/119 126/126 125/125 
f 119/119 120/120 127/127 126/126 
f 120/120 121/121 128/128 127/127 
f 121/121 115/115 122/122 128/128 
f 72/150 73/151 130/130 129/129 
f 73/151 74/152 131/131 130/130 
f 74/152 75/153 132/132 131/131 
f 75/153 76/154 133/133 132/132 
f 76/154 77/155 134/134 133/133 
f 77/155 78/156 135/135 134/134 
f 78/156 72/150 129/129 135/135 
f 129/129 130/130 137/137 136/136 
f 130/130 131/131 138/138 137/137 
f 131/131 132/132 139/139 138/138 
f 132/132 133/133 140/140 139/139 
f 133/133 134/134 141/141 140/140 
f 134/134 135/135 142/142 141/141 
f 135/135 129/129 136/136 142/142 
f 143/182 144/183 160/199 159/198 
f 144/183 145/184 161/200 160/199 
f 145/223 146/185 162/201 161/225 
f 146/185 147/186 163/202 162/201 
f 147/186 148/187 164/203 163/202 
f 148/187 149/188 165/204 164/203 
f 149/188 150/189 166/205 165/204 
f 150/189 143/182 159/198 166/205 
f 160/199 152/191 151/190 159/198 
f 161/200 153/192 152/191 160/199 
f 162/201 154/193 153/224 161/225 
f 163/202 155/194 154/193 162/201 
f 164/203 156/195 155/194 163/202 
f 165/204 157/196 156/195 164/203 
f 166/205 158/197 157/196 165/204 
f 159/198 151/190 158/197 166/205 
f 151/190 152/191 168/207 167/206 
f 152/191 153/192 169/208 168/207 
f 153/224 154/193 170/209 169/226 
f 154/193 155/194 171/210 170/209 
f 155/194 156/195 172/211 171/210 
f 156/195 157/196 173/212 172/211 
f 157/196 158/197 174/213 173/212 
f 158/197 151/190 167/206 174/213 
f 167/206 168/207 176/215 175/214 
f 168/207 169/208 177/216 176/215 
f 169/226 170/209 178/217 177/227 
f 170/209 171/210 179/218 178/217 
f 171/210 172/211 180/219 179/218 
f 172/211 173/212 181/220 180/219 
f 173/212 174/213 182/221 181/220 
f 174/213 167/206 175/214 182/221 
f 175/214 176/215 183/222 
f 176/215 177/216 183/222 
f 177/227 178/217 183/222 
f 178/217 179/218 183/222 
f 179/218 180/219 183/222 
f 180/219 181/220 183/222 
f 181/220 182/221 183/222 
f 182/221 175/214 183/222 
f 184/228 185/229 201/245 200/244 
f 185/229 186/230 202/246 201/245 
f 186/230 187/231 203/247 202/246 
f 187/231 188/232 204/248 203/247 
f 188/232 189/233 205/249 204/248 
f 189/233 190/234 206/250 205/249 
f 190/234 191/235 207/251 206/250 
f 191/269 184/228 200/244 207/271 
f 201/245 193/237 192/236 200/244 
f 202/246 194/238 193/237 201/245 
f 203/247 195/239 194/238 202/246 
f 204/248 196/240 195/239 203/247 
f 205/249 197/241 196/240 204/248 
f 206/250 198/242 197/241 205/249 
f 207/251 199/243 198/242 206/250 
f 200/244 192/236 199/270 207/271 
f 192/236 193/237 209/253 208/252 
f 193/237 194/238 210/254 209/253 
f 194/238 195/239 211/255 210/254 
f 195/239 196/240 212/256 211/255 
f 196/240 197/241 213/257 212/256 
f 197/241 198/242 214/258 213/257 
f 198/242 199/243 215/259 214/258 
f 199/270 192/236 208/252 215/272 
f 208/252 209/253 217/261 216/260 
f 209/253 210/254 218/262 217/261 
f 210/254 211/255 219/263 218/262 
f 211/255 212/256 220/264 219/263 
f 212/256 213/257 221/265 220/264 
f 213/257 214/258 222/266 221/265 
f 214/258 215/259 223/267 222/266 
f 215/272 208/252 216/260 223/273 
f 216/260 217/261 224/268 
f 217/261 218/262 224/268 
f 218/262 219/263 224/268 
f 219/263 220/264 224/268 
f 220/264 221/265 224/268 
f 221/265 222/266 224/268 
f 222/266 223/267 224/268 
f 223/273 216/260 224/268 
# 197 polygons - 30 triangles

