%YAML 1.1
%TAG !u! tag:unity3d.com,2011:
--- !u!21 &2100000
Material:
  serializedVersion: 6
  m_ObjectHideFlags: 0
  m_CorrespondingSourceObject: {fileID: 0}
  m_PrefabInstance: {fileID: 0}
  m_PrefabAsset: {fileID: 0}
  m_Name: Bot Body 2
  m_Shader: {fileID: 4800000, guid: e17fabb992d8ef84e9d472c3e82a7bca, type: 3}
  m_ShaderKeywords: 
  m_LightmapFlags: 4
  m_EnableInstancingVariants: 0
  m_DoubleSidedGI: 0
  m_CustomRenderQueue: -1
  stringTagMap: {}
  disabledShaderPasses: []
  m_SavedProperties:
    serializedVersion: 3
    m_TexEnvs:
    - Texture2D_1F94298A:
        m_Texture: {fileID: 0}
        m_Scale: {x: 1, y: 1}
        m_Offset: {x: 0, y: 0}
    - Texture2D_44758B8B:
        m_Texture: {fileID: 0}
        m_Scale: {x: 1, y: 1}
        m_Offset: {x: 0, y: 0}
    - Texture2D_A1AC5E08:
        m_Texture: {fileID: 0}
        m_Scale: {x: 1, y: 1}
        m_Offset: {x: 0, y: 0}
    m_Floats:
    - Boolean_5F3F3066: 1
    - Boolean_ED1F7A45: 0
    - Vector1_28DB988: 2.5
    - Vector1_30136C17: 0.12
    - Vector1_3A15C4B4: 0.08
    - Vector1_43110730: 0.554
    - Vector1_6C2FFD40: 0.075
    - Vector1_C91F4DC7: 1
    - Vector1_D0D0CB2A: 1
    m_Colors:
    - Color_11680D00: {r: 0, g: 0, b: 0, a: 0}
    - Color_8BC11E58: {r: 0.34901962, g: 0.23529413, b: 0.15686275, a: 0}
    - Color_AFF33C77: {r: 0, g: 0, b: 0, a: 0}
